,Tilt-0,Tilt-10,Tilt-20,Tilt-30,Tilt-40,Tilt-50,Tilt-60,Tilt-70,Tilt-80,Tilt-90
surface azimuth -180,1.0,0.9555625216795142,0.8894680183743481,0.803940841301962,0.7024425995803245,0.5956287396370279,0.4999865055054964,0.41327078672053796,0.3403244471587165,0.286162686589588
surface azimuth -170,1.0,0.9563045867865624,0.8909876021118689,0.8063773986122292,0.7062994356486835,0.600290286941006,0.5048095207347431,0.41894779460239895,0.3465194977295817,0.29279886177865344
surface azimuth -160,1.0,0.9581297417171603,0.8947058275597687,0.8123395833731601,0.7155021112844501,0.6124445383593663,0.5161309720100858,0.4310397606205422,0.3595537789713159,0.30888766032943504
surface azimuth -150,1.0,0.960981894087405,0.9005476111015929,0.821560059885399,0.7288421581017932,0.6302229226648218,0.5352048084117138,0.45049384383499164,0.3810945793031087,0.33010001678637435
surface azimuth -140,1.0,0.9647821172325561,0.9082948042154535,0.8336119824254145,0.7457791531946175,0.6520454247911653,0.5600862691021551,0.47704755442333435,0.4079548707742217,0.3538214115921589
surface azimuth -130,1.0,0.969422639248609,0.917709984314482,0.8480681275961856,0.7655697720294493,0.6764417766486926,0.5880192984106255,0.5069646993941095,0.4370149880928038,0.37920958008425526
surface azimuth -120,1.0,0.9747495070880524,0.9284156307912723,0.8643035924426533,0.787053431349091,0.7023102479047061,0.6173611313124213,0.537616701287611,0.4662888172161535,0.4048170763628715
surface azimuth -110,1.0,0.9805992166075467,0.9401635846265404,0.8817578098239324,0.8094146344168051,0.7288834468301122,0.6466174965582117,0.5673861410815378,0.49435966117121316,0.42921918695849853
surface azimuth -100,1.0,0.986800821489448,0.9524645786484953,0.8996965807192081,0.8320593078385314,0.7550557453085903,0.6747376576404086,0.5953271950338956,0.5201880725509623,0.45114638135795687
surface azimuth -90,1.0,0.9931391856513799,0.9649252419245933,0.917694172239079,0.8543025833832953,0.7802660935925555,0.7010397681471565,0.6205628468389172,0.5430283529905989,0.470398044849958
surface azimuth -80,1.0,0.9994253546215839,0.9771926255525132,0.9351999855270162,0.87569168103112,0.8038152879142765,0.7250220632318153,0.6431397778235175,0.5623825163167963,0.48580260465579433
surface azimuth -70,1.0,1.0054634610810664,0.9889371407916662,0.9518589126810668,0.8959661755389086,0.8256212004731255,0.7464162099596166,0.6624273356227253,0.5778155238121082,0.49696697948761326
surface azimuth -60,1.0,1.0110723349023372,0.9998015473405111,0.9671375757997097,0.9144476057377385,0.8454369916190367,0.7649928006102119,0.6782324268959302,0.5896060521675912,0.5041236490969994
surface azimuth -50,1.0,1.0160906999693673,1.0095244075770864,0.9808614908944064,0.9309434086295144,0.8628412326628483,0.7812570583567705,0.6911705475940758,0.5979979551322421,0.5073803978441126
surface azimuth -40,1.0,1.0203681814685635,1.0177595535096096,0.992480050088357,0.945211473614015,0.8780148248256562,0.795033005389144,0.7015889303619693,0.6034551701462766,0.5073424123172657
surface azimuth -30,1.0,1.0237805604085617,1.0242620123173247,1.0016420986119448,0.9565913313056764,0.8904136036378357,0.8063877556489805,0.7095781037881439,0.6064334849099984,0.5048346041405437
surface azimuth -20,1.0,1.0262567394748068,1.0289539256701812,1.0081398380492077,0.9645778342964706,0.899396842784267,0.8148833196196006,0.7152190635644191,0.6070005728452025,0.4999591039317636
surface azimuth -10,1.0,1.0277079241858735,1.0316436564620581,1.011771222810004,0.9688078557126387,0.9041705501428987,0.819663822736405,0.7183163671371849,0.6057106959443804,0.49486956855437775
surface azimuth 0,1.0,1.0280685097859912,1.032252390491249,1.0125305015598398,0.9695508765342404,0.9047598519596074,0.8203710030280589,0.7191714601852413,0.6055466539541828,0.494935802328361
surface azimuth 10,1.0,1.0273283322974056,1.0308087227369345,1.010444763660968,0.9669888915370883,0.9020348069386316,0.8178752632671552,0.7178454906645566,0.6071099289937533,0.4973070748550842
surface azimuth 20,1.0,1.0255109685267487,1.0272787237984173,1.0055398819564614,0.961290041445301,0.8961894625129291,0.812878228299016,0.7151262068933947,0.608775168540198,0.5029170921753452
surface azimuth 30,1.0,1.022671052463084,1.0218397054628,0.9980213771488612,0.9524312024579922,0.8870726229016708,0.8048289451320698,0.7100791495248382,0.6084813639799648,0.5077551812987559
surface azimuth 40,1.0,1.0188951717347683,1.0145768789749676,0.9879665364113198,0.940636027063396,0.8748790122031821,0.7939289053050225,0.7022987312016772,0.6053692957007462,0.5097043464951542
surface azimuth 50,1.0,1.0142983770845726,1.0057310519879692,0.9758414271474884,0.92639742299951,0.8599415598815128,0.7802323290090353,0.6916995603650313,0.5992445610992556,0.5085838612814079
surface azimuth 60,1.0,1.009028475632927,0.9956692705055812,0.9618198597520705,0.9096569631242397,0.84227093844501,0.7638101581366228,0.6779900971883618,0.5898193464123399,0.5037517317865509
surface azimuth 70,1.0,1.0032362540240007,0.9845113157142372,0.9461851393036697,0.8909676094870117,0.8225027200908209,0.7444853284440399,0.6609456469839949,0.5765022473673084,0.49470813716700746
surface azimuth 80,1.0,0.9970940544280461,0.9725888272354483,0.9292924909844958,0.8706404908701966,0.800322450703711,0.7222341850662787,0.6407552940242227,0.5592109940352628,0.4811997777382178
surface azimuth 90,1.0,0.9907882841494396,0.9602513965969978,0.9116602800726907,0.8488354595789636,0.7759177072098218,0.6972494311038576,0.6169331420671489,0.5379953268141882,0.46410273016070897
surface azimuth 100,1.0,0.9845079304495655,0.9478393213623129,0.893621350540561,0.8261348420919208,0.7499806645977825,0.6698679120568045,0.5898620013675472,0.5132246241304852,0.4433498588482851
surface azimuth 110,1.0,0.9784458014574353,0.9357518113280218,0.8757326225506474,0.8030776790427737,0.7229840130572467,0.6405647344680705,0.5603861130068641,0.4859158879599267,0.41964670776107915
surface azimuth 120,1.0,0.9727872724489087,0.924389263442722,0.858583202989771,0.7804357778034514,0.6956632871418839,0.6101800889705385,0.5292464619778839,0.4566909667606015,0.3942851887819058
surface azimuth 130,1.0,0.9677062964800451,0.9141197879352195,0.8428281824537702,0.7590674149929747,0.6691220118006841,0.5798466188608705,0.4977372599336237,0.4267693543474743,0.3683611349761909
surface azimuth 140,1.0,0.9633598504997345,0.9053176106136602,0.8291443588819272,0.7399587332311549,0.6446460251531768,0.5511860890318989,0.46737944851202,0.3977088865441163,0.3433663768516166
surface azimuth 150,1.0,0.9598805893315672,0.8982662647793008,0.8180757007770749,0.7241111829594392,0.6237137598539326,0.526574928523343,0.44097409833435935,0.37164370216766746,0.320884124938913
surface azimuth 160,1.0,0.9573764336739349,0.8931689523581585,0.809979982910276,0.7121195739433133,0.6074304698104251,0.5094306835845256,0.42338815265772767,0.35167987931931094,0.30162342322125907
surface azimuth 170,1.0,0.9559234784277202,0.8902006584577844,0.805176618759442,0.7045668981737324,0.59753285528653,0.5012254923356939,0.41470073619702175,0.34203277400854754,0.28817501563069103
surface azimuth 180,1.0,0.9555625216795142,0.8894680183743481,0.803940841301962,0.7024425995803245,0.5956287396370279,0.4999865055054964,0.41327078672053796,0.3403244471587165,0.286162686589588
