,Tilt-0,Tilt-10,Tilt-20,Tilt-30,Tilt-40,Tilt-50,Tilt-60,Tilt-70,Tilt-80,Tilt-90
surface azimuth -180,1.0,0.9531231209734843,0.8847413030260776,0.7972342607083288,0.6943139922867687,0.5876890799826228,0.4924241191752589,0.4069002873368055,0.33573864847455864,0.2837410189897353
surface azimuth -170,1.0,0.9539067413163109,0.8863357101958693,0.7997719746514728,0.698185287578392,0.5920371997087627,0.4970510692321118,0.4121586177521629,0.34124830711706267,0.2897380853956447
surface azimuth -160,1.0,0.9558428959014869,0.8902958326808755,0.8060953307629747,0.7077718504341117,0.6040305286962914,0.5083419037191098,0.4242934861526612,0.3541117539003282,0.3055797956982117
surface azimuth -150,1.0,0.9588764880145005,0.8964747432788104,0.8158601608016147,0.7219120302822732,0.6226889131045287,0.5277573765497606,0.4438765979990463,0.37552440901539913,0.32620275913286007
surface azimuth -140,1.0,0.962921622025402,0.9046857410868807,0.8286541724870821,0.7398778942955182,0.6455070733138708,0.5532815656591913,0.47059104826732134,0.4025649870668509,0.34984063194512943
surface azimuth -130,1.0,0.9678486474655986,0.9146534935944407,0.844029861227226,0.7607803664468853,0.6710368516158794,0.5820160223661691,0.5010651402454437,0.4320215802089806,0.3755087295648371
surface azimuth -120,1.0,0.973509304568404,0.9260616561377695,0.861271490261684,0.7835067781290935,0.6981089987099535,0.6124378318124559,0.5326974759606383,0.4621211668259707,0.4016857879285481
surface azimuth -110,1.0,0.9797312417148757,0.9385590068158747,0.8797906511412131,0.8071571079578784,0.7260013473005947,0.6430620590393857,0.5637469957869715,0.49131231459267805,0.42697526918488865
surface azimuth -100,1.0,0.9863181740862916,0.9516335163143332,0.8988197616702867,0.8311622246053755,0.7536450264151511,0.6727647749481763,0.5933080868465533,0.5185049840731493,0.4501756382283412
surface azimuth -90,1.0,0.9930603993232824,0.9648860663623573,0.9179090414352419,0.8547530388967666,0.7804948945160134,0.7007844367322839,0.6203690291520885,0.543090284581541,0.47083864480455745
surface azimuth -80,1.0,0.9997591810676202,0.977944885951523,0.936523463960267,0.8774967639737381,0.8057667480366438,0.7267265500451372,0.6447665102538127,0.5642392930954905,0.48790691355456767
surface azimuth -70,1.0,1.0062159696609805,0.9904617863382641,0.9542651975583626,0.8991303688112557,0.8291538417174972,0.7499868991054718,0.666063458333727,0.5815737050559813,0.5008648353330152
surface azimuth -60,1.0,1.0122301748360103,1.0020440797502543,0.9705637806022991,0.9188841926362923,0.8505088167248994,0.7703721770401457,0.6838744602132295,0.5954105211676023,0.5098895455955914
surface azimuth -50,1.0,1.0176204809971314,1.0124415841542906,0.9852546516368164,0.9366155319062522,0.8694317071126865,0.7883722155391055,0.6986569327285307,0.6057137660314199,0.5150151113427728
surface azimuth -40,1.0,1.0222221856004758,1.0212914202286225,0.9977271318199659,0.9520021663486943,0.8859485757499759,0.8037158180143711,0.710695567483871,0.6129174624006087,0.5167193484458968
surface azimuth -30,1.0,1.0258962417588218,1.0282986085283679,1.0076482089242638,0.9643362344480623,0.8995767948919196,0.8165160862177299,0.7202564219893752,0.6173925934387834,0.5156521208070407
surface azimuth -20,1.0,1.0285598891614507,1.0334301775945853,1.014688563250264,0.9730885120928007,0.9095612778499057,0.8262170680080403,0.7272465177735883,0.6193255983407682,0.5120344808104501
surface azimuth -10,1.0,1.0301184429813903,1.0364006782051334,1.0187101672516081,0.9778323624302853,0.9150483913857598,0.8320062477156044,0.7315182367081345,0.6191704035770911,0.5073038832178879
surface azimuth 0,1.0,1.030513332369852,1.0371199184100006,1.0197013198698541,0.9788113197745315,0.9158754016787475,0.833062387537042,0.732928070048882,0.6194435977207725,0.5065820005105768
surface azimuth 10,1.0,1.0297327385587929,1.0356087924116426,1.0175355878059016,0.9762069688870698,0.913048402756575,0.8302565267653721,0.7311094777465157,0.6203220853756741,0.508082233810333
surface azimuth 20,1.0,1.0278027543259094,1.031855110033381,1.0123309802053548,0.9700305152580384,0.9065666205145846,0.8244602611516543,0.7273286011814275,0.6204648177244648,0.5127928345446369
surface azimuth 30,1.0,1.0247807440254806,1.0260631709577643,1.0042334711147538,0.9603794713542778,0.8964802682258581,0.8152229368805293,0.7207284219485528,0.6183689969987592,0.5159886250805306
surface azimuth 40,1.0,1.0207601597908467,1.0183404640908562,0.9934834843467226,0.9476782602404273,0.8831164713978141,0.8029277069209089,0.7112527419657354,0.6134496213127456,0.516432777493507
surface azimuth 50,1.0,1.015862713439094,1.008899576363514,0.9804813410909201,0.9323375885481179,0.8669883923923104,0.7877529450408629,0.6990729928049846,0.6057774504729447,0.5138453366711278
surface azimuth 60,1.0,1.0102437955276273,0.998163084536046,0.9655362011366986,0.9145349831851404,0.8479997004675506,0.7698664225505327,0.6838702151207651,0.5947586536665816,0.507563568787528
surface azimuth 70,1.0,1.0040690738252442,0.9862996407054332,0.9489709149263438,0.8946987286718298,0.8269416127780741,0.7491656026699601,0.6652578446541279,0.5799276761714294,0.49717718100189984
surface azimuth 80,1.0,0.9975191709612599,0.9736292157686528,0.9310863226682933,0.8731695529849643,0.8033937703700083,0.7254279876930093,0.6435322276544041,0.5613319529573921,0.48256863143670525
surface azimuth 90,1.0,0.9907954840476395,0.9605169096727745,0.9124188221547606,0.8501549162291389,0.7776401883244208,0.698906124667151,0.6183648907070328,0.5389265535280252,0.4644384746972836
surface azimuth 100,1.0,0.9840964549332323,0.9473184334335569,0.8933461074886155,0.8261934119787723,0.7503261510646836,0.6702727097647544,0.5901820890549264,0.5131419120837323,0.4429080460617233
surface azimuth 110,1.0,0.9776242764505965,0.934441854860282,0.8744109099761384,0.8018652334638239,0.7219947198728442,0.6397779058437807,0.559763499559787,0.485110118283522,0.4186345382728447
surface azimuth 120,1.0,0.9715789093921319,0.9223234848312347,0.8562030605748447,0.7779918579433378,0.6933540006775466,0.6083481748357383,0.5278706042127759,0.45532214841399404,0.3929263449337299
surface azimuth 130,1.0,0.9661459647789753,0.9113368799410352,0.8394222926126986,0.7553709087355979,0.6655347314890495,0.5770494489281797,0.4957027524107305,0.42504837360831177,0.36687287474509556
surface azimuth 140,1.0,0.9614944220442249,0.9018834733803824,0.8247488737622699,0.7350622915027396,0.6398285543411205,0.5473824986614071,0.4647664659296563,0.395834007392096,0.34189930280783565
surface azimuth 150,1.0,0.9577662937450567,0.8943013162194823,0.8128031707803396,0.7180712802307038,0.6176912509537201,0.5217293326316634,0.43770653435120216,0.36960025949560676,0.31946608475209654
surface azimuth 160,1.0,0.9550785941040587,0.8887986237957366,0.8039795962692337,0.7050837143412846,0.6003507268619793,0.5036564809388565,0.4190685839386835,0.3491167225574865,0.30044346776922803
surface azimuth 170,1.0,0.9535169271769955,0.885560848346838,0.7986768166183711,0.6968092004996358,0.5900274536238495,0.49446050704301237,0.40920288938464805,0.33808665022762596,0.28673697905142653
surface azimuth 180,1.0,0.9531231209734843,0.8847413030260776,0.7972342607083288,0.6943139922867687,0.5876890799826228,0.4924241191752589,0.4069002873368055,0.33573864847455864,0.2837410189897353
