,Tilt-0,Tilt-10,Tilt-20,Tilt-30,Tilt-40,Tilt-50,Tilt-60,Tilt-70,Tilt-80,Tilt-90
surface azimuth -180,1.0,0.9560833297526578,0.8907648763868352,0.8062468326288651,0.7059286455698526,0.6005722815437706,0.5054279387685675,0.41876519261853595,0.34572437632106806,0.29138385227974667
surface azimuth -170,1.0,0.9567083348465223,0.8920523977913266,0.8083528662186417,0.7093881752742304,0.6047044268829027,0.5094907622871631,0.42358049383266655,0.35134596327799805,0.29792820948722687
surface azimuth -160,1.0,0.9583971129151632,0.8955047259342785,0.813914285048399,0.71809137936004,0.6160896177008207,0.5200325546784349,0.4349043380029244,0.3638435179140511,0.31340549869041545
surface azimuth -150,1.0,0.9610983958619813,0.9010425864659755,0.8227093030982777,0.7309405560590495,0.6331627273993627,0.5382329117072866,0.4535417500603014,0.38421183883212406,0.33342731314478985
surface azimuth -140,1.0,0.9647358714925792,0.9084843986926637,0.8344186598078508,0.7473957224911878,0.6540327520700142,0.5620248849411695,0.478841354805825,0.4097822568495101,0.35592963289770485
surface azimuth -130,1.0,0.9692002799667314,0.9176436399605384,0.8485229018752125,0.766402542884357,0.6773810245443175,0.5888488300060485,0.5075580990754185,0.4375645063871952,0.38004995237521877
surface azimuth -120,1.0,0.9743539795166879,0.928122338468091,0.8643418369990742,0.7870245895256992,0.7022932100886772,0.617152577269468,0.5371217655372175,0.4657360155007976,0.40449764880675965
surface azimuth -110,1.0,0.9800399987768361,0.9396295612508957,0.8812208176523002,0.8086370996999721,0.727966841115145,0.6454512020350518,0.5659559779499571,0.4928831266064678,0.4279807958205929
surface azimuth -100,1.0,0.9860936630420272,0.9516864246032266,0.8986385667856387,0.8306541388493487,0.7533685174309899,0.6727181433444761,0.593111657410221,0.5179668723190527,0.4492071645662707
surface azimuth -90,1.0,0.9922975383232463,0.963912482239513,0.9161963208958548,0.8523554522269852,0.777946494489269,0.6983484813318145,0.6176788645265612,0.5402510101138336,0.4679652707317887
surface azimuth -80,1.0,0.9984641636563157,0.9759620867248415,0.9333539213629634,0.8733354091891844,0.8010660751694184,0.721878631153163,0.6397816465271433,0.559167582319143,0.4830806493097587
surface azimuth -70,1.0,1.0044039309924635,0.987504102329293,0.9497459011556976,0.8933120905611427,0.8226165640276024,0.743041781990525,0.6588543685276034,0.5743661399713751,0.49408410573543715
surface azimuth -60,1.0,1.0099414816138106,0.9981865577939238,0.964848379497602,0.9116143102861131,0.8423094292074461,0.7616342141259802,0.6747351358105339,0.5861945584876797,0.5012535944726134
surface azimuth -50,1.0,1.014918349697906,1.0077446696543249,0.9784943424360619,0.9280368583155032,0.8596766737519157,0.7780814653710754,0.6879934049426256,0.5949767643938179,0.5048204154188044
surface azimuth -40,1.0,1.019184361977569,1.0158509348394043,0.9901083951179439,0.9423442743796662,0.8749608500254781,0.792058107214425,0.698863765825477,0.6010565088442963,0.5054340802061683
surface azimuth -30,1.0,1.022616247511941,1.0222707789427885,0.9993442656186032,0.9538739600188942,0.8875844601712081,0.8037181728791963,0.7073332069967025,0.6047268893785117,0.5037067664293037
surface azimuth -20,1.0,1.025141280247625,1.0270310807838166,1.0058663898933637,0.9621085848024737,0.8968992057760551,0.8126572694623299,0.7135154173072551,0.6060127157065017,0.49967074884941937
surface azimuth -10,1.0,1.0266604740879943,1.029861423442257,1.0095836203145145,0.9666188213722091,0.9021331955942509,0.8180329286286643,0.7173395028464591,0.6055522784349303,0.4952832296564001
surface azimuth 0,1.0,1.027114900207149,1.030652671839609,1.0106301342617723,0.96768384937891,0.9032686326475772,0.8194260312283315,0.7189325559919084,0.606176280154435,0.49591085594545775
surface azimuth 10,1.0,1.0264909289022215,1.0294414822283866,1.0088782165485577,0.9655537564708578,0.9010114895812422,0.8175292814278687,0.7184035793053811,0.6084827291074542,0.4988599200327783
surface azimuth 20,1.0,1.024809066169113,1.0261886612013449,1.0043812416528122,0.9603158951612707,0.8956597213391901,0.8130104809973121,0.7160520289299694,0.6102855820381844,0.5046367077672322
surface azimuth 30,1.0,1.0221204806260873,1.0210558214546668,0.9972726981124814,0.9519435784511254,0.8870770633342133,0.805465642060915,0.7112549400656631,0.6099137560257787,0.5091475572327337
surface azimuth 40,1.0,1.0185069116063914,1.0141161341746736,0.9876408864233999,0.9406797705903074,0.8754195100552534,0.7949639104592139,0.7035895167493078,0.6066539626594829,0.5107997412988976
surface azimuth 50,1.0,1.014078232768363,1.005592998186801,0.9759551482043566,0.9269495515568622,0.8609793401123688,0.7815770084823463,0.6930575456885146,0.6004048266814198,0.5093642752139464
surface azimuth 60,1.0,1.008976937853211,0.9958458626556813,0.9623826557411079,0.9107136700130278,0.8437742881539078,0.7654139463666249,0.6794541416211194,0.5908707826354781,0.5043270358197722
surface azimuth 70,1.0,1.0033465666604573,0.9849950813258457,0.9471830049277038,0.8925046623802875,0.8243925029841374,0.7463618712108703,0.6625398459528663,0.5775425720352803,0.4952919815996071
surface azimuth 80,1.0,0.9973558704082124,0.9733619350395787,0.9307011048877719,0.8726285208162179,0.8026098339158868,0.7244427581314364,0.6425575971345834,0.5604494155791534,0.4819549327924947
surface azimuth 90,1.0,0.991185873046822,0.9612907910929434,0.9134409763173988,0.8512471487815365,0.7786352714871403,0.6998605220118428,0.6191239711613193,0.5395752308379246,0.465154597038839
surface azimuth 100,1.0,0.9850228688770822,0.9491128303058324,0.8957380024344729,0.8289486301590612,0.7531591294894306,0.672972174252783,0.5925725323901436,0.5153106010687958,0.4447969345955261
surface azimuth 110,1.0,0.9790557033148093,0.9372201799113186,0.8781365237293559,0.806294793308815,0.7266511233433693,0.6442578255398695,0.5637422393120094,0.4885628787167268,0.42149058129901923
surface azimuth 120,1.0,0.9734672880274502,0.9260012854463566,0.8612217391282513,0.7839894070548009,0.6998360040892561,0.6145132620563453,0.5333119186064711,0.4598911498952298,0.3965559778199148
surface azimuth 130,1.0,0.9684298541506768,0.9158148519081646,0.8456339841540947,0.7628796171849433,0.6737557432458954,0.5848444440401399,0.5024688427001885,0.43051728337284517,0.3711998906522671
surface azimuth 140,1.0,0.9640992597182074,0.907042988017864,0.8320310446159991,0.7439640897213692,0.6496659087748139,0.5567701071592445,0.4726563755491393,0.4020739978605576,0.3469506393555755
surface azimuth 150,1.0,0.9606070571987692,0.8999680497910092,0.8209517348247976,0.7281936729669443,0.6289667978942749,0.5325383112637558,0.44674138844727707,0.37676224172134626,0.32517584864841004
surface azimuth 160,1.0,0.9580605856893726,0.8947925245240378,0.8127495445954505,0.7161585727872584,0.6127837032051594,0.5155471424640228,0.4294634776916642,0.35723466870219245,0.30651692573399386
surface azimuth 170,1.0,0.9565384725422378,0.8916868175131044,0.8077540892529121,0.7084082882660064,0.6028371524685123,0.5071825900294439,0.4206296608396711,0.34770547824477716,0.2933753823812544
surface azimuth 180,1.0,0.9560833297526578,0.8907648763868352,0.8062468326288651,0.7059286455698526,0.6005722815437706,0.5054279387685675,0.41876519261853595,0.34572437632106806,0.29138385227974667
