,Tilt-0,Tilt-10,Tilt-20,Tilt-30,Tilt-40,Tilt-50,Tilt-60,Tilt-70,Tilt-80,Tilt-90
surface azimuth -180,1.0,0.9550471718698642,0.8886123014535898,0.8029319058856904,0.7016459160667027,0.5962115010203111,0.5004815833046687,0.41356662497811053,0.3403553905831067,0.28651847708347167
surface azimuth -170,1.0,0.9559527798881335,0.8904269440697258,0.8058009509017555,0.7060525897363242,0.601222042076672,0.505860410319496,0.41957410901406306,0.34689958807769566,0.29372106415967747
surface azimuth -160,1.0,0.9579480699005386,0.8944615833810612,0.8122032622497075,0.7157554198076272,0.6132538604714978,0.5173679095995646,0.4319852254966698,0.3605481673626822,0.31057127927555855
surface azimuth -150,1.0,0.9609696525404886,0.9005730928373405,0.8218470644054776,0.7295923228923645,0.6313445215800257,0.5362682898790727,0.4516754879724971,0.38237492267161843,0.3317003134285297
surface azimuth -140,1.0,0.9649306590223257,0.9085815059198791,0.8343336440921543,0.7469481877777162,0.6532539278216138,0.5610048267632763,0.47806158572521507,0.40922485403342324,0.3553914353991995
surface azimuth -130,1.0,0.9697060847541431,0.9182722195540957,0.849154929143973,0.7669363938264899,0.6776908689452926,0.5889116051359874,0.5078058626814957,0.43812272320072215,0.38069700548626045
surface azimuth -120,1.0,0.9751544511256205,0.9292725727055616,0.8656204292536872,0.7885685947677156,0.7036203492832841,0.6183203180537922,0.53842929775563,0.46726103194693824,0.406172782703866
surface azimuth -110,1.0,0.981111416180112,0.9412108313411205,0.8832367451112068,0.8110755307292453,0.7303440313994367,0.6477246470146115,0.5682901440347756,0.49532621659477577,0.4304469350959387
surface azimuth -100,1.0,0.9874075511649745,0.9536564667073599,0.9013006442049346,0.8338837713991807,0.7567236542329191,0.6760523659226582,0.5964168256227091,0.5212791081947413,0.4524004945297508
surface azimuth -90,1.0,0.9938256752699085,0.9662314407715626,0.9194069276367619,0.8562512218830579,0.7821711349831331,0.7026722704198362,0.6219255537280327,0.5443462227306499,0.4718291476004014
surface azimuth -80,1.0,1.0001697985572104,0.9785876313305774,0.937009401782901,0.8777891758717062,0.8059582001590294,0.7270264438929981,0.6448759414297225,0.5639882379762339,0.4874997583475814
surface azimuth -70,1.0,1.0062442723639011,0.9903947944828188,0.9537430458615437,0.8981744071502472,0.8280101293380887,0.7487372658822862,0.6646019575011998,0.5798404321076694,0.49895331779858154
surface azimuth -60,1.0,1.01186417707944,1.0012906463615343,0.9690748811023255,0.9167340554515667,0.8479994163268052,0.7676772197328647,0.6808243529229642,0.5921018135549083,0.506530115838503
surface azimuth -50,1.0,1.0168630572278503,1.011000250054858,0.9828492799556303,0.9332987809240252,0.8655036449710641,0.784195103357218,0.6941836553411637,0.6010118724835971,0.5102773996029273
surface azimuth -40,1.0,1.0210886164124542,1.0191778342238798,0.9944512688588276,0.9476504153678834,0.8807673754595007,0.7980962059344437,0.7048993728185473,0.6068605505407931,0.5106909980922026
surface azimuth -30,1.0,1.0244263915100793,1.025594258837622,1.0035467502734217,0.9590196733952792,0.8932500977579952,0.8095787748259887,0.7130675423784831,0.6100625578397798,0.5084197609512249
surface azimuth -20,1.0,1.0268022691172145,1.0301470022489025,1.0099219303430385,0.9669010480215685,0.9022596722210597,0.8181382034455226,0.7188125392839702,0.6108298239572716,0.5036567327466173
surface azimuth -10,1.0,1.0281186097033916,1.032585412105347,1.0133310177570525,0.9709490956937379,0.906897756828136,0.8229777593665721,0.7220605314326926,0.6097272099232368,0.498198711077195
surface azimuth 0,1.0,1.028328087203779,1.0329121572524147,1.0137309724294503,0.9713829492998054,0.9072171281867483,0.8234350740556093,0.7228457630105318,0.6094960124593615,0.4975223834076109
surface azimuth 10,1.0,1.0274253586192394,1.0311598956131367,1.0112029690316682,0.9682983038705834,0.9039702632317616,0.820442789912262,0.7210007840127146,0.6105006280148664,0.4995230737698271
surface azimuth 20,1.0,1.0254403098873608,1.0273116124500936,1.0058575766460591,0.9619791644213762,0.8973333290348672,0.8145588763209791,0.7173318081165092,0.6111210544514853,0.504918202250556
surface azimuth 30,1.0,1.0224316379624545,1.0215577629415062,0.9978449599296992,0.9524562357959576,0.8874580817652102,0.805665236079185,0.7111680547253363,0.6096239411152465,0.5086870168580678
surface azimuth 40,1.0,1.0184911111545716,1.0139864821035032,0.9873070555396095,0.9400683329221812,0.8745715705200533,0.7938949655182853,0.7023237765024305,0.6054071360505704,0.509640267859165
surface azimuth 50,1.0,1.0137391238983096,1.004836584193345,0.9747338705068757,0.925300328690895,0.8590244399912316,0.7793779062534508,0.6908641711880191,0.5983876593764222,0.5075211942560328
surface azimuth 60,1.0,1.0083265275617666,0.9945024715002749,0.96034327209654,0.9080936736516001,0.8408178265822978,0.7622783690427603,0.6764312630562347,0.5880879867944041,0.5017188389838116
surface azimuth 70,1.0,1.002406913106904,0.9830987164397147,0.9443631496218563,0.8890390073245968,0.8205774735789997,0.7423735549475866,0.6586970717882736,0.5739708478945936,0.4918117403146289
surface azimuth 80,1.0,0.9961615295839055,0.9709839543370334,0.9272363489322936,0.8684503801575916,0.7980175355957854,0.7196511718744767,0.6379283917451626,0.5560279471249454,0.4777195101327053
surface azimuth 90,1.0,0.9897771192237039,0.9584972019647108,0.9094156276405869,0.8464270847486856,0.7733189814942889,0.6943536631989757,0.6136897003209031,0.5344198586322794,0.4603330681105647
surface azimuth 100,1.0,0.9834444537127816,0.9459768245926042,0.8912887855639151,0.8235584807432249,0.7472005404813067,0.6667613123584629,0.5864255942272778,0.509597629747388,0.4395378863229552
surface azimuth 110,1.0,0.9773569513340365,0.9338446263778761,0.8733552049000046,0.8004419918211535,0.7201361477940236,0.637399453882767,0.5570645140934551,0.4823980491420839,0.4159829504507557
surface azimuth 120,1.0,0.9717019974831825,0.9224883393384349,0.8562159043068038,0.7778264288526641,0.6928515848267064,0.6072265670521889,0.5262032363008732,0.45350486745628327,0.39107226579430965
surface azimuth 130,1.0,0.9666530798091936,0.9122665670228017,0.8405480924382785,0.7565369377220015,0.6664337414697417,0.5772577841996942,0.49514648714965326,0.4241641125040084,0.36584019521146804
surface azimuth 140,1.0,0.9623668334803492,0.9035627552241363,0.8270040848728627,0.7376505703542626,0.6422583950929971,0.5490618595446801,0.46539783825094594,0.39578040548921545,0.3416630907201598
surface azimuth 150,1.0,0.9589733466476624,0.8966718467670851,0.8161366507608598,0.7221253507152426,0.6217796852824864,0.525045748572708,0.4396158620125339,0.370445101786551,0.3199369780318501
surface azimuth 160,1.0,0.9565781472900914,0.891793712943329,0.8083035481058661,0.7105164610401807,0.6061575542955434,0.5087818893686075,0.4225557819512773,0.35074910725122116,0.3014460282620254
surface azimuth 170,1.0,0.9552573926263414,0.8890637838920709,0.803805693776864,0.7033495359419105,0.5974352565890817,0.5012192558184134,0.4143460340796229,0.3412676692292676,0.2884041549595967
surface azimuth 180,1.0,0.9550471718698642,0.8886123014535898,0.8029319058856904,0.7016459160667027,0.5962115010203111,0.5004815833046687,0.41356662497811053,0.3403553905831067,0.28651847708347167
