,Tilt-0,Tilt-10,Tilt-20,Tilt-30,Tilt-40,Tilt-50,Tilt-60,Tilt-70,Tilt-80,Tilt-90
surface azimuth -180,1.0,0.9547517109082567,0.8879214631803786,0.8017877687622891,0.7000331885521599,0.5942528544714847,0.498465370227989,0.41152681737320773,0.3384501738414729,0.2846829992883314
surface azimuth -170,1.0,0.9557658881285818,0.8899578750572169,0.8049750773346243,0.7047765712508767,0.5995929186743326,0.5040186157243893,0.4176736598441017,0.3449592913490791,0.29173219310599774
surface azimuth -160,1.0,0.9578741789185754,0.8942240648647756,0.8117096257878259,0.7149066242935168,0.6120762993277583,0.515891388855023,0.43019331093587676,0.35836344900535066,0.30829760114386817
surface azimuth -150,1.0,0.9610118593211286,0.9005852695209629,0.8216975984167648,0.7291994736108555,0.6305580294214241,0.5351251546349427,0.4502006521636895,0.38066674295834063,0.3298599568980282
surface azimuth -140,1.0,0.9650918741339451,0.9088324660059288,0.8344895128550072,0.7469832268066393,0.6531740419096547,0.5607700003916376,0.47746403481448246,0.4082610542786034,0.3540789536184362
surface azimuth -130,1.0,0.9699869165955537,0.918746514094793,0.84967358630132,0.7676341848599828,0.6784570420146991,0.5895705011191346,0.5081521652496318,0.4379980103631379,0.3800148977941552
surface azimuth -120,1.0,0.9755466653958967,0.9299211134985537,0.8665950503424966,0.7899477341254152,0.7051788569062931,0.6198452486087563,0.5396986464362898,0.4680200864463969,0.4062245858153842
surface azimuth -110,1.0,0.9816009226944434,0.9420902388613891,0.8846849686740462,0.8130586423528475,0.7325913368939607,0.6500399228266946,0.5703813605660508,0.49692894865632964,0.4312832462952133
surface azimuth -100,1.0,0.9879796647142985,0.9547611352811555,0.9031454031582429,0.8363769160014904,0.7595562612468689,0.6790451234396936,0.5992612863698384,0.5236170254475297,0.453965701428626
surface azimuth -90,1.0,0.9944640191636482,0.967512950182643,0.921566324235929,0.8591523841665129,0.7854951531055532,0.7061902762694304,0.6253777655768137,0.5473182820115057,0.47400838901890563
surface azimuth -80,1.0,1.0008545268421072,0.9799949091426764,0.939387195186416,0.8809658319934933,0.8096529754866567,0.7309286705690959,0.648746301792022,0.5674432781770482,0.4901788160113907
surface azimuth -70,1.0,1.0069547264297778,0.9918718054485545,0.956224291726542,0.9014822704846135,0.8319200795924228,0.7529037737749767,0.6687263617047947,0.583583595582848,0.5019832474285837
surface azimuth -60,1.0,1.0125789896909363,1.0027724052112537,0.971554057835657,0.9200514451498141,0.8519444249767223,0.7719396379274223,0.685046344796801,0.5959410157897042,0.5096686050305771
surface azimuth -50,1.0,1.0175571880289902,1.0124337771737464,0.9852135809235388,0.9364812395495566,0.869282571561372,0.7883516689262311,0.698334855991756,0.6047964916800874,0.5133512066046777
surface azimuth -40,1.0,1.0217407498683535,1.0205134618679188,0.9966039977218882,0.9505594143276248,0.8842437468362606,0.8019103602570467,0.7087925517170491,0.6104192417722618,0.5135128831289794
surface azimuth -30,1.0,1.0250212036876682,1.026769119665159,1.005404895307761,0.9615267090976206,0.8962377659568708,0.8128717949599528,0.7164247273255645,0.6131755008426124,0.510854687944811
surface azimuth -20,1.0,1.0273204717934186,1.0310961998583617,1.0113885181516227,0.9688936250681442,0.9046258704169162,0.8207141810517282,0.7214338633662993,0.6132438630953498,0.5054573680796328
surface azimuth -10,1.0,1.0285510502407726,1.033344909336422,1.0143873327579527,0.9723341142666535,0.9085397736388261,0.8247196177219409,0.7237273432453606,0.6111682476288669,0.49899257798958624
surface azimuth 0,1.0,1.0286622257281735,1.0334679659144004,1.0143851731812987,0.972085407125153,0.9079796991581615,0.8242048192124751,0.7234604977592579,0.6098416754016175,0.49750225373440515
surface azimuth 10,1.0,1.0276510490227226,1.031494086493468,1.0115214369269667,0.968478759020169,0.9039043008044186,0.8200872653560468,0.7203880362377638,0.6097711373344609,0.4987258614268929
surface azimuth 20,1.0,1.0255493853299344,1.027408008235492,1.0058140374852151,0.9617073269818565,0.8967350889935142,0.8135599451297492,0.7159484522678341,0.6094790810328601,0.5031762854715045
surface azimuth 30,1.0,1.0224213062762804,1.021408734660764,0.9974599622856124,0.9517438015936688,0.886325291334142,0.8041026817803757,0.7093482779889937,0.6076681378439619,0.5067023670224828
surface azimuth 40,1.0,1.0183617342806859,1.0135982122657317,0.9865847938840026,0.938895597033914,0.8729408562324971,0.7919353265973508,0.7002082481535444,0.6031982867418173,0.507511822394655
surface azimuth 50,1.0,1.0134954468062374,1.0042226990984653,0.9736720552818744,0.9237397618719819,0.8570416919537877,0.7771385478637168,0.6884829901459962,0.5960066756020916,0.5053762451451506
surface azimuth 60,1.0,1.0079783068002572,0.9936802751041687,0.9589933382357158,0.9062353127304363,0.838534853013216,0.7598215603099374,0.6738493808424821,0.585636440107186,0.49970537063779863
surface azimuth 70,1.0,1.0019654276346661,0.9820916545908773,0.9427855947304853,0.8869307853380544,0.8180892756086059,0.7397210411443843,0.6559953410624239,0.5715583617937211,0.4900431022457774
surface azimuth 80,1.0,0.9956393722850528,0.9698342162132608,0.9254713899181699,0.866171778731488,0.7953843388044258,0.7168580315752445,0.6351823671847411,0.5537786933354215,0.4762192400182037
surface azimuth 90,1.0,0.9891910094677809,0.9572392603883895,0.9075153465961696,0.8440212371604088,0.770573264121671,0.6914795940337932,0.6110084550819607,0.5323799086828589,0.45907944773828646
surface azimuth 100,1.0,0.9828131827821006,0.9446470555230501,0.8893037775038323,0.8210635880332886,0.7444016209532992,0.6638450331919855,0.5838572670833273,0.5077467974621492,0.43852100318697745
surface azimuth 110,1.0,0.9766999966382084,0.9324782140466799,0.8713328061255591,0.7979169063747364,0.7173187511455188,0.6345102368804407,0.5546111917421981,0.4807216484685895,0.41516615956293157
surface azimuth 120,1.0,0.971039348601243,0.9211170381393431,0.8541864659472532,0.7753180287709235,0.6900656096506903,0.6044015670041682,0.5238553828263334,0.45197640627277486,0.39033013540691786
surface azimuth 130,1.0,0.9660061856731463,0.9109312594966817,0.8385506400014089,0.7540732534097249,0.6637225166708884,0.5745302777967481,0.49290080207635106,0.4226868682476408,0.3651173942343467
surface azimuth 140,1.0,0.9617552538807095,0.9022933756338506,0.8250852732701273,0.7352527193082621,0.639667054382503,0.5465110170665579,0.46321777338378517,0.3942798254901906,0.34088773739092065
surface azimuth 150,1.0,0.9584173420328053,0.8954937616353528,0.8143462821882786,0.7198132655800366,0.6192942912319628,0.5226791590209126,0.4375636624255909,0.36883812732804555,0.31908333653973725
surface azimuth 160,1.0,0.9560962211693929,0.8907438987378477,0.8066797779550418,0.7083709176517339,0.603788464258939,0.5066140072097536,0.4205891699736673,0.3490144542908176,0.3003666864790008
surface azimuth 170,1.0,0.954862612576137,0.8881749585673898,0.8023928015326277,0.7014253887503443,0.5952828089205425,0.4991508957441125,0.41232952116094623,0.3394525062172881,0.2868141427729387
surface azimuth 180,1.0,0.9547517109082567,0.8879214631803786,0.8017877687622891,0.7000331885521599,0.5942528544714847,0.498465370227989,0.41152681737320773,0.3384501738414729,0.2846829992883314
