,Tilt-0,Tilt-10,Tilt-20,Tilt-30,Tilt-40,Tilt-50,Tilt-60,Tilt-70,Tilt-80,Tilt-90
surface azimuth -180,1.0,0.96283205319989,0.9055962575253872,0.8302166548560905,0.739716632566272,0.643125482415677,0.5519217153017978,0.4662886090691863,0.3904133307307943,0.3303998631064769
surface azimuth -170,1.0,0.961948255582249,0.9038960260051531,0.8279392658142597,0.737424411427659,0.6406159004529651,0.5493821858424174,0.46452132639741184,0.3901707783160707,0.33241789418155093
surface azimuth -160,1.0,0.9619464704634679,0.9040023992677396,0.828522233855966,0.7394194696278839,0.6437116606155333,0.5518366769987243,0.4679360093057829,0.3961289073160453,0.3434826868132093
surface azimuth -150,1.0,0.9628269036761868,0.9058947804217057,0.8318524847516031,0.7449074936748419,0.6517538137690194,0.5604688195766797,0.47816344622618334,0.40972519578085387,0.3577933756613922
surface azimuth -140,1.0,0.9645700868098205,0.9094870390222795,0.8377044695760475,0.7535370216188443,0.6635326896991423,0.5749985527260846,0.49494458133509256,0.42754065657668205,0.37366010229819097
surface azimuth -130,1.0,0.9671141936262859,0.9146661401532382,0.8458101515828191,0.7650168055511177,0.6784969105490931,0.5932086852366542,0.5149376382697775,0.4470717213704652,0.39070770839775215
surface azimuth -120,1.0,0.9703797194020318,0.9212342053331961,0.8558588020310592,0.7787220257933972,0.6956954761542291,0.6133618876099552,0.5361615479485692,0.4671272144213033,0.4079600269736074
surface azimuth -110,1.0,0.9742664509531277,0.9290008084060287,0.8674655699224553,0.7940467117857675,0.7143489385562862,0.6341021840210509,0.5572760196078186,0.48681882097320167,0.42464895133854924
surface azimuth -100,1.0,0.9786562779096413,0.9376793789533668,0.8801754017787247,0.8104706022465568,0.7334746185155182,0.6545980633903328,0.5775742500487551,0.505347954301428,0.43999340056776876
surface azimuth -90,1.0,0.9834116123316033,0.9469923254992234,0.8936768528702088,0.827303215469263,0.7526897106206596,0.6744820329414506,0.5963451295756792,0.5221714697571713,0.4539074762784917
surface azimuth -80,1.0,0.9883915476336625,0.9566760327056462,0.9074865510371257,0.8442127326134187,0.771319367620774,0.6934099843141056,0.6138561025853161,0.5368439265026678,0.4653939888326143
surface azimuth -70,1.0,0.9934450975151679,0.9664845911572338,0.9213148453045503,0.861005818678204,0.7893443731826032,0.7110362161337629,0.6296653314174985,0.5492412261964341,0.47420293173462935
surface azimuth -60,1.0,0.998420602283386,0.9761195822479266,0.9347326501739267,0.8770876190539384,0.8066022529752956,0.727274320699635,0.6435735643788496,0.5596717175491965,0.4806128929352464
surface azimuth -50,1.0,1.0031698003504543,0.9853517556228804,0.9477156295115431,0.8923495458170714,0.8227048558845016,0.7425028718098021,0.6560261014586166,0.5682873626352958,0.4847913049178104
surface azimuth -40,1.0,1.007546097952128,0.9938460515828604,0.9597154430160971,0.9068031148313733,0.8378587830799308,0.7564807407116978,0.6673146372334823,0.5753704555163703,0.48714179508601596
surface azimuth -30,1.0,1.01141934580892,1.0013670151614993,0.970387386684152,0.9197493700184102,0.8516839665377758,0.7694791767463554,0.6774575820597909,0.5812610223826702,0.48820538378030176
surface azimuth -20,1.0,1.0146738380270266,1.0077320633319282,0.9794853806183655,0.9309566770642524,0.8638916896762802,0.7811241616750325,0.6865508567044224,0.5859581149290833,0.48810630758521406
surface azimuth -10,1.0,1.017209801108423,1.0126970155904047,0.9866220440468361,0.939869161369219,0.8739663102719516,0.7911467275181321,0.6947375800133488,0.5899499059790859,0.4879528405689485
surface azimuth 0,1.0,1.0189462531009492,1.0161040155304588,0.991588783166343,0.9461725260422573,0.8813125680474323,0.7991617238851196,0.702507548592863,0.5957054761998883,0.49197364435928853
surface azimuth 10,1.0,1.019831138705544,1.017862829863412,0.9942191286862903,0.9496960571146651,0.8858319658080115,0.8047417980895349,0.7094568839882833,0.6041671969538369,0.4990874077863556
surface azimuth 20,1.0,1.0198396471879239,1.0179164543703345,0.9944611827971649,0.9504321936164223,0.8873365723230241,0.8075718283730866,0.7143384380265375,0.6124188215932532,0.5101837639379679
surface azimuth 30,1.0,1.018969556471099,1.0163059534525605,0.9923955865524713,0.9482863996851558,0.8857509536147955,0.8072240960238642,0.7163496336496261,0.6179573964543087,0.5194608884324843
surface azimuth 40,1.0,1.0172478436246177,1.0130252206919548,0.9879784308013391,0.9433302366988549,0.8809980870071168,0.8037471113524945,0.7151791797644264,0.6202052787197516,0.5253818651477759
surface azimuth 50,1.0,1.014726867115396,1.0081817669988542,0.9814228364675994,0.9357737630451792,0.8733335025203669,0.7970525716717728,0.710731575034341,0.619124071890705,0.5278737323365614
surface azimuth 60,1.0,1.0114856852940128,1.0020121975503185,0.9728406966548211,0.9255588416392191,0.8625650895385574,0.7872334086854562,0.7028606884197228,0.6142604057602017,0.5264025917736177
surface azimuth 70,1.0,1.0076187969283203,0.9945580842818577,0.9623779899245245,0.9129676961152849,0.849245809941289,0.7741310912507733,0.6912260452103575,0.6052695132063945,0.5207692396031419
surface azimuth 80,1.0,1.003241665872829,0.9860588400908252,0.9502884309978049,0.8983204790275954,0.8331175718023552,0.7576854638997423,0.6760659775740192,0.592311734332226,0.5108708459772369
surface azimuth 90,1.0,0.9984878602637496,0.9767521421790788,0.9369195677267996,0.8817245390115594,0.8143287239125654,0.738136930177547,0.6571690401083043,0.57546639682825,0.4973885035197865
surface azimuth 100,1.0,0.9934999235945892,0.9668983027702556,0.9226019141379129,0.8636075689179663,0.793443407934535,0.7158625529596101,0.6349927884563513,0.5550729865395008,0.4801574488954703
surface azimuth 110,1.0,0.9884299221825015,0.9568216329718414,0.9077464768792906,0.8444395286704237,0.770939455836673,0.6912941265998981,0.6102421525873524,0.5318821939095828,0.459800244355708
surface azimuth 120,1.0,0.9834332947079473,0.9468459488250998,0.8928236691598084,0.8248843416060081,0.7474253907258457,0.6652777457514181,0.5834735763119144,0.5064321545171518,0.43748167648244496
surface azimuth 130,1.0,0.9786622719113945,0.9372766845039026,0.8783788279959468,0.8056185050817497,0.7237974942863978,0.6386354844247812,0.5557270439301198,0.4798858780638705,0.4142420795775986
surface azimuth 140,1.0,0.9742646148481761,0.9284542810099096,0.8649850963539415,0.7874735886633455,0.7011528264209167,0.6125980755644196,0.5283468756981277,0.4535842519069759,0.39131816337072534
surface azimuth 150,1.0,0.9703724798487957,0.9206611945435115,0.8531185150320838,0.7712313738676639,0.6806205322476796,0.58904385046196,0.5035963760790538,0.4292943502645092,0.3700188982505042
surface azimuth 160,1.0,0.9671079515616036,0.9141208435912068,0.8431234528505067,0.7574612032971005,0.6631366466819253,0.5707950154056323,0.48497552454999443,0.40934194603114354,0.3511480047984851
surface azimuth 170,1.0,0.9645695344950878,0.9090387345391788,0.8353655709659941,0.7466441762314254,0.6503013975914512,0.5590496915994723,0.47292971310078696,0.3964510482792775,0.33638412925121797
surface azimuth 180,1.0,0.96283205319989,0.9055962575253872,0.8302166548560905,0.739716632566272,0.643125482415677,0.5519217153017978,0.4662886090691863,0.3904133307307943,0.3303998631064769
