,Tilt-0,Tilt-10,Tilt-20,Tilt-30,Tilt-40,Tilt-50,Tilt-60,Tilt-70,Tilt-80,Tilt-90
surface azimuth -180,1.0,0.9535112898705127,0.8854892373457178,0.7982449224683213,0.6954324677868555,0.5888999514619466,0.493232635904827,0.40720329349164447,0.33556752748092394,0.2833886631046654
surface azimuth -170,1.0,0.9545306401582055,0.8875284469732577,0.8014010602204429,0.7001055717569183,0.5941311985111961,0.4985309764081659,0.41295317621918953,0.341621310030038,0.28986516112233346
surface azimuth -160,1.0,0.9566835027693165,0.891883730613066,0.8082205154089358,0.7103351331721244,0.6067594221882364,0.5105330175526963,0.4255334220602655,0.35481042110055794,0.30604346184699754
surface azimuth -150,1.0,0.9599045203258972,0.8983798311790467,0.8183809673152114,0.7249312628639594,0.6256979063924124,0.5302430428115626,0.4457077008814999,0.3768045629409763,0.327094269540133
surface azimuth -140,1.0,0.9641014189019853,0.906831181149393,0.8314447551952494,0.7431074511816922,0.6486038888511985,0.5562693973509885,0.47305110597095373,0.40434512836081626,0.35111523291999497
surface azimuth -130,1.0,0.9691398830264615,0.9169721450386497,0.8469797082929434,0.7640211334683177,0.674461676271266,0.5855232661857861,0.5040701953334684,0.4342375805895107,0.37714700539355167
surface azimuth -120,1.0,0.9748711211514643,0.9284491064948137,0.8642787960263579,0.7868232936196454,0.7018762898633459,0.6163171887502049,0.5361098700030533,0.46477227497313967,0.4036529627632439
surface azimuth -110,1.0,0.9811214443330054,0.9409542398754693,0.8827226295191329,0.8105663346083534,0.7299932622880398,0.6471530751719431,0.5674317200781765,0.4942743217895313,0.42925062587886526
surface azimuth -100,1.0,0.9876984669135928,0.953984229195029,0.9016360416137674,0.8345948923256037,0.7577288388275911,0.6769582655673236,0.5971190519738029,0.5217004971713997,0.4526219937724152
surface azimuth -90,1.0,0.9943890212351942,0.9671341074104955,0.9206376642077357,0.8581186427473558,0.7845071995779189,0.7049845271655285,0.6241865384431903,0.5463229769343955,0.4734207985514111
surface azimuth -80,1.0,1.000994970548502,0.9800392223141982,0.9390768211181423,0.880707560349724,0.8095445306807074,0.7307399231946651,0.648539753886127,0.5674221205882016,0.4904752965000445
surface azimuth -70,1.0,1.007316411817178,0.9923404795574366,0.9565473153819725,0.9020365520011415,0.8326290903453729,0.7536976839426712,0.6695932081393877,0.5846046700135771,0.5032702791234259
surface azimuth -60,1.0,1.013160271664319,1.0036591772224175,0.9724796024315526,0.9213398032537421,0.8535625149436786,0.7736934720169174,0.6869926114535005,0.598080041277655,0.5120174340615179
surface azimuth -50,1.0,1.01834985883544,1.0137312158175993,0.9867271642981609,0.9384898560271625,0.8718387467262714,0.7911033665066401,0.7012931956224047,0.6079552934947857,0.5167267121656476
surface azimuth -40,1.0,1.022727002955201,1.0222016289879092,0.9987497792275339,0.9532316404041951,0.8875815419254584,0.8056344760930498,0.7126887209113656,0.6145691054636727,0.517888643188588
surface azimuth -30,1.0,1.0261637367911374,1.0287992346362194,1.0081845698931347,0.9648107702381692,0.9002011883617664,0.8174566623868812,0.7212548194933611,0.618183396603268,0.5160607611705738
surface azimuth -20,1.0,1.0285788748459699,1.0334499031967452,1.0146391305523574,0.9728096659487715,0.9092090232833022,0.8259435406139255,0.7270973998778527,0.6190538367091605,0.5113439827356646
surface azimuth -10,1.0,1.029880476706742,1.0359193177001849,1.0180085116114563,0.9768706666518691,0.9137052803330201,0.8305240464732531,0.7300532817396505,0.6176750559782249,0.5053721705405817
surface azimuth 0,1.0,1.0300248071935894,1.0361602842758364,1.0182894376934974,0.977004218378079,0.9137064486635886,0.8304927802704317,0.7301114510976402,0.6166232640865369,0.503701875565872
surface azimuth 10,1.0,1.0290073642291544,1.0341862425608643,1.015462512467885,0.9735230497859766,0.9098408644137291,0.8266216687674113,0.7271758820176893,0.6163466291405322,0.5043155170664921
surface azimuth 20,1.0,1.0268626847811286,1.0300122550246176,1.009621362153688,0.9665484573778497,0.9023857857473057,0.8197377560973665,0.7223254428582185,0.6154662995621364,0.5081149957258607
surface azimuth 30,1.0,1.0236542798838788,1.023849842989054,1.0009849094533736,0.9561712209234507,0.8914148207453064,0.8095596837065971,0.7148127900138013,0.6125804048305241,0.5106471400499217
surface azimuth 40,1.0,1.0194791863626604,1.0158076468023465,0.9897543946475181,0.9428027822029084,0.8773236561663592,0.7965456597316026,0.7046890222339975,0.607119075921376,0.5105722789725033
surface azimuth 50,1.0,1.0144637699091203,1.0061185458668416,0.9763607309173837,0.9269731061642016,0.8606553819495184,0.7808875360460711,0.6920754748756158,0.5991064993477149,0.5076632053336328
surface azimuth 60,1.0,1.0087685534288402,0.9952170376904547,0.9611331133705387,0.9087937600760555,0.8413172410489673,0.7627451368239493,0.6766829728510898,0.5879276364445679,0.5012626479001023
surface azimuth 70,1.0,1.0025579157818103,0.9832511010896346,0.9443815054306882,0.888769889216851,0.8201584470908098,0.7419919026317994,0.6580498169586552,0.5731320429017791,0.4909879753225015
surface azimuth 80,1.0,0.9960168184517788,0.9705710096533833,0.926455447588404,0.8672806545398739,0.7967230008733944,0.7184036626411363,0.6365491993874568,0.5547592749067737,0.4766111494005906
surface azimuth 90,1.0,0.9893446880792977,0.9575351915175558,0.9079004295044466,0.844466677916584,0.7712201768581137,0.6922690747440641,0.6117778902941604,0.532733516767322,0.45893286200946193
surface azimuth 100,1.0,0.9827398258143774,0.9445071224370293,0.8890881204067993,0.8208404257991702,0.7443348010987725,0.6641157631303102,0.58406439511688,0.5075027735597336,0.4379504764085484
surface azimuth 110,1.0,0.9764011580096729,0.9319040762523125,0.8705340023271428,0.7970219978863233,0.7166084697074908,0.6342178241155444,0.5542722538114556,0.4801059469253732,0.41430451556202136
surface azimuth 120,1.0,0.9705263292381576,0.9201294331438105,0.8528282945346398,0.7737704651506948,0.6887129739380774,0.603456263993018,0.523089546011801,0.4510584101600546,0.3893139067371697
surface azimuth 130,1.0,0.9652953956458218,0.9095574706477282,0.8366323003437425,0.7518886940861873,0.6617240710818972,0.5729755165642969,0.4917518387964415,0.4216054619012665,0.3640137056651254
surface azimuth 140,1.0,0.9608729724068756,0.900577778059386,0.8226539116215128,0.732420570676535,0.6369528534467854,0.5442756023817491,0.4617047607186593,0.3931763991491745,0.33980626493790006
surface azimuth 150,1.0,0.9573921256915835,0.8935017141969072,0.8114745230893194,0.7163388993867305,0.6158219414172729,0.5197043894629898,0.43561539603227567,0.3677456321359225,0.3180199541188358
surface azimuth 160,1.0,0.9549616999383193,0.8885290074890289,0.8034659100360334,0.7043550749089512,0.5995768072779304,0.5027625601662946,0.41789980335204197,0.34767393034992533,0.29936211659165995
surface azimuth 170,1.0,0.9536557929139272,0.8858128369419256,0.7989659081202215,0.6970603467762184,0.5903590727470303,0.4944721271200618,0.4087901194813749,0.3372857812186522,0.28589020703909596
surface azimuth 180,1.0,0.9535112898705127,0.8854892373457178,0.7982449224683213,0.6954324677868553,0.5888999514619466,0.493232635904827,0.40720329349164447,0.33556752748092394,0.2833886631046654
