,Tilt-0,Tilt-10,Tilt-20,Tilt-30,Tilt-40,Tilt-50,Tilt-60,Tilt-70,Tilt-80,Tilt-90
surface azimuth -180,1.0,0.9554492987188722,0.889211496709569,0.8035122825830694,0.7018289427406917,0.5948821866755053,0.499213783032474,0.41247262888925534,0.33940250767650826,0.28510132047039255
surface azimuth -170,1.0,0.9562188540039468,0.8907736643339036,0.8059961211004553,0.7057197172891894,0.5996059439414786,0.504105076824842,0.41831715177366774,0.34580647411438326,0.29191892328794516
surface azimuth -160,1.0,0.9580750189416541,0.8945474950431961,0.8120266732122001,0.7149745677736404,0.6117855787554566,0.5154609662149435,0.4303946897105556,0.3588973854389797,0.3081645969455363
surface azimuth -150,1.0,0.9609612529636842,0.9004330927325026,0.8212804489560849,0.7283490374082987,0.6295915672382524,0.5344949069049213,0.44974756350041445,0.3804294529075469,0.32948593353498945
surface azimuth -140,1.0,0.9647948656436952,0.9082135519643277,0.8333665163499346,0.7452993057556356,0.6513181691840035,0.5592526080867974,0.47627342848396326,0.4073211196866524,0.3533466031810932
surface azimuth -130,1.0,0.969458024835882,0.9176768983541778,0.8478372182388606,0.7650205273287831,0.6756049309624174,0.5871288310998046,0.5061984514253419,0.4364194215572174,0.3787672081131512
surface azimuth -120,1.0,0.9748079504263911,0.9284238722342616,0.8640787242082646,0.7864484461456923,0.7013870304390954,0.6164701394197032,0.5368394999441041,0.4657027063464785,0.40440638473488255
surface azimuth -110,1.0,0.9806828496492604,0.9402041286245458,0.8815273134798399,0.8087841938163869,0.7279849817824235,0.6457390960140884,0.5666052821344091,0.4937536254153031,0.428789132444534
surface azimuth -100,1.0,0.9869105809235117,0.9525371311802111,0.8994795340688474,0.8314332474157938,0.7542131765189144,0.6738779997486269,0.5945335808488218,0.5195587556429828,0.45067649710135416
surface azimuth -90,1.0,0.9932721243146856,0.9650380539203434,0.9175100237524352,0.8537154674295964,0.779505002693604,0.7002300659353196,0.6197648879064088,0.5423646522490183,0.4699009529943282
surface azimuth -80,1.0,0.9995770076105732,0.9773514332989232,0.9350699258224869,0.8751781675717667,0.8031470495471602,0.7243072062775378,0.6423891862857877,0.5616814632420295,0.48525439170196694
surface azimuth -70,1.0,1.0056311022190683,0.9891404371827951,0.951803328556156,0.8955585576203925,0.8250632064008775,0.7458080223933958,0.6617637755953075,0.5771184069228119,0.4963543678072549
surface azimuth -60,1.0,1.0112523103782218,1.00004286212286,0.9671694992628052,0.9141603332731518,0.8449845214574812,0.7645084609093723,0.6776864840259995,0.5889853788907812,0.503497534342449
surface azimuth -50,1.0,1.0162796091340374,1.0097960991702921,0.9809915736299665,0.9307842332860085,0.8625010957955135,0.7808897415188858,0.6907541391004604,0.597509552258701,0.5068053646133003
surface azimuth -40,1.0,1.0205633923092259,1.0180549436473818,0.9927151548549316,0.9452048968428779,0.8777680520726048,0.7947485040098262,0.7012899288957782,0.6030963472915839,0.5068954549804038
surface azimuth -30,1.0,1.0239788826266305,1.0245726006334186,1.0019697625204411,0.9567259943725239,0.8902790510030582,0.8061458188923718,0.7093473729163877,0.606178869576805,0.5045070935687065
surface azimuth -20,1.0,1.026452171412767,1.029258774742959,1.0084903969748715,0.9648502015032868,0.8994446693558483,0.8146720622584328,0.7149648665573731,0.6067557986117502,0.49967628258694696
surface azimuth -10,1.0,1.027884834232828,1.0319461587331364,1.012125847481187,0.969148240599211,0.9044001796720355,0.8196485624898646,0.7180599231166875,0.6054099819235609,0.494592897745018
surface azimuth 0,1.0,1.0282222510606795,1.0325194667111037,1.0128722098880725,0.9698976788547485,0.9050638296849713,0.8205538595481454,0.7191056947967578,0.605232375976494,0.49464322864387633
surface azimuth 10,1.0,1.0274544766683995,1.031022307726258,1.0107017261659608,0.9672496955592916,0.9022439860513257,0.8179949287507198,0.7178374436032622,0.6069688994901017,0.49703904809864263
surface azimuth 20,1.0,1.0256065503468974,1.0274313209692956,1.0057084668833787,0.9614196513616735,0.8962512342129288,0.8128259099313879,0.7149622792361898,0.6084924058976768,0.5026304671968658
surface azimuth 30,1.0,1.0227339153727117,1.0219250916665583,0.9980881793900087,0.9524409396835277,0.8869736770022618,0.8046221618531249,0.7097597767522489,0.6080836769679253,0.5073888021638429
surface azimuth 40,1.0,1.0189237920079042,1.0145988777820352,0.9879350608300206,0.9405139357737548,0.8746501061821537,0.7936108747826034,0.7018912563312092,0.6049148780838912,0.5092809815473779
surface azimuth 50,1.0,1.0142925257860396,1.0056863166747385,0.9757169281235178,0.9261657018767651,0.8596292103486753,0.7798389234989508,0.6912255856069031,0.5987465514834183,0.5079951090368104
surface azimuth 60,1.0,1.0089903484247869,0.9955667435421279,0.961616178629386,0.9093517556265807,0.8419072599703115,0.7633374866478341,0.6774432396933452,0.5891865193292123,0.503001283838824
surface azimuth 70,1.0,1.0031679199759016,0.9843589689204394,0.9459173180147875,0.8906090843125017,0.8220784442454635,0.7439234151772978,0.6602936306893828,0.5757104418202806,0.49375527361091087
surface azimuth 80,1.0,0.996998529731866,0.9723900340617931,0.9289687580903374,0.8702392117740311,0.7998142306858759,0.7215794752672829,0.6399501815001332,0.5582375368179325,0.48003991700527965
surface azimuth 90,1.0,0.9906699935808861,0.9600139661170938,0.9112952752435036,0.8483855036074498,0.7753342577077738,0.6964868119423239,0.6159644259689132,0.5368226278799123,0.4627694589806288
surface azimuth 100,1.0,0.9843704736830465,0.9475713770686984,0.8932258968852227,0.8256285573758364,0.7493507003019444,0.6689848634449224,0.5887313742534978,0.5118706746392826,0.4418446706075389
surface azimuth 110,1.0,0.9782936255541513,0.9354607417825249,0.8753135162929986,0.8025290365344105,0.7222877349787457,0.6395627367212336,0.5591134033366701,0.4844263917281913,0.4179854020411736
surface azimuth 120,1.0,0.9726244919505508,0.9240814069633002,0.8581525242702248,0.7798599059218111,0.6949155169060017,0.6090926247112008,0.5278546131384506,0.4550740157865794,0.39255052527290685
surface azimuth 130,1.0,0.9675376824038373,0.9137966942669431,0.8423885172021015,0.7584714536559138,0.6683352463822245,0.5787269528561758,0.4962618082521125,0.4250985562764265,0.36665138096897953
surface azimuth 140,1.0,0.9631908456094732,0.9049887168264189,0.8287024539584992,0.7393621795214315,0.6438383536443678,0.550055971712635,0.46590866038551704,0.3960785878210952,0.3417930046329996
surface azimuth 150,1.0,0.9597159724371216,0.8979423006359659,0.8176230411716343,0.723529457732255,0.6229111879135375,0.5254724772875863,0.4396305641701991,0.3701622107693295,0.31947273092615375
surface azimuth 160,1.0,0.9572222836117185,0.8928582255587465,0.8095211003024012,0.7115419524748139,0.6066776867556025,0.5084358480467743,0.4222503011782695,0.35039010176560925,0.3003321831262343
surface azimuth 170,1.0,0.9557870473437904,0.8899114539149586,0.8047284119098234,0.7039618563774743,0.5967798690857206,0.5003470590296037,0.4137090679558418,0.34094923748957356,0.2869960310552775
surface azimuth 180,1.0,0.9554492987188722,0.889211496709569,0.8035122825830694,0.7018289427406917,0.5948821866755053,0.499213783032474,0.41247262888925534,0.33940250767650826,0.28510132047039255
