,Tilt-0,Tilt-10,Tilt-20,Tilt-30,Tilt-40,Tilt-50,Tilt-60,Tilt-70,Tilt-80,Tilt-90
surface azimuth -180,1.0,0.9546474695753417,0.8879829229127858,0.8023626864849603,0.7015353543666301,0.5970120324762601,0.503453293209472,0.417929592153185,0.34571386466825244,0.2915581534484757
surface azimuth -170,1.0,0.9547184748516739,0.8881908166916923,0.802941040129433,0.7031628480881602,0.5990737833779776,0.5060820025733878,0.42218157592259836,0.3508805256663552,0.29787049654165354
surface azimuth -160,1.0,0.9559140272759851,0.8907157727082291,0.8073342029076944,0.7106122069428825,0.608978248807603,0.5152393265058177,0.4324045903067863,0.3625329976697678,0.3129084664481015
surface azimuth -150,1.0,0.9581976563693297,0.8954688982574156,0.8152248932650004,0.7225533191639484,0.6252292955772383,0.5321610013510337,0.44978852265589125,0.3820763431981693,0.3324004093614224
surface azimuth -140,1.0,0.9615082327560633,0.9022958734741617,0.8261644120153592,0.7382242232267229,0.6455726872595408,0.5553268718061034,0.4742159670703204,0.407099356770519,0.35453903369615225
surface azimuth -130,1.0,0.9657375038902323,0.910991926086407,0.8396775488681181,0.7569243815237278,0.6686661353925509,0.5815335298739055,0.5022000873942506,0.43430791328089635,0.37843035782759693
surface azimuth -120,1.0,0.9707580426743047,0.9211578927296182,0.8551953950085716,0.7774846735279718,0.6932670486855693,0.6093384368875072,0.5312111787729956,0.4619705868416453,0.4025681748623207
surface azimuth -110,1.0,0.9764222129486276,0.9325348831239489,0.8721309395091039,0.7990864741119043,0.7187184276513464,0.6373105150116495,0.5596337957710208,0.4887060129049739,0.4256764747829012
surface azimuth -100,1.0,0.982555734641852,0.9446537389262126,0.8897458174845907,0.8212026299171583,0.7440714497654264,0.6644300036830173,0.5865633475017679,0.5134870563045142,0.44671258949187137
surface azimuth -90,1.0,0.9889473096745283,0.9571523585120548,0.9076680891153422,0.8431472833114301,0.7688239664858304,0.6900712633205821,0.6111013359683083,0.5356993709593959,0.4653294017848932
surface azimuth -80,1.0,0.9954134734389635,0.9696898169516214,0.9253855614157421,0.8645741629849436,0.7923100293053131,0.7139050744047208,0.6332647106200308,0.5546477401050997,0.4804606856306168
surface azimuth -70,1.0,1.0017553077053123,0.9819301374620432,0.9425791882588738,0.8853052632766123,0.8143672511678375,0.7355060736520177,0.6526782428393867,0.570051092208502,0.4917130519192167
surface azimuth -60,1.0,1.007779491123764,0.9934911034551228,0.9586884396402272,0.904610903953917,0.8349521007455047,0.7547452623598886,0.669116468058154,0.5823810886125069,0.49928074494452307
surface azimuth -50,1.0,1.0133064089319286,1.0041768929737964,0.9736465257051873,0.9224241459251246,0.8537091071923848,0.7722631716864435,0.683180901526778,0.5917755383985899,0.5034518703345772
surface azimuth -40,1.0,1.0181682646969652,1.0135898442340314,0.9868034367660832,0.9385451441500239,0.8707845847126144,0.7878856416601506,0.6953005586401545,0.5988449351293381,0.504906992807453
surface azimuth -30,1.0,1.0222171052706566,1.0214148484657086,0.9978332222900558,0.9522169243666851,0.8857851463371476,0.8019008289869126,0.7058089397254321,0.6040804237613141,0.5044651659462501
surface azimuth -20,1.0,1.0253671279421486,1.0274766252724699,1.0063355283426743,0.9628014549546153,0.8979091030686293,0.8138000495101041,0.7148481572242059,0.6078290023441796,0.5024672843795284
surface azimuth -10,1.0,1.0275122780416086,1.0315617163920243,1.0120728312515954,0.9697700770359006,0.9060293464005985,0.8225304970212102,0.7221686324616713,0.6106441641472113,0.5008619279042466
surface azimuth 0,1.0,1.0285667923141357,1.03353483403949,1.014885335172728,0.9731696092976286,0.9098649624851839,0.8270641848798025,0.727355536902302,0.6148584412158635,0.5044041099552433
surface azimuth 10,1.0,1.028498979684212,1.0334271568292108,1.0147241224986452,0.973131255910373,0.910080295399991,0.8277516979085232,0.7295043260312838,0.6201770925605153,0.5103226426691164
surface azimuth 20,1.0,1.0273135177602377,1.0311448196574493,1.0116757269198957,0.9697259920263839,0.9068494620424798,0.825611819670291,0.7297121225848132,0.6244072918564331,0.5185115512421496
surface azimuth 30,1.0,1.0250453430237123,1.0268389760496361,1.0057646545528658,0.9628532073339887,0.9000412931938553,0.8200880100710339,0.7270328195115043,0.6260844842061579,0.5249072871307701
surface azimuth 40,1.0,1.0217645285330812,1.0205648606918079,0.9971108566760709,0.9528043796793926,0.8898232135803156,0.8112354192445265,0.7210341463263832,0.6244476751114172,0.528100480372958
surface azimuth 50,1.0,1.0175692289302407,1.0124979590572702,0.9860982988234288,0.9399542597603706,0.8765560950417299,0.7991160515657578,0.7118377189867225,0.6194788603657618,0.5277727966809156
surface azimuth 60,1.0,1.0125918324229701,1.0030206822462244,0.9729462068329346,0.924388687274224,0.8601083347031824,0.7838261428239388,0.6990789553212886,0.6106294459612374,0.5231539114585149
surface azimuth 70,1.0,1.0069788630560732,0.992249332138601,0.9579362487933324,0.9064659742502347,0.8411259334398539,0.7652096592570373,0.6823730879818954,0.5972942895384458,0.5138415725348224
surface azimuth 80,1.0,1.0008953464288526,0.9804820462905,0.9413510345140651,0.8864781146086327,0.81923810455224,0.7430540013255315,0.6619035725822281,0.5795606003112302,0.4997781965180195
surface azimuth 90,1.0,0.9945288970167253,0.9680756282410379,0.9236750185032261,0.864626902179974,0.7946918019285995,0.717611985630639,0.637395637826047,0.5574827653261032,0.4816831464682713
surface azimuth 100,1.0,0.9880690832764878,0.9553489987426357,0.9052559688058361,0.841473273710006,0.7681366004232839,0.6894093347869042,0.6093237586505988,0.531529317413175,0.45960566771441486
surface azimuth 110,1.0,0.9817116492588588,0.9427017042227047,0.886648197697238,0.8175505780986305,0.7400959262361277,0.6588848648877603,0.5785248963669567,0.5027625214707705,0.4342829405696703
surface azimuth 120,1.0,0.9756504148810756,0.9305593268795229,0.8684338230171209,0.7936819946814131,0.7113533905079734,0.6270132494980569,0.5458200274859508,0.4717622515507097,0.40702052503394953
surface azimuth 130,1.0,0.9700703338916855,0.9192947395650822,0.8512775960717985,0.7706722445441869,0.6830581627363183,0.5949075723956581,0.5124596380939934,0.43984205921245495,0.37916482195903534
surface azimuth 140,1.0,0.9651479963793337,0.9093205894846917,0.8359004747280053,0.7495407428772137,0.6564887654035181,0.5641209813814054,0.4799963052217564,0.4088255111892782,0.35236951503955266
surface azimuth 150,1.0,0.9610320133692907,0.9009765247077477,0.8228981662218212,0.7313249178190094,0.6330827070773862,0.5370660894102111,0.451423480478937,0.3809966826310736,0.3283120328602809
surface azimuth 160,1.0,0.9578488635132043,0.8944958752380129,0.8126919493514635,0.7167020860310271,0.6140352385162133,0.517362891657756,0.43179257776125773,0.35953507039088,0.3080508197865208
surface azimuth 170,1.0,0.9557010075366441,0.8901075593100055,0.8057000423390509,0.706347068191738,0.6015018180548368,0.5068587407587446,0.42103571323976013,0.3483407547786669,0.29408937770138144
surface azimuth 180,1.0,0.9546474695753417,0.8879829229127858,0.8023626864849603,0.7015353543666301,0.5970120324762601,0.503453293209472,0.417929592153185,0.34571386466825244,0.2915581534484757
