,Tilt-0,Tilt-10,Tilt-20,Tilt-30,Tilt-40,Tilt-50,Tilt-60,Tilt-70,Tilt-80,Tilt-90
surface azimuth -180,1.0,0.9558888679223639,0.890203601177584,0.8051685426628062,0.7042161882902757,0.5981396569761135,0.5024864724738488,0.4155359259756088,0.34219484363987857,0.28780833232227837
surface azimuth -170,1.0,0.9565498907975354,0.891565784282065,0.8073501366577834,0.7077098954825225,0.6023464969131471,0.5067480792418034,0.4205622756142872,0.34804346706157885,0.2945187228675297
surface azimuth -160,1.0,0.9582862402071151,0.8951042536980878,0.8129679203930031,0.716409041539587,0.6136937352018713,0.5172676144819818,0.43192991768215877,0.3607120850926693,0.3103971622301295
surface azimuth -150,1.0,0.9610447672582123,0.9007013825332343,0.8217756512526312,0.7292714383095136,0.6307926476316723,0.5354396827090991,0.45079357659446223,0.3815945159031474,0.331030247053685
surface azimuth -140,1.0,0.9647455693758504,0.9081999531350383,0.8335313065091843,0.7457500660535823,0.6518346045485621,0.5596148774921604,0.47647134353370013,0.4076869056746175,0.35412521045517853
surface azimuth -130,1.0,0.9692751688581879,0.9174154447932813,0.847676804822584,0.7649807099101827,0.6755877914588239,0.5867799546987579,0.5055794335796886,0.4358775152764939,0.3787006975420468
surface azimuth -120,1.0,0.9744959410522528,0.9279751606031736,0.8635559338224559,0.7859805028750669,0.7008401315029016,0.6154385896713561,0.5355624189315795,0.4643778886905191,0.40346733635034654
surface azimuth -110,1.0,0.9802488220653416,0.9395414240236742,0.8807083965626632,0.8079509372317405,0.7268646357451991,0.6440906060433559,0.564723959228536,0.4918871426791683,0.42717314571066395
surface azimuth -100,1.0,0.9863693970351461,0.9516695067095613,0.8983999148763679,0.8302708646380123,0.752615789551313,0.6716949558089013,0.592150024333328,0.5172359331423104,0.4486265005117555
surface azimuth -90,1.0,0.9926432522646562,0.9639925950466789,0.9162043312937064,0.8522655893959578,0.777535092358555,0.6977027310159905,0.6169720399956108,0.5396322822033345,0.4675259404892117
surface azimuth -80,1.0,0.9988788605252972,0.9761670541243137,0.9335904263129381,0.8735147369803811,0.8009641964163775,0.7215440295436268,0.639334474992731,0.5586739516941737,0.48266666546171316
surface azimuth -70,1.0,1.004882944928302,0.9878468259013394,0.9501922735673062,0.8937291620748657,0.822772477994156,0.7429700900584867,0.6586381201330972,0.5740162315469775,0.4936172115542559
surface azimuth -60,1.0,1.010475264758299,0.9986785586181969,0.9654839801926905,0.9122465770665944,0.8426934825253283,0.7617488540653475,0.6746490134977144,0.5859406328661199,0.5007872627589682
surface azimuth -50,1.0,1.0154915856397662,1.008397617895549,0.9792688098970487,0.9288366674105903,0.8602647531041065,0.7783065055294803,0.6879652279760391,0.5947599517612966,0.504333266387572
surface azimuth -40,1.0,1.0197748592558433,1.0166622111052812,0.9909815192358453,0.9433034604587015,0.8757382617326892,0.7924074292434037,0.6988180659570034,0.6007209442488717,0.5048127706710702
surface azimuth -30,1.0,1.0232118371823158,1.023236827452996,1.0002579214019522,0.9549158651226621,0.8884682717740028,0.8041939856410799,0.7072761860510955,0.6042044404085646,0.5028404251191839
surface azimuth -20,1.0,1.0257256413949163,1.0280398818280407,1.0068708580108194,0.9631387497217911,0.8978265826083401,0.813220866617019,0.713473381503338,0.6053544020652147,0.4985055633488812
surface azimuth -10,1.0,1.0272220597546533,1.03081837765283,1.0107110823440923,0.9675861246417138,0.9029620606717417,0.8185249769729966,0.7172590760514971,0.6047430033762083,0.49387558058361947
surface azimuth 0,1.0,1.027644093257129,1.031540644982042,1.0116671044211663,0.9686597562464259,0.9038772823724567,0.8196600953410516,0.7187109882042398,0.6052675239529353,0.49441645826315844
surface azimuth 10,1.0,1.0269847103445888,1.0302288419098136,1.0097729715644148,0.9663489613749655,0.9015223422316623,0.8175982889230766,0.7178327249363642,0.6073945930358033,0.49733177870687667
surface azimuth 20,1.0,1.0252578311703004,1.026886605422115,1.0051224407296975,0.9609235597842692,0.8959765741526836,0.8129138593786344,0.7154494173149192,0.6092591011303619,0.5032527758946227
surface azimuth 30,1.0,1.0225148124359302,1.0216468749524708,0.9978745401368766,0.9523946227689712,0.8872532374112349,0.8052690531015415,0.7107173574843064,0.6090566504051084,0.5080685983117784
surface azimuth 40,1.0,1.0188398189322518,1.014583369975357,0.9880716016543332,0.9409449262716152,0.87543764958086,0.7947239062972378,0.7031791903353559,0.6060076989351311,0.509967078589623
surface azimuth 50,1.0,1.0143444085415136,1.0059361500745105,0.9762111359335501,0.9270419051076912,0.8608761227020884,0.7813800088460414,0.6927338373601419,0.5998878765877985,0.5086109062493678
surface azimuth 60,1.0,1.0091754264127435,0.9960558409925782,0.962459752438521,0.9106216868316706,0.8436014924123092,0.7652164325845674,0.6791057322552301,0.5902903392854134,0.5034986296767094
surface azimuth 70,1.0,1.0034752110717209,0.9850617109337049,0.9470629670441176,0.8922672371801759,0.8241228406847328,0.7459923858480769,0.6619865685243698,0.5767560809172646,0.49428612342662415
surface azimuth 80,1.0,0.997416540473146,0.973296842116544,0.9304125702471279,0.8722543355926263,0.802158944101473,0.723802005134716,0.641681934740956,0.5593634359674876,0.4807819687502188
surface azimuth 90,1.0,0.991183486172784,0.9611003784297064,0.9129954281993241,0.8506779910254005,0.7778957944717012,0.6988792104349387,0.617849277911819,0.5382179795297166,0.4637468716192045
surface azimuth 100,1.0,0.9849626943014843,0.9488044066664475,0.8951519241894417,0.8281384835752457,0.7520826747437366,0.6715125544074583,0.5908883823807292,0.5136403802947367,0.4430678845785495
surface azimuth 110,1.0,0.978943267672254,0.9368098860357753,0.8774064439339938,0.8052229300683768,0.7251791400070877,0.6423402330985902,0.5616618703031265,0.4864705407653509,0.4194019075771209
surface azimuth 120,1.0,0.9733102762530199,0.9255110825971533,0.8603488679158745,0.7826745836593323,0.6979532463302033,0.6121679505406651,0.5307401617494454,0.4573644906414461,0.39421043014445106
surface azimuth 130,1.0,0.9682369276270738,0.9152647178982678,0.8446443310609133,0.7613605947647264,0.6715071794973715,0.5820769555079183,0.4994091718085268,0.42765627402736806,0.3686331882641852
surface azimuth 140,1.0,0.9638813639570586,0.9064523994234086,0.8309649452333999,0.7422919725868081,0.6471557339636569,0.5535880892683432,0.46922948420138805,0.3989403692732372,0.3441126252450403
surface azimuth 150,1.0,0.9603764614514733,0.899351322116228,0.8198467590994074,0.7264496507505758,0.6263328471643128,0.5290930484775525,0.4430830344085423,0.3732980398331595,0.32202300499108344
surface azimuth 160,1.0,0.9578297780564731,0.8941677316044021,0.8116157827848853,0.7144207043246839,0.6101439165000743,0.5121800118136326,0.42572270843745885,0.3534594488210222,0.3030649143312732
surface azimuth 170,1.0,0.9563201483114974,0.8910819278376005,0.8066183565656562,0.7066690456806197,0.6002600724070618,0.5040047334026087,0.4170998547775605,0.34386085278845935,0.2897500678991634
surface azimuth 180,1.0,0.9558888679223639,0.890203601177584,0.8051685426628062,0.7042161882902757,0.5981396569761135,0.5024864724738488,0.4155359259756088,0.34219484363987857,0.28780833232227837
