,Tilt-0,Tilt-10,Tilt-20,Tilt-30,Tilt-40,Tilt-50,Tilt-60,Tilt-70,Tilt-80,Tilt-90
surface azimuth -180,1.0,0.9556406987527696,0.8898282407678147,0.8047782706999854,0.7040045401195797,0.5985238131058096,0.50313248745585,0.4164074593346834,0.3431508521879515,0.288902046090595
surface azimuth -170,1.0,0.9562772169543344,0.8911254629664727,0.806921941831514,0.7075295923830859,0.6026989759549758,0.5074044253270854,0.42167695852820397,0.3494979029011098,0.29618301128633323
surface azimuth -160,1.0,0.9579928428831416,0.8946266683808296,0.8125479449040849,0.7162581990653633,0.6138378860787314,0.5177867044688628,0.4329342908393478,0.36222475925389785,0.31215367912623593
surface azimuth -150,1.0,0.9607378072564567,0.9002094245474414,0.8213315156375346,0.7289207035113808,0.6305928760443532,0.5355486389258881,0.4512468299353177,0.3825163535395226,0.3323257808246209
surface azimuth -140,1.0,0.9644329315075553,0.9076511003839821,0.8329071939423603,0.7451998565565291,0.6512968657299045,0.559140715045644,0.4761943696522465,0.4078525057453994,0.3547423980277161
surface azimuth -130,1.0,0.9689572881042398,0.9167753148930619,0.8469466872796032,0.7641692914628823,0.6745704913628713,0.5857695477437076,0.5047042468097154,0.4353942185433602,0.37868210251079987
surface azimuth -120,1.0,0.9741692407699819,0.927240276754352,0.8627832395601298,0.7848392414544081,0.6993944389997931,0.6139582354088493,0.5341436279740119,0.46336960070161315,0.4029635752967703
surface azimuth -110,1.0,0.9799113449105836,0.9388014338990246,0.8797568328739701,0.8065463735180842,0.7250804352478956,0.6421999760548427,0.562926881582806,0.4904278009539361,0.4262746713762928
surface azimuth -100,1.0,0.9860292864277607,0.9509622036405545,0.8973208403666844,0.8286772701083996,0.750598983753231,0.6695172670530668,0.5900714356961334,0.5154972849428673,0.44737935764920983
surface azimuth -90,1.0,0.9923143984163084,0.9633292697216624,0.9150615924188592,0.8505850847598195,0.7754083155842822,0.6953415155516894,0.6146906158755816,0.537756773051539,0.466121535641072
surface azimuth -80,1.0,0.9985744874353609,0.9755562074196106,0.9324476626269209,0.8718405610543861,0.7988366294018073,0.71916359377953,0.6369716740350948,0.556715698619846,0.48124861064668856
surface azimuth -70,1.0,1.0046163429560229,0.9873238783924504,0.9491350644793916,0.8921548672197566,0.8207864586645174,0.7407158045614837,0.6563558205903836,0.5720861948076705,0.4922806595884589
surface azimuth -60,1.0,1.0102569920116848,0.9982648161566734,0.9645728024899959,0.910871908954431,0.8409486282585373,0.759779843431576,0.672598362227595,0.5842005985298235,0.4996002688347286
surface azimuth -50,1.0,1.0153299947250234,1.00809942835047,0.9786070441198261,0.9277788670472735,0.8588734483500039,0.7767425821800539,0.6863340030803708,0.5933621324834094,0.5034599134236305
surface azimuth -40,1.0,1.019679287732365,1.0164796188807124,0.9906347612978269,0.9426550573644928,0.8748319719079435,0.7913967538544034,0.6978092308335277,0.5998486699931983,0.5043804751787643
surface azimuth -30,1.0,1.02318639611197,1.0231709531318725,1.0002709733531752,0.9547355986933126,0.8881383884066807,0.8038369015726672,0.7070140448126372,0.6040992109369454,0.5030632746940997
surface azimuth -20,1.0,1.025755502768506,1.0280768816957517,1.0071660109211436,0.963468227759365,0.8981662204876425,0.8135608311365052,0.7139432971672214,0.6060916988691666,0.49956695051623506
surface azimuth -10,1.0,1.0272968393731818,1.0310134212925883,1.011135584526977,0.9684280113033328,0.9039834554323248,0.819747418462353,0.7186329338614013,0.6063294342340236,0.4955362291866104
surface azimuth 0,1.0,1.0277570074699667,1.031851937440541,1.0122665148227892,0.969643572009188,0.9054390333339382,0.8216650443327526,0.7210115171589515,0.6076878081817179,0.4965530331006436
surface azimuth 10,1.0,1.0271224502277783,1.0306232600923075,1.0105114712010237,0.9675324639653731,0.9032009913170203,0.8197787982969015,0.7205493866847037,0.6104173233910242,0.5001770237825208
surface azimuth 20,1.0,1.0254140683693438,1.027323329670691,1.0059523863180357,0.9622105474519205,0.8977072307454977,0.8150863643742252,0.718066831246693,0.612229310836535,0.506292462264817
surface azimuth 30,1.0,1.0226839367142484,1.0221118110682805,0.9987399329713057,0.9536672042098963,0.8889280076670757,0.8073732611667539,0.7132100350554956,0.6118142820027781,0.5107105259188938
surface azimuth 40,1.0,1.0190149453262984,1.015066388620137,0.9889434886315016,0.9421674982083394,0.8770272753560289,0.7966816994995723,0.7053762081419066,0.6082631826436576,0.5119529748650281
surface azimuth 50,1.0,1.014518996945575,1.0064221656300176,0.9770473809424303,0.9281776970082881,0.8623168600628018,0.7830409870201215,0.6944766559425216,0.6015357840731504,0.5099417472663396
surface azimuth 60,1.0,1.0093418279860151,0.9965200568057617,0.9632321257703674,0.9116324511145105,0.8448045389884262,0.7664905577027863,0.6803481517765982,0.5913656792245585,0.5042840300852256
surface azimuth 70,1.0,1.0036255516420198,0.9854865493572199,0.9477368346548042,0.8930990675168708,0.825036084476263,0.7468837821766678,0.6627965706326725,0.5774120005266454,0.49457736544954045
surface azimuth 80,1.0,0.9975438059010777,0.9736675165882043,0.930981198622638,0.87290026687967,0.8027895840678557,0.7243848270178433,0.6421995776757781,0.5596584546884453,0.4805889482106652
surface azimuth 90,1.0,0.991279878386765,0.9613992756307657,0.9134403018705242,0.8511391756987093,0.7782878920202255,0.6992582103311887,0.6181654958343981,0.5381721707926405,0.4632289660863889
surface azimuth 100,1.0,0.9850225086306674,0.9490229677068286,0.8954778824946026,0.8284247835804591,0.7523233137764916,0.6718122890920306,0.5910277986308228,0.5133682642663765,0.44234177023807514
surface azimuth 110,1.0,0.9789628109572162,0.9369454735655676,0.877619007138204,0.8053730796214524,0.7253576075555681,0.642580193058523,0.5616916659933693,0.4860903807140847,0.4185417129839199
surface azimuth 120,1.0,0.9732879078748224,0.9255646608784003,0.8604525006960922,0.7827427189796735,0.6981245807808837,0.6123885573765769,0.530766209103443,0.45696496701591616,0.3932697366131353
surface azimuth 130,1.0,0.9681728720939461,0.9152341829518762,0.844640668763924,0.7613455375550673,0.6716855004749889,0.582350828387401,0.49951751575234776,0.4272877756769735,0.36776859500069065
surface azimuth 140,1.0,0.9637764921599277,0.9063352783349935,0.830867210670719,0.7422116363775497,0.6473484887141933,0.5539526171839918,0.4694290712345758,0.3987082597119288,0.3434512826016388
surface azimuth 150,1.0,0.9602312000422921,0.899163560796343,0.8196651857158046,0.7263109595525767,0.6264978159137572,0.5295118595066899,0.4433965878905314,0.3733034307445837,0.32178596004514354
surface azimuth 160,1.0,0.9576458270234257,0.893918088741051,0.8113768764513847,0.7142274044014955,0.6103169227777181,0.512592411554738,0.42614702315055164,0.3538644486087566,0.3034495332703097
surface azimuth 170,1.0,0.9561015019834863,0.8907663072528547,0.8063131304168252,0.7064642442514844,0.6006017780949436,0.504498636553875,0.4177103386539005,0.3444312399692315,0.29053763782653175
surface azimuth 180,1.0,0.9556406987527696,0.8898282407678147,0.8047782706999854,0.7040045401195797,0.5985238131058096,0.50313248745585,0.4164074593346834,0.3431508521879515,0.288902046090595
