,Tilt-0,Tilt-10,Tilt-20,Tilt-30,Tilt-40,Tilt-50,Tilt-60,Tilt-70,Tilt-80,Tilt-90
surface azimuth -180,1.0,0.9550486666676248,0.888465941162554,0.8025282467823506,0.700814136897175,0.5942840542360369,0.49943266002992964,0.41329555569541043,0.3404090439891247,0.28616332646679793
surface azimuth -170,1.0,0.955745922791785,0.8898912976368061,0.8048079881622937,0.7044563535295008,0.5986872675954863,0.5040730931040696,0.4190107087319887,0.34675021751286944,0.2929519162444053
surface azimuth -160,1.0,0.9575427978538436,0.8935477840320576,0.8107027758368917,0.7136420597596029,0.6108305367260486,0.5151442531599967,0.4308005648502196,0.3597708899831683,0.3091164219366744
surface azimuth -150,1.0,0.9603838505871134,0.8993382469255224,0.8199304777187391,0.7271472601765667,0.6288392627554755,0.5342430280363174,0.4499437775228176,0.38090349067863266,0.3301448611661028
surface azimuth -140,1.0,0.9641867560336703,0.9070777775874682,0.8321284940329999,0.7443486947567796,0.6507389545861424,0.5589640530519046,0.47627989297193385,0.4075464235963515,0.3537565280011721
surface azimuth -130,1.0,0.9688374703262357,0.916556532658238,0.8468060712294686,0.7642202973132214,0.6750715473537678,0.5867556738028405,0.5060467446147572,0.43648296647647317,0.37902398398827214
surface azimuth -120,1.0,0.9741920466952605,0.9274063725645791,0.8632628644848738,0.785706259729201,0.7008509736224368,0.6160318183957965,0.5366045803787702,0.4656905873322365,0.4045383109960307
surface azimuth -110,1.0,0.980092426441483,0.9393416246557861,0.8807876468019337,0.8081372778441583,0.7274151454610015,0.6452499560702564,0.5663068533808412,0.4937345449283678,0.42888707969154
surface azimuth -100,1.0,0.986361601974998,0.9518248008970811,0.8988213174684162,0.8308845694815753,0.7536602097363567,0.6733506521497648,0.5942390628940896,0.5195279509629798,0.45083480695204775
surface azimuth -90,1.0,0.9927823810358553,0.9644665834987821,0.916960551006098,0.8532652122866321,0.7790470927496714,0.6997036338429705,0.6194725972445346,0.5423638335443296,0.47012126984747615
surface azimuth -80,1.0,0.9991633381999997,0.9769163735120732,0.9346484392099725,0.8748481600200831,0.8028421780794218,0.7239093599101409,0.6420845430229819,0.5617020869468519,0.4855426654509437
surface azimuth -70,1.0,1.0053100287422516,0.9888437824558869,0.9515345338483995,0.8953782238332735,0.824926420990357,0.7456132751742806,0.6615798633049702,0.5771686988014553,0.4966978811383144
surface azimuth -60,1.0,1.0110369844647795,0.99988525182184,0.9670734736693829,0.9141495633441907,0.845056516464136,0.7645698919181043,0.6777537610646722,0.5891843878933265,0.5039011977360293
surface azimuth -50,1.0,1.0161751562687764,1.0098003160926599,0.981104135188798,0.9309786338973782,0.8628303239860539,0.7812738561193091,0.6911768378624632,0.5979584962441111,0.507400067374394
surface azimuth -40,1.0,1.020564928284314,1.0182069665674254,0.9930405066368707,0.9456833540335889,0.878376845990496,0.7954721267364289,0.7020694270385497,0.6039642607500814,0.5078356251289896
surface azimuth -30,1.0,1.024075525609302,1.024859704460153,1.002592053089781,0.9575314482855329,0.8912530680585108,0.8072774948772187,0.7105919052531783,0.6074991825964728,0.5058813865007586
surface azimuth -20,1.0,1.0266394618946082,1.0297184878420893,1.0093752566865268,0.9660016458735906,0.9008624149944929,0.8162612427296739,0.7167090489217179,0.6086294341372674,0.5016289744095401
surface azimuth -10,1.0,1.0281646599168657,1.032556321118886,1.0131669430138763,0.9706954190603508,0.9062534419176599,0.8218145123157178,0.7204203562500648,0.6079079394097103,0.4971670774448741
surface azimuth 0,1.0,1.0285866841666336,1.0332832038044715,1.014071565995277,0.9716025779822564,0.9072790387745594,0.8231196295320069,0.7220113162991705,0.6083561911591493,0.4979082068076762
surface azimuth 10,1.0,1.027891756980061,1.0319364202384476,1.0121091999961707,0.9691513891026995,0.9046186476724238,0.8208597253118023,0.7211736734971885,0.6105688914253551,0.5006951827195402
surface azimuth 20,1.0,1.0261030212819855,1.028467641902321,1.0072970169486986,0.9635315811985994,0.8988668494007607,0.8159282796336648,0.7184863456230244,0.6123164488957923,0.506545900517384
surface azimuth 30,1.0,1.023275684076303,1.0230534519500083,0.9997880150505573,0.9546869524332814,0.889771680225058,0.8079273181186944,0.713466912003914,0.6119880200277803,0.5112617570498488
surface azimuth 40,1.0,1.0194945191469182,1.0157827752501418,0.9897003104189631,0.942859061402552,0.877577282142697,0.7970445761295197,0.7056477971144018,0.6087962420602204,0.5130576959560983
surface azimuth 50,1.0,1.0148741635553278,1.006879347049788,0.9774979611751455,0.928560935447134,0.8626615637818131,0.7833452366879301,0.6949825941713703,0.602577578842495,0.5116691386363487
surface azimuth 60,1.0,1.0095632390360914,0.9967413201454673,0.9633900163825927,0.9117993295820103,0.8449660844145678,0.7668163674260058,0.6811757051272047,0.5928614793258933,0.5064970964349628
surface azimuth 70,1.0,1.003714597604707,0.9854898824123924,0.9476791523272874,0.8930414708563905,0.8251059450068675,0.7473722985790553,0.6638663427625426,0.5791323271316086,0.4970615298194003
surface azimuth 80,1.0,0.997499696982359,0.9734442226070875,0.930668715376588,0.8725872004787559,0.8027489370383777,0.7248566980951177,0.6432314373131031,0.5614260948906616,0.4831534755996377
surface azimuth 90,1.0,0.9911093643991484,0.9609728561513966,0.9128797887469473,0.8505900776339352,0.7781157189348435,0.6994837509102937,0.6189358304864016,0.5397595318679166,0.4656021706219744
surface azimuth 100,1.0,0.9847349790143756,0.9484062333606578,0.8946521427734554,0.8276484785807089,0.7518846460134957,0.6716954722331168,0.5914080956324832,0.5145230888056578,0.4443231088955422
surface azimuth 110,1.0,0.9785711311073547,0.9361451832857225,0.8765433838657309,0.804305414645499,0.724513891064005,0.6419494812370947,0.5614890955811135,0.4867389315076669,0.42003030262084723
surface azimuth 120,1.0,0.9728069265955477,0.9245882601169162,0.8591450207141041,0.781331796372083,0.6967943541854617,0.6111788133521315,0.5299177763937376,0.45696631378587926,0.39411510283408274
surface azimuth 130,1.0,0.9676199863416488,0.9140973570047484,0.8430975267692977,0.7596173802750591,0.6698255178822397,0.5804953450250369,0.4979617456419085,0.4264979107559171,0.36783125102711955
surface azimuth 140,1.0,0.9631703433381178,0.9050621247809715,0.8290878727805941,0.740138378582207,0.6449376325164754,0.5514284898633908,0.46719356291197006,0.397110658033685,0.34272481519587006
surface azimuth 150,1.0,0.9595932570666271,0.8977900937860376,0.8176517611830999,0.723878769463353,0.6236217771215041,0.5264216714080175,0.44057574388492327,0.3710163570838913,0.32024539139151087
surface azimuth 160,1.0,0.957000568883748,0.8924844581848489,0.8091860612300835,0.711425637192807,0.6069268367857401,0.5090485361501813,0.4230726481560608,0.351202980305408,0.3011082498992125
surface azimuth 170,1.0,0.9554710184698666,0.8893377347840096,0.804040498213268,0.7033817218692803,0.5965794882043249,0.5007484371099636,0.4144809735199621,0.34183117287547404,0.28785434427933027
surface azimuth 180,1.0,0.9550486666676248,0.888465941162554,0.8025282467823506,0.700814136897175,0.5942840542360369,0.49943266002992964,0.41329555569541043,0.3404090439891247,0.28616332646679793
