,Tilt-0,Tilt-10,Tilt-20,Tilt-30,Tilt-40,Tilt-50,Tilt-60,Tilt-70,Tilt-80,Tilt-90
surface azimuth -180,1.0,0.9553293225896385,0.8889616651900534,0.8031411341776538,0.7013800078578014,0.594450144715088,0.4990074704395467,0.4123348535978385,0.3390887375965041,0.28457853281773826
surface azimuth -170,1.0,0.9561299389403652,0.8905886870555582,0.805726528470045,0.7053691168585501,0.599298264558617,0.5040581086635834,0.4184282909158322,0.34577967205851595,0.29170489426091706
surface azimuth -160,1.0,0.9580221050476191,0.8944323582020783,0.8118378695736138,0.7147255195153012,0.6116487161547288,0.5154566472868558,0.43052472216466614,0.35909843807185,0.3082528405233172
surface azimuth -150,1.0,0.9609456999908468,0.9003729458015203,0.8211707142805124,0.7282441761830987,0.629645605864615,0.5346137877670538,0.4498207096327568,0.3805274074968346,0.3295741843157992
surface azimuth -140,1.0,0.9648153284305859,0.9082129301591292,0.8333545837778085,0.7453485589595458,0.6514251031619406,0.5592916582246734,0.47627215501043435,0.40731998339331665,0.35340401366193624
surface azimuth -130,1.0,0.9695123167847022,0.9177320054038588,0.8479254806329529,0.7650869869028296,0.6756309526790018,0.5871331431164835,0.5061666553818812,0.4363466579916924,0.3787366754789222
surface azimuth -120,1.0,0.9748927197090914,0.9285403046706603,0.8642459490748524,0.7864435354372026,0.7013621757466353,0.6164540850231968,0.536825509534946,0.465626397054818,0.40431712381028306
surface azimuth -110,1.0,0.9807970207019786,0.9403811807336979,0.8816550939478833,0.8087366254276277,0.7279220888865392,0.645682964737934,0.5665695878503252,0.4937176457605382,0.4286864048524328
surface azimuth -100,1.0,0.9870509659962086,0.9527663838021284,0.8995771010901558,0.8313726135249816,0.7541335174783196,0.6737694005466982,0.594473702160615,0.5195305645142083,0.4506171059884112
surface azimuth -90,1.0,0.9934371039187853,0.9653114770685696,0.9175987434006345,0.8536475043890887,0.7794331079124558,0.7000760241357948,0.6196613213984857,0.5423106540686439,0.46986109545532007
surface azimuth -80,1.0,0.9997648174184819,0.9776653056285411,0.9351741153002873,0.8751135397895188,0.8030825605516383,0.7241578429930395,0.642217507150172,0.5615717463447438,0.4851956068974125
surface azimuth -70,1.0,1.0058407143392523,0.9894842946343517,0.9519333685412017,0.8955177267314901,0.8250051052306512,0.74566571518507,0.6615772614760876,0.5769462109144596,0.49623630143838904
surface azimuth -60,1.0,1.0114834853912915,1.0004067951652227,0.9673435895369585,0.9141423197600711,0.844940098917618,0.7643908000834838,0.6775099212910539,0.5888040015064394,0.5033132351955646
surface azimuth -50,1.0,1.0165278402205413,1.0101822352223824,0.9812417835886963,0.9307900587002057,0.862480196396376,0.7808324879673911,0.6906172632134706,0.5973289816170653,0.5066244234365334
surface azimuth -40,1.0,1.0208152396804526,1.0184555652126788,0.9930572618264991,0.9453111181714599,0.8777651029835496,0.7947072770088394,0.7011766821120935,0.6029645309481264,0.5067583341146183
surface azimuth -30,1.0,1.0242182314685586,1.0249906557510995,1.0024437878565449,0.9569751389119006,0.890325308926019,0.8061465934375605,0.7092875254987356,0.6060617216273402,0.5044010115447882
surface azimuth -20,1.0,1.026670969094091,1.0296840836866508,1.009057982920259,0.9653003900399474,0.8996754019091614,0.814742018436358,0.714971278504155,0.6066798764896763,0.4996286184802018
surface azimuth -10,1.0,1.0280826685014541,1.0323271674691434,1.0126600254772438,0.9698113990064581,0.9049099683577898,0.8199629854688137,0.7182301729607025,0.6055015119846148,0.49465957134066973
surface azimuth 0,1.0,1.0283942204608854,1.032845020786142,1.013336022198866,0.9704682011165081,0.9057289825011839,0.8211353426086186,0.7195165862474884,0.6055292642096906,0.4949619064983849
surface azimuth 10,1.0,1.0275960234912205,1.0312912383627784,1.0110811637271535,0.9677265866432694,0.9027874485820911,0.818569678216682,0.7184519419689347,0.6074834573620239,0.4974918363703378
surface azimuth 20,1.0,1.0257139067589733,1.0276386263836126,1.006006902626297,0.961780961510337,0.896655325088531,0.8132745963201008,0.7154558278706821,0.6090117311126768,0.5031906189587345
surface azimuth 30,1.0,1.022805441995506,1.0220659644504315,0.9982834544805166,0.9526687509462847,0.8872446906406217,0.8049504537975463,0.7101057669209806,0.6084244188086055,0.5077397133227284
surface azimuth 40,1.0,1.0189586609769112,1.0146716811949346,0.9880249413233176,0.9406161702249949,0.8747932532915534,0.7937859900975939,0.7020436396281027,0.6050524510583173,0.5093838237976097
surface azimuth 50,1.0,1.014290865753905,1.0056819685595928,0.9756971261924325,0.9261449186503162,0.8596608877345695,0.7798548528424569,0.6911834707326998,0.5986668702217544,0.5077913991419597
surface azimuth 60,1.0,1.008951898714503,0.9954917501056266,0.9615005315407469,0.9092358199998494,0.8418144235432373,0.7631603652108634,0.6771964246300496,0.5888095731942811,0.5025254985270242
surface azimuth 70,1.0,1.0030948018612365,0.9842210306511262,0.945723341537166,0.8903954621764087,0.8218402693411652,0.7435702772476096,0.6597939537678011,0.5750743087852584,0.4930644188529452
surface azimuth 80,1.0,0.9968927257446597,0.972192136192401,0.9286964382064786,0.8699194198139936,0.7994179344278232,0.7210120695268336,0.6392124319223759,0.5574146120191386,0.4792086658941362
surface azimuth 90,1.0,0.990535552886603,0.9597695078812144,0.9109540496293826,0.8479565341797404,0.7747923400669836,0.6957213822571942,0.6150488864950464,0.5358683881448558,0.46179746118654974
surface azimuth 100,1.0,0.9842131111947396,0.947288072976176,0.8928247511163618,0.8250996181357299,0.748680003765318,0.668097778287625,0.5877015580476518,0.5108022156440962,0.4407217879010073
surface azimuth 110,1.0,0.9781183804785812,0.9351490407774228,0.8748666098597963,0.8019136848717099,0.7215134934423967,0.6385870468292575,0.5580101762077186,0.48326430811706117,0.4167036121997166
surface azimuth 120,1.0,0.972438004360036,0.923750296648725,0.8576739152952586,0.7791809116142663,0.6940791552353683,0.6081027601135465,0.5266962603159419,0.4537985952154487,0.39113823623165916
surface azimuth 130,1.0,0.9673468779209654,0.9134531928451167,0.8418949023384944,0.757769566265273,0.6674667600548457,0.5777410435110891,0.49506419232286025,0.42372676136821896,0.36521549532762526
surface azimuth 140,1.0,0.9630017154879956,0.9046413810192622,0.8282135500288283,0.7386672468464777,0.6429916453737854,0.5490675481194605,0.4647043708573953,0.3947148714468562,0.3404121155849261
surface azimuth 150,1.0,0.9595348675392976,0.8976010743806837,0.8171550253006362,0.7228892311096397,0.6221431892568492,0.524522616891215,0.43851376386927193,0.3689098948170846,0.3181718482690885
surface azimuth 160,1.0,0.9570560316852496,0.8925325335081201,0.809082407530958,0.7109718229602465,0.6060250881996273,0.5076509349404784,0.42133498892813837,0.349307505689421,0.2991749893481233
surface azimuth 170,1.0,0.9556409664145242,0.8896157053850543,0.8043180903789393,0.7034495636432564,0.5962291993215844,0.4998193577415168,0.4131183623532314,0.3401797398373,0.2860721584389599
surface azimuth 180,1.0,0.9553293225896385,0.8889616651900534,0.8031411341776538,0.7013800078578014,0.594450144715088,0.4990074704395467,0.4123348535978385,0.3390887375965041,0.28457853281773826
