,Tilt-0,Tilt-10,Tilt-20,Tilt-30,Tilt-40,Tilt-50,Tilt-60,Tilt-70,Tilt-80,Tilt-90
surface azimuth -180,1.0,0.9535609009696304,0.8856493686748493,0.7985689616435666,0.6960066224520335,0.5897313268783292,0.4943127132035443,0.4087033631770232,0.3376213105875553,0.2859406820269882
surface azimuth -170,1.0,0.954453389771289,0.8874482203889957,0.801377093859436,0.7001690496029935,0.5943059800387379,0.49888273052444093,0.41357393236279916,0.3425870279878786,0.2912503728640174
surface azimuth -160,1.0,0.9564822077273369,0.891562721714079,0.8078380269468115,0.7099021621111767,0.6062944401147266,0.5101802538463256,0.4252489493139815,0.3547582378939397,0.30635367330151886
surface azimuth -150,1.0,0.9595867190470132,0.8978362427690278,0.8176677817128255,0.7240197110275204,0.6246018843122009,0.5292821881062619,0.444953394837504,0.37629472201435266,0.3270184643655889
surface azimuth -140,1.0,0.9636797561334267,0.9060879896213243,0.8304066587999862,0.7417977190219666,0.6473941615417447,0.5551127824262323,0.47207755986783045,0.4035947154148484,0.3507851536068151
surface azimuth -130,1.0,0.9686309783925026,0.9160474255358283,0.8457109290326472,0.7627632447920902,0.673176792659963,0.5841742492149354,0.5029085615552202,0.433341582127463,0.37665633044550517
surface azimuth -120,1.0,0.9742903482576254,0.9273540305798086,0.8630085367458338,0.785606558484719,0.7005378907786218,0.6148951656350355,0.5348080427205224,0.46379142220018926,0.4030758730398498
surface azimuth -110,1.0,0.9804843065173601,0.9397833445316298,0.8815507357475727,0.8093989401927838,0.7286255992075679,0.6457574151911565,0.566102861546669,0.4932559654835709,0.42866932977267513
surface azimuth -100,1.0,0.9870219009243433,0.9528126157536749,0.9005950677842827,0.8334966345042969,0.7564101634661575,0.6756500368451581,0.5958719358984138,0.5207224355411373,0.45212469978894615
surface azimuth -90,1.0,0.993692093335936,0.9660039701684093,0.9196767285727444,0.8571226571383501,0.7833306922030663,0.7038072525254221,0.6231236499111064,0.5454994291460329,0.47303920199041155
surface azimuth -80,1.0,1.0002988821424106,0.9789626062271445,0.9382094194805369,0.8798457392553727,0.8085561122551853,0.7297977148318181,0.6476898867782833,0.5668427338402464,0.4903011329884025
surface azimuth -70,1.0,1.0066423640115896,0.991328332434201,0.9557924952930305,0.9013498027446769,0.8318573037042698,0.7530302228707091,0.6690492710976929,0.5843096185799559,0.5033908667211084
surface azimuth -60,1.0,1.0125281372780646,1.0027167330058713,0.9718571393940655,0.920859845861415,0.8530501146865562,0.7733145261191197,0.6868211983403101,0.5981555838033457,0.5124831094489871
surface azimuth -50,1.0,1.0177804211011514,1.012853507061987,0.9862090070936195,0.9382145597658267,0.8716392756356176,0.7910376546626826,0.7014695561977358,0.6084388264674094,0.5176103550674251
surface azimuth -40,1.0,1.0222397730057218,1.0214005669591681,0.9982426266461635,0.9531225552749336,0.8876703264513538,0.8059166152155827,0.7132397884916719,0.6154428643993957,0.5191997463788162
surface azimuth -30,1.0,1.0257722466569859,1.0281360353969136,1.007691108375615,0.9648313714203355,0.9005897298461526,0.8180485852087995,0.7221931391459331,0.6194917706178733,0.5177921813975961
surface azimuth -20,1.0,1.028294291745823,1.0329600365353202,1.0142260577511129,0.9728347295520327,0.9097494445242412,0.8268806114826521,0.7283417702913592,0.6207160315562774,0.5135096187917476
surface azimuth -10,1.0,1.0297169066715286,1.035657591896707,1.017762689281981,0.976909740555142,0.914303340778593,0.8316548298969606,0.731614150848847,0.6196641940097144,0.5078539684503682
surface azimuth 0,1.0,1.0299866513393654,1.0361404254525028,1.0183463317791108,0.9772405012916625,0.9143152684280991,0.8316425360549429,0.7318895256104306,0.6188014532196681,0.506000292810732
surface azimuth 10,1.0,1.0290959530481678,1.0344172251091992,1.0158940678576271,0.9742119364491265,0.9108132025892205,0.8279274589140756,0.7288215031217586,0.6183565204254888,0.5061804157026314
surface azimuth 20,1.0,1.0270749985556236,1.030489609840985,1.0104229227791175,0.9677012737944553,0.9039038294635515,0.8215480414501889,0.7243382161026245,0.617441720908673,0.5096236076032012
surface azimuth 30,1.0,1.023983997880751,1.0245620600421856,1.0021269703290125,0.9577602662696606,0.8933984528228562,0.8118557743580972,0.717262533189458,0.6148925678668914,0.512452036036133
surface azimuth 40,1.0,1.019916934851799,1.0167377307898027,0.9912129746979534,0.9447802447268286,0.8797198463163112,0.7992769686350621,0.7075565709629946,0.6097835616306762,0.512748057404926
surface azimuth 50,1.0,1.0149962155856764,1.0072364444708304,0.9780921579397139,0.9292782173150672,0.8634469826624706,0.7840465449674247,0.6953266151232799,0.6021124132572716,0.5102274054964613
surface azimuth 60,1.0,1.0093792607173742,0.9964906909980955,0.9630947915550931,0.9113928787566097,0.8444771868776904,0.7662508639931982,0.6802816681903586,0.5912872021071005,0.504196629818453
surface azimuth 70,1.0,1.0032286813007585,0.9846480760067408,0.9465355296668173,0.8916332506844019,0.823603448742843,0.7457883147563704,0.6619565136803734,0.5768063012297693,0.49426726525377956
surface azimuth 80,1.0,0.996727380815189,0.972049251705105,0.9287481240944447,0.8703190235398615,0.8003622484299983,0.7224252339450515,0.6406897874648413,0.5587338397474756,0.4802066538971154
surface azimuth 90,1.0,0.9900736949885912,0.9590548577449631,0.910275141791166,0.8476035854520145,0.774996415319597,0.6964182290986204,0.6161050507346306,0.5369641535584913,0.46275191876022337
surface azimuth 100,1.0,0.9834657979754854,0.9460211536476602,0.8914690704938901,0.823999953660504,0.748149762314675,0.6683282890851163,0.5885469582602887,0.5119381078914967,0.44195718631518965
surface azimuth 110,1.0,0.9771035046312528,0.933363914303019,0.8728484130029915,0.8001235494807434,0.7203447322707915,0.6384096742228546,0.55886373744262,0.4846626763304872,0.4184591629613191
surface azimuth 120,1.0,0.9711843707789953,0.9214960714513024,0.8550083176331795,0.7767336606414009,0.6922621315054099,0.6075641118478253,0.5277067566329452,0.4556687044799837,0.3935442554438466
surface azimuth 130,1.0,0.9658884526503372,0.9107850330303284,0.8386128406310767,0.7546039884452025,0.6649983266023354,0.5768919219152596,0.49624004479623013,0.42617750898681017,0.3682782477099156
surface azimuth 140,1.0,0.961381572734085,0.9016337864613544,0.8243688897337947,0.7348130892015315,0.6398710542652253,0.5478534637528346,0.4659186802207054,0.39767020082628735,0.34401176618530305
surface azimuth 150,1.0,0.9578008509160891,0.8943636503363028,0.8128756442647794,0.7183351038229716,0.6183038799907874,0.5227740169459814,0.43940318490211855,0.3720070283914295,0.3220713264968639
surface azimuth 160,1.0,0.9552575164020352,0.8891691232160943,0.8045273654410413,0.7058847151968213,0.6015788118968005,0.5052402525770907,0.4210160488839681,0.3514978010609477,0.30320276832042375
surface azimuth 170,1.0,0.9538310755985218,0.8862167247650612,0.7996601458423482,0.6981036527956636,0.5918009474391807,0.4963031324134659,0.41114836141385475,0.3403148419572841,0.2893511896396228
surface azimuth 180,1.0,0.9535609009696304,0.8856493686748493,0.7985689616435666,0.6960066224520335,0.5897313268783292,0.4943127132035443,0.4087033631770232,0.3376213105875553,0.2859406820269882
