,Tilt-0,Tilt-10,Tilt-20,Tilt-30,Tilt-40,Tilt-50,Tilt-60,Tilt-70,Tilt-80,Tilt-90
surface azimuth -180,1.0,0.9575124217297638,0.8938781515577731,0.811235572852589,0.7130331229376025,0.6097157904697014,0.51570419288795,0.42955416887577447,0.3558197311000788,0.29999239468136457
surface azimuth -170,1.0,0.9577620142185173,0.8944125104305568,0.8122742964768452,0.7151545584314564,0.6123964068064808,0.5183774859036249,0.43307536471961533,0.3604225457182482,0.30580901695370044
surface azimuth -160,1.0,0.9590423416072746,0.8970523742919094,0.8166614471486703,0.7223305132610942,0.6219120212088377,0.527022878038381,0.44244828385626284,0.3712065635083242,0.32028533359421396
surface azimuth -150,1.0,0.9613165888408138,0.9017170270067159,0.8241679182737408,0.733434998174673,0.636778902727274,0.5428942245257222,0.4588416455127914,0.39001938771710687,0.3391559122000145
surface azimuth -140,1.0,0.9645183750622456,0.9082471875719862,0.8344500763837254,0.7479419006917873,0.6553201641118948,0.5643179480436477,0.48224768174701116,0.41387958120064644,0.36029563771772916
surface azimuth -130,1.0,0.9685475661893529,0.9164646491476829,0.8470643550255428,0.7650310155757546,0.6765405570415618,0.5891321398592188,0.5089686229165157,0.4397973884183419,0.3828778106387224
surface azimuth -120,1.0,0.973282597311647,0.9260005990330479,0.861452297331256,0.783869895417254,0.6996225272988641,0.6155123274340115,0.5365151044177316,0.46608925153324593,0.4056800662745371
surface azimuth -110,1.0,0.97858201813273,0.9366222655619965,0.8770371013615994,0.8039393716241942,0.723700729018111,0.6420152081212478,0.5634624530268849,0.4914083706667053,0.42753507003965563
surface azimuth -100,1.0,0.9842917729516559,0.9479162035649206,0.8933196238608807,0.8246580803999362,0.7476724655114284,0.6676752053549434,0.588905811471495,0.5148334890420485,0.4472705416825032
surface azimuth -90,1.0,0.9902115229455772,0.959523311837251,0.9099451834912741,0.8452512164730561,0.771031110553993,0.691950010163508,0.6120375804601833,0.5356806791451456,0.46472536324292146
surface azimuth -80,1.0,0.996162205015939,0.9711140129730135,0.926394175151859,0.865347311918237,0.7931399100899768,0.714394089299545,0.6330379634774581,0.5534776308047255,0.4788024791780488
surface azimuth -70,1.0,1.0019611255380403,0.9823892538692447,0.9423498083830051,0.8846912764815833,0.8139234393297464,0.7347600835138,0.6513222220855691,0.5679252149827352,0.4891199033505633
surface azimuth -60,1.0,1.0074330889593721,0.9930001149623108,0.957291402983566,0.9026359155549462,0.8331292242947529,0.7528718611726195,0.6667296717782695,0.5793897888070492,0.49598483756031087
surface azimuth -50,1.0,1.0124152346958066,1.0026937867460988,0.9710760088504166,0.9190552507203393,0.8503630177263867,0.7691461255216712,0.679889527940369,0.588105770165422,0.4996408042927328
surface azimuth -40,1.0,1.0167550306116415,1.011112818660488,0.9831205186485431,0.9337929427302951,0.8659034315520396,0.783373540041393,0.6910363481930927,0.5945024240881283,0.5006523057588764
surface azimuth -30,1.0,1.0203330151822556,1.0180069771504703,0.9930686755680296,0.9461387971552407,0.8791862561943787,0.7957249502360854,0.7002851637142018,0.5989677006302218,0.49973077140149463
surface azimuth -20,1.0,1.023075872546358,1.023240693567672,1.0005511521161494,0.9555320624628348,0.8896824121139937,0.8056532552039991,0.7076103236552614,0.6015331005186547,0.4969920782886616
surface azimuth -10,1.0,1.0248740693359004,1.0266282232393087,1.0052914682676168,0.9615450063817294,0.8965896319080819,0.8126002871005131,0.7127954443047554,0.602596695773023,0.49407043392957795
surface azimuth 0,1.0,1.0256614415012755,1.0280846564949497,1.0073136193999506,0.9640076305252844,0.8996083922099704,0.8160644148259038,0.7162803633862912,0.6048168092098902,0.49621994259080027
surface azimuth 10,1.0,1.025414437390225,1.0276192266641682,1.0066546811518513,0.9632719634037401,0.8989968094182669,0.816092331324007,0.7178256324884352,0.6090123138640032,0.5006133086732416
surface azimuth 20,1.0,1.0241419975806578,1.0251717354211465,1.0033220946126198,0.9594988715425784,0.8953458775991032,0.8134521039018214,0.7174392697436603,0.6126672246046041,0.5077473392956903
surface azimuth 30,1.0,1.0218825867143888,1.020877721307135,0.9974159601977145,0.9526220381189573,0.8884865677218812,0.807748955606797,0.7145001476667459,0.6138999474788077,0.5135796937005388
surface azimuth 40,1.0,1.0187050009317553,1.014785826630919,0.9889981352997815,0.9428554094631476,0.8785244824730897,0.7990330937420069,0.7085423206579693,0.6121087189739546,0.5163814166790999
surface azimuth 50,1.0,1.01470613060574,1.0070954839393174,0.9785004537315721,0.9305771098020503,0.8657138404764753,0.787327555842651,0.699579335727222,0.6071707256502731,0.5158829996504137
surface azimuth 60,1.0,1.0100126006752506,0.9981475691877514,0.9660518384725261,0.9157307692651363,0.85002793693379,0.7727085101484148,0.6873295173888635,0.598691020099525,0.5115633699723019
surface azimuth 70,1.0,1.0047583404679727,0.9880358288880942,0.9519016806116174,0.8988065371973433,0.8320220273452599,0.7550239227704869,0.6715717564102944,0.5861823828652397,0.5030792778201741
surface azimuth 80,1.0,0.9991011206101554,0.9770635100485799,0.9363634474585767,0.8800602754048286,0.8114394371661267,0.7342573174798844,0.6524591301651579,0.5697373457087255,0.4901802810195779
surface azimuth 90,1.0,0.993211156392654,0.9655554877431087,0.9199113312454033,0.8596516171245173,0.7884914143667021,0.7106018131018023,0.62971032610314,0.5493787641676442,0.4736968434201713
surface azimuth 100,1.0,0.9872665825049771,0.9538188263447042,0.9028691166845044,0.8381381425162265,0.7638551657217562,0.6844103850050667,0.6037403804056454,0.5254954343318216,0.45356310631007596
surface azimuth 110,1.0,0.981450183538854,0.9422304091016063,0.8857530651360699,0.8160831017099577,0.7379796024778446,0.6562351676271566,0.5753291705660074,0.4990285289666534,0.4304365630102222
surface azimuth 120,1.0,0.9759405377287472,0.931172645532512,0.8691272367135708,0.7941800740111628,0.7115936640839841,0.6268762717481646,0.5452174440209102,0.4705621077753672,0.4056405933486397
surface azimuth 130,1.0,0.970906919263553,0.9209943450901307,0.8536111862245199,0.7732505989134157,0.6857293389428264,0.5974425522055641,0.5145588853095999,0.4413564925403394,0.38038072035371007
surface azimuth 140,1.0,0.9665040868134958,0.9120759087946727,0.8398410336714445,0.7542587837121941,0.6616467910735304,0.5694240428225532,0.4848558663544159,0.4130067442013129,0.35610003939447477
surface azimuth 150,1.0,0.9628654529587879,0.9047089609085942,0.8283617233024875,0.7381026439841182,0.6406627559893624,0.5450217336322766,0.45893039884613207,0.3876655176390583,0.3342784700782202
surface azimuth 160,1.0,0.9601020629470102,0.8991068068036556,0.8195374013089226,0.7254061449777613,0.6238837204694853,0.5276082800488516,0.4413848116070666,0.3681068473400493,0.31566692645931793
surface azimuth 170,1.0,0.9583005039263814,0.895451766060124,0.8137226492860928,0.7167006190790034,0.6130850945080815,0.5185351805667121,0.4321839963509441,0.35825110276470806,0.3023819045775456
surface azimuth 180,1.0,0.9575124217297638,0.8938781515577731,0.811235572852589,0.7130331229376025,0.6097157904697014,0.51570419288795,0.42955416887577447,0.35581973110007886,0.29999239468136457
