,Tilt-0,Tilt-10,Tilt-20,Tilt-30,Tilt-40,Tilt-50,Tilt-60,Tilt-70,Tilt-80,Tilt-90
surface azimuth -180,1.0,0.9552824052315818,0.8888992055016609,0.803087373718827,0.7013143911593664,0.5942811252503918,0.49877005027522925,0.412454605040192,0.3397067690950132,0.28577731428847786
surface azimuth -170,1.0,0.9562422925861574,0.890840458976178,0.8061210965050133,0.7059148248192386,0.5998695790598758,0.5043669327926505,0.41871215196096734,0.3463742247451327,0.29279754394172824
surface azimuth -160,1.0,0.9582868979819805,0.8949764369380468,0.8126456918747575,0.7158608020985664,0.6129030513298236,0.5165227820069211,0.43163494340165137,0.3602422388238653,0.30937962267055663
surface azimuth -150,1.0,0.9613536423614899,0.9011852375683086,0.8224177805352514,0.7300563022751619,0.631744873463656,0.5367225781038242,0.4519613839595558,0.3821853997862869,0.33090832632596995
surface azimuth -140,1.0,0.9653515188853257,0.9092883575775176,0.8350918538523102,0.747965687099146,0.6544965511249576,0.5624892469326644,0.47902651572417104,0.40948476642123877,0.3550246393858245
surface azimuth -130,1.0,0.9701651089759686,0.9190584898642995,0.8502354142360538,0.7685060218825012,0.6797205824569957,0.5910348824989201,0.509436684119545,0.43902245496732134,0.38079201285850095
surface azimuth -120,1.0,0.9756430720660876,0.9301335940125598,0.8670838538856406,0.7906084382030749,0.7061861859481136,0.6209384688465684,0.5406056642241063,0.4687369184094698,0.4067815654624238
surface azimuth -110,1.0,0.9816150279506837,0.9422055436685527,0.8849745703526216,0.8135156107381345,0.7332020807250935,0.6506766209923937,0.5709044358320553,0.4972985572637485,0.43155284491735985
surface azimuth -100,1.0,0.987905746144319,0.9547609357364485,0.9032581433418493,0.8365248439119901,0.7597472197191437,0.6792225577906269,0.5993069746711152,0.523598179590843,0.45385416048078836
surface azimuth -90,1.0,0.9943103645581677,0.9673921133652268,0.9214761881640593,0.8590267627493771,0.7851911112981221,0.705877669485632,0.6249008415355355,0.5467857779777302,0.4734631078058442
surface azimuth -80,1.0,1.000630729592858,0.9797538875325439,0.9390932666941791,0.8805586401984264,0.8088812083568283,0.7300590150710446,0.6478024136407167,0.5664126458003387,0.48916355751083646
surface azimuth -70,1.0,1.0066723090578718,0.9914995572665292,0.9557454407243644,0.9008111440192855,0.8308031311138842,0.7515304672586727,0.6672814017965203,0.5820808084661886,0.5004565685903982
surface azimuth -60,1.0,1.0122545197246509,1.002263858789489,0.970904695641823,0.9191639487515944,0.8505569884647419,0.7701335523976569,0.6830664979626149,0.5939545658773436,0.5077040424815207
surface azimuth -50,1.0,1.017209990877589,1.0117846305200333,0.9843828865156183,0.9353902554439282,0.8677310114882565,0.786208868853291,0.6959289073275565,0.6022874749599966,0.510960693294479
surface azimuth -40,1.0,1.0213879592163622,1.019731823544975,0.9956262723658263,0.9492807396949995,0.8825757761678981,0.7996446520866728,0.7060277654563496,0.6075063718689476,0.5107651657345122
surface azimuth -30,1.0,1.0246737417876026,1.0258971203148906,1.0043125968951767,0.9600841218429992,0.8944372964425285,0.8105671165228875,0.7136104108239395,0.6100667087476248,0.5078385928779161
surface azimuth -20,1.0,1.0269910584959807,1.0303188488157036,1.0101646591294762,0.9673102105063398,0.902685366451582,0.8183727889055001,0.7186295437583784,0.6101312230483357,0.5025061861145386
surface azimuth -10,1.0,1.0282513526367099,1.0326589207997559,1.013195007060924,0.970714840305137,0.9064832784966627,0.8222760347911622,0.720911103717873,0.6081265466465302,0.4969033224209232
surface azimuth 0,1.0,1.0284055012827273,1.0328943461278433,1.0134133288522709,0.9706492882086921,0.9060532485492528,0.821900396279181,0.720783891740383,0.6070823725719543,0.49632799660831006
surface azimuth 10,1.0,1.0274492505332575,1.031032428869713,1.0107732678609485,0.9673983333995175,0.9024972637081736,0.8183770743330043,0.7184341107170109,0.6078584142866186,0.4978389360476143
surface azimuth 20,1.0,1.0254130345186327,1.0270904232488174,1.0052694491604295,0.9609512799071693,0.8957840093866819,0.8124923660207307,0.7148399520663066,0.6085431912369398,0.5026816456193097
surface azimuth 30,1.0,1.0223584797222793,1.0212374572781524,0.9971693094311942,0.9513540554145574,0.8858421201496762,0.8036014711307592,0.7088666109055645,0.6072144903720808,0.5065975959658355
surface azimuth 40,1.0,1.018379429112737,1.013581140461794,0.9865359335027328,0.9388652511933208,0.8728978253911006,0.7918815749099503,0.700146901091889,0.6031919029285874,0.5077629261618555
surface azimuth 50,1.0,1.0135961248393723,1.0043891781767256,0.9739199207208544,0.9240214249847872,0.8572665478072408,0.7773936483272083,0.688730908851438,0.5963140390260202,0.5059384412163099
surface azimuth 60,1.0,1.0081625389291504,0.9940094805366597,0.9594689627437604,0.9067004205780481,0.8390134433624198,0.7602788615298454,0.6743567115186289,0.5862092589264941,0.5005336245035072
surface azimuth 70,1.0,1.0022316654343526,0.9825772771146496,0.9434402379254397,0.8875583040397511,0.8186835279914438,0.7403352326309122,0.6567549491861614,0.5723881995507438,0.49106192576858515
surface azimuth 80,1.0,0.9959833503836522,0.970450300628304,0.9262594105952966,0.866872901609498,0.7960615119106583,0.717678212921923,0.6361229589811931,0.5547163794584105,0.47731210983353906
surface azimuth 90,1.0,0.9896053040361854,0.9579668155180214,0.9084157518545929,0.8447797179816634,0.7713196966825739,0.6924259099052334,0.6120438613389654,0.5333532839412909,0.46015716773933213
surface azimuth 100,1.0,0.9832905056130073,0.9454733503071489,0.8902575296058544,0.8218733710204027,0.7451957915686338,0.6648478842743921,0.5848626169763497,0.5086740956140007,0.43949802228085194
surface azimuth 110,1.0,0.977231348990299,0.9333794670904783,0.8723408017617785,0.7987615819666144,0.7181199962613836,0.6355047256969445,0.5555136345748275,0.4815238377274853,0.415940500352931
surface azimuth 120,1.0,0.9716132415191008,0.9220943567457299,0.855259207216166,0.7762055093478591,0.6908361636595791,0.6052487877428072,0.5246145077232353,0.4525738100581498,0.390905419202772
surface azimuth 130,1.0,0.9666086499748723,0.91196582830332,0.8396905995758476,0.7550250584747609,0.6644789010865675,0.5751825570164375,0.49343242727345343,0.42308631528597473,0.3654283820398184
surface azimuth 140,1.0,0.9623726065062456,0.903372012100299,0.8263092578970442,0.7362515754413137,0.6403636270265567,0.5468745115733411,0.46353128185100073,0.39454288791944536,0.34092109213850985
surface azimuth 150,1.0,0.9590351843306044,0.8966008477650129,0.8156404563778988,0.7209100163553569,0.619942406126326,0.5227664355629785,0.43770737374850927,0.36905404645059536,0.3188433831715384
surface azimuth 160,1.0,0.9566993882651673,0.8918331152308405,0.8080267401840613,0.7095575078437317,0.6043676902393593,0.5063960943128515,0.420879470350865,0.34959760623078107,0.30010236410852303
surface azimuth 170,1.0,0.9554365127867784,0.8892319660939683,0.8037495368808594,0.7027082404110034,0.5952858783471461,0.49912060435865135,0.4130835306310199,0.3406192351878898,0.28724082582564686
surface azimuth 180,1.0,0.9552824052315818,0.8888992055016609,0.803087373718827,0.7013143911593664,0.5942811252503918,0.49877005027522925,0.412454605040192,0.3397067690950132,0.28577731428847786
