,Tilt-0,Tilt-10,Tilt-20,Tilt-30,Tilt-40,Tilt-50,Tilt-60,Tilt-70,Tilt-80,Tilt-90
surface azimuth -180,1.0,0.9615009785889889,0.9026222158555268,0.8253306454417525,0.7327210257971378,0.634232905529904,0.5411587215024848,0.4546136112125972,0.3788488014523859,0.3206827612498216
surface azimuth -170,1.0,0.9609825100299165,0.90162768804262,0.824072192957634,0.7317332352304933,0.633108998891777,0.540153393230038,0.45417664900020294,0.38002209393348785,0.3235127487585159
surface azimuth -160,1.0,0.9613790177714736,0.9025111437490175,0.8257750206526421,0.735140903097315,0.6377281268012074,0.5442435534102517,0.4593230673408399,0.38727490151510885,0.3356403610458203
surface azimuth -150,1.0,0.9626793290786156,0.9052211868029097,0.8303292864189651,0.7421707631757037,0.6475319465281143,0.5546730617314107,0.47110861670826293,0.4024909279992272,0.3512932690415851
surface azimuth -140,1.0,0.9648491781947972,0.9096987002108071,0.8374726679989919,0.7523598271687807,0.6609479289372547,0.5708097457186627,0.4896840804285275,0.42207464955936586,0.3686899681769383
surface azimuth -130,1.0,0.9678208175637539,0.9157897346569456,0.8468325148366673,0.7652693664953889,0.6774137009211173,0.5907296095266629,0.5115522386384724,0.4434358441853314,0.38726658821150106
surface azimuth -120,1.0,0.971505198844818,0.92321568908165,0.8580361799760264,0.7802822178131124,0.696109902766284,0.6125587888754214,0.5345636336500427,0.4652104396881305,0.4060286435565898
surface azimuth -110,1.0,0.9757916694788855,0.9317698761087115,0.8707025408837132,0.796817824149491,0.7162679157787732,0.6349507817820744,0.5573228518395364,0.48644230297042934,0.42402281192736246
surface azimuth -100,1.0,0.9805440651413843,0.941148165884041,0.8843493136269226,0.8144088064227598,0.7367776752135111,0.6569940769467055,0.579130047220423,0.5063120307294185,0.44045419100556116
surface azimuth -90,1.0,0.9856051520740242,0.9510563293811151,0.8986698030917964,0.8322883649365502,0.7572306437854686,0.6782461967309036,0.5992557575751388,0.5242638905281255,0.4553052689503865
surface azimuth -80,1.0,0.9908243660220344,0.9612147972870293,0.9131671286677109,0.8501014423707347,0.7769575487638073,0.698322337150225,0.6179242913340155,0.539946633224403,0.4674960550639293
surface azimuth -70,1.0,0.9960415210549377,0.9713582063228879,0.9275311788675197,0.8676112716959067,0.7958300696429051,0.7169006377003039,0.6346080797605987,0.5530879182485768,0.4767718376577973
surface azimuth -60,1.0,1.001100028599953,0.9811773544795854,0.9413048385038467,0.8842103407443385,0.8136855190740662,0.733820177141643,0.6491720696175255,0.5639980165367953,0.4834614507201932
surface azimuth -50,1.0,1.0058461826373088,0.9904221976158143,0.9544101455067835,0.8997284445822867,0.8301115423149851,0.7493839085842302,0.6620034098773081,0.5728733667277555,0.48765681958794416
surface azimuth -40,1.0,1.0101361660613974,0.9987754178798978,0.9663072725600171,0.9141794813256268,0.8452698975110626,0.7634231371557507,0.6732446481329113,0.5799204204458971,0.48980621388124856
surface azimuth -30,1.0,1.013849387537024,1.005994885613683,0.976645361990829,0.926877142960908,0.8588259809930252,0.776090143515724,0.683017197927231,0.5853577295848682,0.4903648396594151
surface azimuth -20,1.0,1.0168970365082084,1.0118834193544932,0.9851027847555716,0.937404971413791,0.8704579644415045,0.7870476566791389,0.6913617461649187,0.5892298316698128,0.4893490070210225
surface azimuth -10,1.0,1.0191684440600537,1.0162393542833899,0.9913702726457285,0.9452941708144804,0.8794775836025264,0.7961162619057409,0.6985004847778535,0.5920853913615305,0.48794919874124587
surface azimuth 0,1.0,1.0205859331164404,1.018973481013025,0.9952781243006956,0.9502834972410291,0.8853825318073054,0.8026660594417137,0.7049915194028962,0.5966242309103565,0.49081275582292017
surface azimuth 10,1.0,1.0211066852222874,1.0200172413231967,0.9968563286752209,0.9524107270973218,0.8881702687877396,0.8063958900669074,0.7100563129236835,0.6034337900555851,0.4966423040042355
surface azimuth 20,1.0,1.020716633774019,1.019298952914001,0.9959982391256496,0.9517140151660062,0.8880728442696911,0.8074319548933637,0.7130625478606478,0.6099597827018042,0.5065090230358018
surface azimuth 30,1.0,1.0194267949684037,1.0168808076462024,0.9927622861863689,0.9481234550684718,0.8848171661644285,0.8052995334784451,0.7133585308044348,0.6140936656613563,0.5147092799449782
surface azimuth 40,1.0,1.0172756994027021,1.012779196928285,0.9871373265180321,0.9417124071169013,0.8784145023043453,0.80009621664404,0.7106654102573828,0.6151198417594027,0.5196880151949346
surface azimuth 50,1.0,1.0143300885518018,1.0071219664774713,0.9794238028494557,0.9327186115930223,0.8691478493656156,0.7918652622172636,0.7049335813868701,0.6129205924862868,0.5212586720941573
surface azimuth 60,1.0,1.010684259750486,1.00016806076435,0.9697153122974781,0.9211165350461733,0.8569131197419181,0.7806559382791457,0.6959033178961449,0.6070380777398141,0.5189434826383975
surface azimuth 70,1.0,1.0064410663748384,0.9919809314154898,0.9581922905887403,0.9072708725687808,0.8422908315404538,0.7663500895157846,0.683221349235125,0.597047130488089,0.5124295459604865
surface azimuth 80,1.0,1.0017281075520112,0.9828168731909992,0.9451543204029257,0.8915110005524997,0.8249843912342038,0.7488239196110377,0.6670005197179032,0.5830741120636489,0.5016666261123712
surface azimuth 90,1.0,0.9966882214497559,0.9729414179770194,0.930971754272237,0.8739261890925792,0.8051803016636796,0.7282714231309402,0.647074372686937,0.5652554661902082,0.4874634962651487
surface azimuth 100,1.0,0.9914732331573622,0.9626265189708798,0.9159839367806655,0.8549929539754604,0.7834192531802343,0.705008814476742,0.6238816186975643,0.5439491470228868,0.46962296312253266
surface azimuth 110,1.0,0.9862420342411932,0.9522204540672765,0.9006232903793158,0.83518405196584,0.7601344504731885,0.6795669745754368,0.5981632729959545,0.5200378599790613,0.4488028014351486
surface azimuth 120,1.0,0.9811549695030366,0.9420484046241585,0.8854110245930458,0.8151597987428326,0.7359896161682129,0.6527298967709113,0.5705552679326368,0.4940202447720307,0.42624629522890245
surface azimuth 130,1.0,0.9763665126632552,0.9324328862074339,0.8708628357191806,0.7956566878116084,0.7119376182997674,0.6254403311841833,0.5421700618946603,0.4670881524143889,0.40293399837534877
surface azimuth 140,1.0,0.9720248803999516,0.9237165797483808,0.8575906399434593,0.777574819755356,0.6891111441628937,0.5989880402663671,0.5143872543952857,0.4405879830936326,0.38014998699807684
surface azimuth 150,1.0,0.96826264013042,0.9161720283157396,0.8460644112623454,0.7617079761547297,0.6687935726264165,0.5754081432042017,0.48949848092274767,0.4162764282452897,0.3591070560707842
surface azimuth 160,1.0,0.9651954354929799,0.9100145978358083,0.8366104207032453,0.7485767801358303,0.6519461710294517,0.5577760801194273,0.47124022381297015,0.39648346248699107,0.3404778680616296
surface azimuth 170,1.0,0.9629190485868503,0.9054438595086572,0.8295882463417326,0.7385942267177799,0.640168729794038,0.5469666531224148,0.46015668488450345,0.38415249710748584,0.32598807863594087
surface azimuth 180,1.0,0.9615009785889886,0.902622215855527,0.8253306454417525,0.7327210257971378,0.634232905529904,0.5411587215024848,0.4546136112125972,0.3788488014523859,0.3206827612498216
