,Tilt-0,Tilt-10,Tilt-20,Tilt-30,Tilt-40,Tilt-50,Tilt-60,Tilt-70,Tilt-80,Tilt-90
surface azimuth -180,1.0,0.9530219648108162,0.8844350115499487,0.7965796903468955,0.6932513966845942,0.5865557676413762,0.4906155028893482,0.40444271683548216,0.33271043412082585,0.2802741427542826
surface azimuth -170,1.0,0.954245453776993,0.8868815703863997,0.8003524086757214,0.6986468780273706,0.5926291963471833,0.4968595514728436,0.41118098768091743,0.3397539154691475,0.2878507310902654
surface azimuth -160,1.0,0.9566157552472415,0.8916784627421095,0.8078546914840432,0.7098248640932618,0.6062989878114611,0.5101046610133401,0.42490543065355946,0.3539386911913713,0.30499590700733054
surface azimuth -150,1.0,0.9600615055981572,0.8986398071815754,0.8187184560799706,0.7253516526427968,0.626336380314018,0.5308853555601175,0.44597983932207497,0.37673678923134607,0.32666709778370373
surface azimuth -140,1.0,0.9644805738522778,0.9075429978871112,0.8324318279962968,0.7442590005558608,0.6501639887436858,0.5577347275946192,0.4743142970041578,0.4052913456054993,0.35154071413195614
surface azimuth -130,1.0,0.9697313427608466,0.9180978071510761,0.8484461100704997,0.7658840265425985,0.676634937285816,0.5877585623846786,0.5062807422423181,0.43625361455549233,0.37856372576420405
surface azimuth -120,1.0,0.975654686989227,0.9299274085111005,0.8661777945520494,0.7892214824045298,0.704582540039895,0.6193001454882394,0.5391672090657668,0.4677149677833911,0.40603123992900864
surface azimuth -110,1.0,0.9820718309093511,0.9426855047625444,0.8850608757837369,0.8133398849862195,0.733137836631243,0.6507516285813724,0.5711923960962889,0.49799591817915156,0.4324497309183356
surface azimuth -100,1.0,0.988788235166888,0.9559171230216665,0.90433024166999,0.8376656589787094,0.7612157811492849,0.6809991502276845,0.6014421066394579,0.525982129370768,0.4564874636248117
surface azimuth -90,1.0,0.9955889428163714,0.9692242914298652,0.9235294864185994,0.8614073838061018,0.7882329352556059,0.7092294857279992,0.6288759865816467,0.5510291437506324,0.4776697406041816
surface azimuth -80,1.0,1.0022698525150793,0.9822371938031529,0.9421103950887589,0.8841076471831432,0.8134531776736439,0.7350912851518365,0.6532530428146894,0.5723082818300818,0.4949199018647081
surface azimuth -70,1.0,1.0086325535884144,0.9945995795651789,0.9596508895738994,0.9055162004070617,0.8365201684899908,0.7579977224624516,0.6741792080943066,0.5893743650857609,0.5077353289229778
surface azimuth -60,1.0,1.014483851006751,1.0059290502120732,0.9755888519926748,0.9248343017680091,0.8573416893926379,0.7777860006464759,0.6913718669982212,0.6025551786484563,0.5162081134517439
surface azimuth -50,1.0,1.0196502377702186,1.015970927333538,0.9897797186970518,0.9418902638458506,0.8754635126581757,0.7949443872704302,0.7052436909234785,0.6120007899168791,0.5204691389935182
surface azimuth -40,1.0,1.0239756911229858,1.0243786594120425,1.0016087030645822,0.9564779424508625,0.8909061758861188,0.8091092019680927,0.7161577922510055,0.6180148665620856,0.5210802524644401
surface azimuth -30,1.0,1.027326361211325,1.0308718777019705,1.010778709416686,0.9678398625912384,0.9032595669069897,0.8204174650760704,0.7241699182615624,0.620939217520118,0.5185765426183059
surface azimuth -20,1.0,1.0296108604109124,1.035306854338025,1.0169934269286867,0.9755270461930955,0.9119675423562016,0.8284818023271681,0.729370190707997,0.6210181829498052,0.5130329577796655
surface azimuth -10,1.0,1.0307505607727665,1.0375093119557248,1.0200910755272095,0.979136301811265,0.9161110250086819,0.8326834036524314,0.731802463863859,0.6189885738869281,0.5061397352136646
surface azimuth 0,1.0,1.030709040203403,1.0374072056193024,1.019947880763979,0.9788709768963431,0.9155865211032026,0.8322204727117241,0.7314461869531895,0.6173629259489167,0.5039668385269519
surface azimuth 10,1.0,1.0294876436389009,1.0350327106191923,1.0165549507168634,0.9747710050252684,0.9110870162373963,0.8277043828228138,0.7279189941105574,0.6167261565591046,0.504508548381239
surface azimuth 20,1.0,1.0271267540806606,1.0304322361768214,1.0101339381509893,0.9670267784491334,0.902732333071428,0.8198163380285024,0.7221649459490853,0.6152014756801047,0.5080358076723677
surface azimuth 30,1.0,1.0236972562703999,1.02384319076226,1.0008755580460724,0.9558740349440951,0.8908406492118759,0.8087177142080726,0.7137540911125997,0.6115822959577721,0.5099198171842446
surface azimuth 40,1.0,1.0193023964112908,1.0153943398640706,0.9890527124171978,0.9417595354851485,0.8758786084154735,0.7948300603465768,0.7028631946636248,0.6054930606943978,0.5094382111193653
surface azimuth 50,1.0,1.0140756936769173,1.0053054089564841,0.9750773721518388,0.9251980723755863,0.8584678538546052,0.7784654333416237,0.6897168218729764,0.5970698648045801,0.5063083647925081
surface azimuth 60,1.0,1.008183150209537,0.9940240965234679,0.9593340663990207,0.9064079985055179,0.8385417340806998,0.7598071545644794,0.6739241060490846,0.585648606917141,0.4997415647832386
surface azimuth 70,1.0,1.0017984251181573,0.9817300246163189,0.9421408149949907,0.8858942253278834,0.8169474648257061,0.7386715654458306,0.6549961136707178,0.5706362708185541,0.48927840079750845
surface azimuth 80,1.0,0.995108915864988,0.9687712206553041,0.9238483893231818,0.8640173768266989,0.7931349954984612,0.7147804697072933,0.6332322508818862,0.552112143971581,0.47470776815134313
surface azimuth 90,1.0,0.9883187204830619,0.9555175747027356,0.9050140275488129,0.8409243906557125,0.767360687403364,0.6883518870468827,0.6082174051005919,0.529893362558761,0.4567280650449519
surface azimuth 100,1.0,0.9816301293270238,0.9423300726761662,0.886007125859159,0.8171064757829363,0.7402516030919704,0.6600042231400268,0.580342571810025,0.5043997662029278,0.43545254843458525
surface azimuth 110,1.0,0.9752452753329776,0.929617090590079,0.8673394011513239,0.793161296257433,0.7123732134344651,0.6299351600674535,0.5503648973832036,0.4767684210659791,0.41154918306400357
surface azimuth 120,1.0,0.969361605613927,0.9178103852518715,0.8495933769074295,0.7698754695722276,0.6843951372008507,0.5990975107146566,0.5190069279467586,0.447496452155415,0.3862257425333046
surface azimuth 130,1.0,0.9641602549368892,0.9072808062639824,0.8334496017822407,0.7480136588313613,0.65740370479444,0.5685741853613046,0.4875150136479862,0.41775025566143736,0.36063999158171745
surface azimuth 140,1.0,0.9598025549146109,0.8984120477764991,0.8195955085910369,0.7286649963533712,0.6327486168714644,0.5398889921873582,0.45734918440156647,0.389147468131147,0.3362606563259343
surface azimuth 150,1.0,0.9564220731529555,0.8915178106508004,0.8086373871083069,0.7128203885242796,0.6118150723104502,0.5154144821953507,0.43129117459632255,0.3636908449616457,0.3143821476585355
surface azimuth 160,1.0,0.9541236644005361,0.8867939808766996,0.8009213064975482,0.7011641827714677,0.5959223253732869,0.4987833057264081,0.41385902158564547,0.3437699303449578,0.29566810736213345
surface azimuth 170,1.0,0.9529802489088642,0.884389035297093,0.7968025317620692,0.6943055964986516,0.5872715025690952,0.49107972354720847,0.4053185094534001,0.3337622064627809,0.2822089503263864
surface azimuth 180,1.0,0.9530219648108162,0.8844350115499487,0.7965796903468955,0.6932513966845942,0.5865557676413762,0.4906155028893482,0.40444271683548216,0.33271043412082585,0.2802741427542826
