,Tilt-0,Tilt-10,Tilt-20,Tilt-30,Tilt-40,Tilt-50,Tilt-60,Tilt-70,Tilt-80,Tilt-90
surface azimuth -180,1.0,0.9534072664794693,0.885429147172595,0.7983895903616296,0.6959627113585739,0.589817312647129,0.4947993693334197,0.40967386092518754,0.33909433018029816,0.2876011449288988
surface azimuth -170,1.0,0.9541301325374099,0.8869024795188802,0.8007334378821441,0.6995459019232075,0.5938275796483504,0.49903923308830983,0.4143774574906307,0.34396620157097124,0.2929895720071821
surface azimuth -160,1.0,0.9560012054990277,0.8907136902560508,0.806796609306791,0.7087785560646814,0.6054041229197022,0.5100491260091469,0.4261232990278239,0.35652998539420494,0.3085303391931142
surface azimuth -150,1.0,0.9589644777296011,0.8967231009879153,0.8162991482908842,0.722644700082036,0.6237173843189773,0.5290733058747356,0.44551320595269783,0.37762053577327587,0.32888639988901125
surface azimuth -140,1.0,0.9629354214688837,0.904759907392739,0.8289166899414188,0.7403802037854366,0.6461977992391101,0.5542496989270667,0.4719150080931507,0.4042909501020926,0.3521604671512666
surface azimuth -130,1.0,0.9677862745820556,0.9145985184686852,0.8441529907993884,0.7610624150306154,0.6714062334929886,0.5826884453205589,0.5020532551862789,0.4334022256837785,0.37744947879537766
surface azimuth -120,1.0,0.9733723596861773,0.9259050915142648,0.8612719222521623,0.7835942368021741,0.6982401712709566,0.6128359009900761,0.5334029725429353,0.46320952566572016,0.40328761334561236
surface azimuth -110,1.0,0.9795245350404165,0.9383165649130154,0.8796731339497721,0.8070744874222043,0.7259661908915804,0.6432215885769673,0.5642271598984006,0.49215772333273455,0.42830548177546307
surface azimuth -100,1.0,0.98604786432122,0.9513163490268347,0.8986044621945755,0.8309598998850865,0.7535000862595334,0.6727660953496798,0.5936059402936547,0.5192049046136423,0.45131466204891824
surface azimuth -90,1.0,0.9927354748648305,0.9645019310304608,0.9176251432564142,0.8544793248734766,0.78029559939063,0.700736785407643,0.6205293198938783,0.5436814124569586,0.4719074816985013
surface azimuth -80,1.0,0.9993917740644946,0.9775093472973292,0.9361850825917182,0.8772137628610581,0.8055490979424719,0.7266918317564663,0.6449667804316391,0.5647960189925428,0.4889621323019022
surface azimuth -70,1.0,1.0058168604916853,0.9899789910712715,0.953871336300046,0.8988468836187133,0.8289707769436144,0.7500331220796169,0.666361987646319,0.5822181779413174,0.5019680518876555
surface azimuth -60,1.0,1.0118124107688131,1.0015194907855125,0.9701263852992745,0.918620818312101,0.8504206631601536,0.7705561017795582,0.6843479366109327,0.5962332695898056,0.5111377251319391
surface azimuth -50,1.0,1.0171972949506047,1.0118645534301014,0.9847831487805971,0.936364674593958,0.8694096292448785,0.7886818995596215,0.6993448886650734,0.6068085330559192,0.516541416837469
surface azimuth -40,1.0,1.0218102978010506,1.0206640267469955,0.9972162692704144,0.951731017041887,0.8859859068969911,0.804122474388537,0.7116031641830253,0.6142892844746692,0.5185564615098869
surface azimuth -30,1.0,1.0255095788367612,1.0276332308231837,1.0070873803372833,0.964018892296459,0.8996578147215905,0.8170069160451262,0.7212551278182838,0.6189770833483295,0.5177799933447684
surface azimuth -20,1.0,1.0282077537092131,1.032838429921707,1.0140915961299946,0.9727322054634912,0.9095944370835052,0.8267778944067922,0.7283352982259075,0.6210458752916483,0.5143258964781863
surface azimuth -10,1.0,1.0298089512748572,1.0359084695133889,1.0181622593903348,0.9774671162684724,0.9150461275118754,0.8325311837161471,0.7327132461752071,0.6210122045979369,0.5097127954580688
surface azimuth 0,1.0,1.0302562587438266,1.0367460071474954,1.0193389385663598,0.9786005521389882,0.9159760531445633,0.8336297635591954,0.7341427196521169,0.6214047832869503,0.5088811720001775
surface azimuth 10,1.0,1.029536510190314,1.0353573554149158,1.0173801697741178,0.9762875846241917,0.9135006515306828,0.8311920953924452,0.7325733144282862,0.622284471038094,0.5101220584781888
surface azimuth 20,1.0,1.027675509882064,1.031741488013628,1.012384768656952,0.9704029535880135,0.9073739075985718,0.8257308587003909,0.7291025191469586,0.6226018888569964,0.5149178243367669
surface azimuth 30,1.0,1.0247273678425723,1.0261023910111735,1.0045261654222426,0.961051386995749,0.8975779946054596,0.8168076398741188,0.7227795772822112,0.6207216697693243,0.5182579044063269
surface azimuth 40,1.0,1.0207819660537514,1.0185325970242105,0.9939972556753216,0.9486032032888901,0.8844920011139038,0.8048510771513243,0.7135961955183913,0.6159874874609694,0.5187620337040917
surface azimuth 50,1.0,1.015957837577314,1.009237849140407,0.9811998747557499,0.9335200701227381,0.8686880431114098,0.7899785080258769,0.701626272031741,0.6084324036597643,0.516219003088465
surface azimuth 60,1.0,1.010409915760012,0.9986436069106699,0.9664477455801033,0.9159432803396058,0.8499824305499091,0.7723417570597476,0.6865929645248935,0.5975112410114681,0.5100086536040838
surface azimuth 70,1.0,1.004301499242463,0.9868989545863686,0.9500463931157729,0.8963080046483398,0.8291688640789379,0.7518294472491396,0.6681216311504562,0.5828035768066708,0.4997353731945171
surface azimuth 80,1.0,0.9978115438099273,0.9743313036670729,0.9323022375762651,0.874980356408867,0.8058141908510337,0.7282603678695877,0.6465640988542862,0.5643516163718902,0.4852830435230561
surface azimuth 90,1.0,0.991138092468845,0.9613005999257774,0.9137496670449029,0.8521165727653829,0.780205852498096,0.7019195323169813,0.6215647830417561,0.5421373782770496,0.4673822411454617
surface azimuth 100,1.0,0.9844793694777638,0.9481651939570157,0.8947619672087941,0.828245363715998,0.7530058298375596,0.6734291790752173,0.5935442693532471,0.5165924665432541,0.4460807668660069
surface azimuth 110,1.0,0.9780358259832684,0.9353397025973967,0.8758781936561503,0.8039782700204313,0.7247609955385732,0.6430384675662346,0.5633276874497191,0.4887907869439436,0.4220334901586564
surface azimuth 120,1.0,0.9720070039551916,0.923250929967913,0.8577010712194111,0.7801169098864278,0.6961435240699927,0.6117081848080139,0.5316321474387053,0.4592288828289704,0.39657873831913204
surface azimuth 130,1.0,0.9665781933573059,0.9122734504722426,0.8409235170244148,0.7574598197549688,0.6682773681473005,0.5804418336703653,0.49962319555187745,0.42919315431345334,0.3708388217855164
surface azimuth 140,1.0,0.9619204951812298,0.9028125481315167,0.8262305373189057,0.7371116927494806,0.6424658957543468,0.550730400476781,0.4688135271247432,0.40019523416800257,0.346137357840372
surface azimuth 150,1.0,0.9581757716786854,0.8952020029895151,0.8142525765676604,0.7200837396751759,0.6202121584320246,0.5249030997003254,0.4417334560309207,0.37410638260099505,0.323883248274413
surface azimuth 160,1.0,0.9554586344935823,0.8896501705765648,0.8053729358850407,0.7070602250409284,0.6028383974422358,0.5066352786519875,0.4227583797915669,0.3534673638976064,0.30484296448946596
surface azimuth 170,1.0,0.9538542844283235,0.8863395203523603,0.7999727933774429,0.6986722937066197,0.5924234343892458,0.49719212588380585,0.4124787838493558,0.3419810903110755,0.29100870943598256
surface azimuth 180,1.0,0.9534072664794693,0.885429147172595,0.7983895903616296,0.6959627113585739,0.589817312647129,0.4947993693334197,0.40967386092518754,0.33909433018029816,0.2876011449288988
