,Tilt-0,Tilt-10,Tilt-20,Tilt-30,Tilt-40,Tilt-50,Tilt-60,Tilt-70,Tilt-80,Tilt-90
surface azimuth -180,1.0,0.9555227818759956,0.8893690715914527,0.8037580367637878,0.7021878753168196,0.5952425007424247,0.4999021046137751,0.4137542321053798,0.34093201202549756,0.2867979664960564
surface azimuth -170,1.0,0.9563084947736837,0.8909566229208243,0.8062905384863778,0.7061493086832786,0.6000771264094775,0.5046971064490461,0.41918185162238514,0.3466883532819893,0.2928621497838253
surface azimuth -160,1.0,0.9581755605983437,0.894731669177874,0.8123111394108526,0.715438224674608,0.6124298064071104,0.5161207782939977,0.4312189724526502,0.3598117493914659,0.3089721625335259
surface azimuth -150,1.0,0.9610673038158855,0.9005924631455666,0.8215851664123496,0.7290061170591567,0.6306036307049487,0.5358048735679753,0.45124267199699447,0.38171292397195095,0.3305225881908439
surface azimuth -140,1.0,0.9648962089531748,0.9083692271090898,0.833804573172786,0.7463754718027685,0.6531530921607198,0.5614311920310947,0.4782696056746843,0.40899015160284036,0.35467057613286246
surface azimuth -130,1.0,0.9695511077652502,0.9178570960702526,0.8485566511994366,0.7667887542086245,0.678243196428827,0.589862276834158,0.5085870861385786,0.43847115998016895,0.3804670693131393
surface azimuth -120,1.0,0.9748894632374279,0.9286828645493181,0.8651752824954987,0.7888273867240397,0.7045827162556507,0.6196676211476059,0.5396634432693524,0.468075806604122,0.4064017214173739
surface azimuth -110,1.0,0.9807458489657461,0.9405623244527661,0.8830327466006742,0.8116277946544521,0.7315099149237371,0.6493112397216492,0.5698668439608382,0.4965317082197837,0.4310941168250534
surface azimuth -100,1.0,0.9869533786472021,0.9529694868319073,0.9012848285679094,0.8345465782323795,0.7579751756893433,0.6777598915117288,0.5981780196225631,0.5227363571377026,0.45331148490582535
surface azimuth -90,1.0,0.993303230926471,0.9655008653716404,0.9194685107409515,0.8569802371296036,0.7833509165617171,0.7043084172130833,0.623680561617376,0.5458431388941966,0.4728093670582672
surface azimuth -80,1.0,0.9995969459992283,0.9778188756818144,0.9370627126136301,0.8784753226824848,0.8069712430856668,0.7284150202037051,0.6464606393718655,0.5654193979750646,0.4884395211867336
surface azimuth -70,1.0,1.005642246763551,0.9895703481163202,0.9536986661331937,0.8987302464869927,0.8288483216391273,0.7498406665812793,0.6658564263812146,0.5810053284565294,0.4996925567449931
surface azimuth -60,1.0,1.0112563265060277,1.0003946900733554,0.9688655519284824,0.9171107600661058,0.8485984540259323,0.7684100227424536,0.6816106496179993,0.5928067763454,0.5068889917822741
surface azimuth -50,1.0,1.016271568763599,1.010019286959221,0.9823662256452277,0.9333751386672356,0.8657823586409403,0.7844813771342737,0.6944575089974167,0.601135182195835,0.5101121276319708
surface azimuth -40,1.0,1.0205362980249963,1.0181246379757587,0.9936418603202011,0.9473320612764561,0.8806729497441169,0.797935929775981,0.704593009134469,0.6063801572315186,0.5099591514979659
surface azimuth -30,1.0,1.0239333949047842,1.024493059144825,1.0023766492883692,0.9582051651903973,0.892657304483628,0.8089114247566845,0.7122229572194675,0.6089785035513409,0.5071266393532893
surface azimuth -20,1.0,1.0263863281814982,1.0291538624983936,1.0085341754934363,0.9655055037070741,0.9009933939414421,0.816861342781112,0.7173311210065896,0.6091180174316597,0.5018744032127661
surface azimuth -10,1.0,1.0278002385344742,1.0317831313906434,1.0119533780365793,0.9691719770524176,0.9048993695635216,0.8208666077652459,0.7197617976625328,0.60722503802613,0.4963465429997984
surface azimuth 0,1.0,1.0281209657844395,1.03233151967107,1.0126065249802854,0.9696452758984239,0.9049008751221893,0.8206781438637701,0.719714314889402,0.6062780274999273,0.49583712110949024
surface azimuth 10,1.0,1.027339074729287,1.0308116991024119,1.010454068229508,0.9670005292242803,0.9020095365999781,0.8178104305681504,0.7177799232303742,0.6071533405353975,0.4973967105308886
surface azimuth 20,1.0,1.0254799192452373,1.0272224669215888,1.005474099621366,0.9612001513090043,0.8960248996207404,0.8126901682396362,0.7149531974849535,0.6086284507485621,0.5027874502854007
surface azimuth 30,1.0,1.0225999750883692,1.0217215763265386,0.9978876706990097,0.9522278237426105,0.8868229371685986,0.8046285473407372,0.709904014178651,0.6083315891959515,0.5077296235044575
surface azimuth 40,1.0,1.018787318034702,1.014400604585882,0.9877332013793337,0.9403574572806714,0.8746222295980307,0.7937575197204376,0.702174587787119,0.6053450250749859,0.5098850129112972
surface azimuth 50,1.0,1.0141581474725325,1.0055233132598411,0.9755711220191458,0.9261069638511139,0.8597191235668145,0.7801173007151438,0.6916692868697224,0.5993818243742403,0.5089727954371771
surface azimuth 60,1.0,1.0088604270076587,0.9954197005262089,0.9615281760351535,0.9093441474909231,0.8421444941644637,0.7637587478925217,0.6780881204719739,0.5900901081038994,0.5042941554257712
surface azimuth 70,1.0,1.003043863121334,0.9842206776975932,0.9458631343301757,0.8906900209602732,0.8223896945314473,0.7444111628064907,0.6611496483650952,0.5768704565869835,0.4953988466464265
surface azimuth 80,1.0,0.996884503543932,0.9722801020228474,0.9289771609769613,0.8704080504627691,0.8002031685142262,0.7222405541169109,0.6409845381124499,0.5596255026082836,0.4820746438643153
surface azimuth 90,1.0,0.9905674218735767,0.9599253613798516,0.9113398106654568,0.8486000518135273,0.7757500914892561,0.6973079957669809,0.6171820403352128,0.5385411319241187,0.4651570011237809
surface azimuth 100,1.0,0.9842829156679855,0.9474975141748918,0.893306751443516,0.8258504789447269,0.7498067149892625,0.6698532236973594,0.5901324105172341,0.5139704801471549,0.4446041436259067
surface azimuth 110,1.0,0.9782225921973818,0.9353959762945158,0.8754155780658288,0.8027558439435059,0.722753655378125,0.6404979689900063,0.5607392805268465,0.486753690228781,0.42100608332323974
surface azimuth 120,1.0,0.9725731431180452,0.9240355838027419,0.8582414340666158,0.7800922521181791,0.6953323673038881,0.6101109846557039,0.5296381455296888,0.4575850939904365,0.39574227117723754
surface azimuth 130,1.0,0.9675082296625603,0.9137734484209054,0.842464090505893,0.7586854316283318,0.6686954273132798,0.5797483478992721,0.49811267731893233,0.4277140826227183,0.3698822967062807
surface azimuth 140,1.0,0.9631838292344582,0.9049896424516558,0.8287742272366975,0.7395211417990265,0.6441925061994822,0.5510133491496562,0.4677107354289158,0.3986672832066545,0.34490702270458085
surface azimuth 150,1.0,0.9597323483543617,0.8979793320063276,0.8177183914223755,0.7236629485939645,0.6231909057914091,0.5263236622481511,0.4412961027312738,0.37263197142575544,0.3222672381051895
surface azimuth 160,1.0,0.9572603207140633,0.8929382783124599,0.809662160626897,0.7117229697336407,0.6069200065868225,0.5091135302204757,0.42378873378288845,0.35260485823446563,0.30282458887350416
surface azimuth 170,1.0,0.9558436122783114,0.890031333953829,0.8049213251262006,0.7042308590733306,0.597054408155806,0.5010359669680108,0.4152183820319918,0.34277678448963556,0.28915434345400703
surface azimuth 180,1.0,0.9555227818759956,0.8893690715914527,0.8037580367637878,0.7021878753168196,0.5952425007424248,0.4999021046137751,0.4137542321053798,0.34093201202549756,0.28679796649605643
