,Tilt-0,Tilt-10,Tilt-20,Tilt-30,Tilt-40,Tilt-50,Tilt-60,Tilt-70,Tilt-80,Tilt-90
surface azimuth -180,1.0,0.9538686671786129,0.8860399810462211,0.7988965961238387,0.6961632240778811,0.589334414008365,0.49406207030480115,0.40788152106574393,0.33550558145507275,0.28210796395440035
surface azimuth -170,1.0,0.9546332166960378,0.8876092092153959,0.801439998646997,0.7001814655771756,0.5939424729949861,0.4991776101890262,0.4142486151004851,0.3425416419300875,0.28945772327865354
surface azimuth -160,1.0,0.9565321056315254,0.8915030354522037,0.8077281620427808,0.7099540327840437,0.6066013013330983,0.5107880541974016,0.42658856097967596,0.3559664436780395,0.3058898644043231
surface azimuth -150,1.0,0.959506973865342,0.8975920901015272,0.8174266170231795,0.7241061942766085,0.6253300260133011,0.5303076950187943,0.44621853819348206,0.3774091232192335,0.327121184299855
surface azimuth -140,1.0,0.963474023915942,0.9056638912410072,0.8301143911192579,0.7418695033219621,0.6478756859802798,0.5558837377451686,0.4730743041306974,0.4045932788274549,0.3511418717946548
surface azimuth -130,1.0,0.9683053734990839,0.9155064280776896,0.8452059024526595,0.7623559729027621,0.6730276650171333,0.5844211868735473,0.5035426214012383,0.43414317313949047,0.3769465219346342
surface azimuth -120,1.0,0.9738582020017288,0.9267068330220498,0.8620690997323482,0.7845370833610552,0.6995897000954598,0.6144062417789853,0.5348723384780185,0.46407997492326336,0.4030824622398066
surface azimuth -110,1.0,0.9799746467993342,0.9389231756167068,0.880133962508686,0.807585933679102,0.7267770966567557,0.6443457790607842,0.5653410788559395,0.49284010846206694,0.4281130810687083
surface azimuth -100,1.0,0.9864574297981643,0.951699452549442,0.8986885460904499,0.8309312674052175,0.7536298911270853,0.6731491150788853,0.5939909717513902,0.5193366855146286,0.4507378632427743
surface azimuth -90,1.0,0.9930885810535517,0.9646535929107214,0.9173291487886654,0.8538484001698756,0.7795708760352478,0.700139043215057,0.6198954069116857,0.5428329339194543,0.4705884864586604
surface azimuth -80,1.0,0.9996739233508983,0.9774322940625406,0.9354795310646414,0.8759227125639665,0.8038866922531824,0.724920952235014,0.6430521458336278,0.562692705809515,0.48650032883903666
surface azimuth -70,1.0,1.0060101521027367,0.9897170666039242,0.9528027695966865,0.896943478847873,0.8264038977455603,0.7470590324840918,0.6630074974221914,0.5785588238382602,0.49806373970150297
surface azimuth -60,1.0,1.0119059024747443,1.001099636240982,0.9687367069317556,0.916174582524576,0.8469783073269503,0.7663828971195494,0.6795206493865342,0.5908913385390607,0.5055273426952472
surface azimuth -50,1.0,1.017186404144398,1.011351676064256,0.9831793974552739,0.9334890280901784,0.8652560892286429,0.7834880856262205,0.6932171413831326,0.5998146469463738,0.5091080623117571
surface azimuth -40,1.0,1.0216909389709279,1.0200931019708066,0.995459902897417,0.9486240476621467,0.8813954604770313,0.798147978338996,0.7044232963512925,0.6059849859008453,0.5095053466657876
surface azimuth -30,1.0,1.0252806862409347,1.0270477940001845,1.0052920051555676,0.9608420613268984,0.894885304785483,0.8106071458155537,0.7134320051368462,0.609838138149386,0.5076451275186762
surface azimuth -20,1.0,1.0278828887831637,1.0320605481490235,1.0123207388077249,0.9695464169265626,0.904832232854353,0.8202813326774064,0.7202125941649128,0.6114710377356234,0.5037210505894102
surface azimuth -10,1.0,1.0294085418581158,1.0349193056266583,1.0163653104923056,0.974355850349746,0.9103697393812867,0.8261333718690939,0.7245522562655395,0.6113763569225433,0.4997196612332671
surface azimuth 0,1.0,1.0297995795441588,1.0355713084847746,1.017265174818195,0.9754141346784501,0.9114083109012742,0.8274724693508345,0.7263303766032385,0.6121931901329801,0.5007444105879705
surface azimuth 10,1.0,1.0290375138128898,1.0340789629653286,1.0150805543758294,0.9727956608417534,0.908691028997076,0.8250209180468053,0.7251282556535719,0.614213099904883,0.5037044993586222
surface azimuth 20,1.0,1.027147848383989,1.0304119548988937,1.0100089674304347,0.966797607298482,0.9024462058312226,0.8195739562493336,0.7220241347552934,0.6155025589947275,0.5092371900536002
surface azimuth 30,1.0,1.0241876020982013,1.0247469092144534,1.0021293498524442,0.9574688356156272,0.892782646720247,0.8109694755166079,0.7163637201741853,0.6145841721165411,0.513390453927299
surface azimuth 40,1.0,1.0202469609141722,1.0171847113446717,0.9916187623280838,0.945101823796888,0.8799319079255415,0.7994087166729043,0.7078490535705367,0.6107631484897056,0.5146733878994342
surface azimuth 50,1.0,1.0154449357906459,1.0079343331756259,0.9789187461548279,0.9301738431941914,0.8643393623621701,0.7850035208532762,0.6965346066306204,0.6039243255414354,0.5127714621508451
surface azimuth 60,1.0,1.0099354028050909,0.9974248449066202,0.9642870076816709,0.9127704095638677,0.8459325898962036,0.767793762512762,0.6820230862661242,0.5935833335092058,0.5070738544897156
surface azimuth 70,1.0,1.003879297660181,0.9857865365748815,0.9480479660293544,0.8933556614083203,0.825419653664603,0.7476341930434471,0.6639672281134562,0.5792206206831211,0.49711119952098554
surface azimuth 80,1.0,0.9974519299363835,0.9733458327414792,0.9304917069977462,0.8722537747060575,0.8023510612756692,0.7243295845817012,0.6426190101122053,0.5609321792269869,0.48264623498297987
surface azimuth 90,1.0,0.9908522687304054,0.9604791479052648,0.9121557445010348,0.8496263054218249,0.7769872680051574,0.6981368214604531,0.6176380551631809,0.5386080143442995,0.4644375917578833
surface azimuth 100,1.0,0.9842773777957307,0.9475213557565494,0.8933963888730929,0.826063489628282,0.7500050734652423,0.669661659112224,0.5894580802703925,0.5126611711335213,0.4424770595202571
surface azimuth 110,1.0,0.9779260546082565,0.9348840605642244,0.8747832733710489,0.8021001065603063,0.7219232396579335,0.6392275924711347,0.5588263513048756,0.4841672995921939,0.417505720526123
surface azimuth 120,1.0,0.971993421410576,0.9229813296182144,0.8569035670416191,0.7785600385852902,0.6935430164462543,0.6077854962582229,0.5265603718854575,0.4536502974246231,0.3908822883115861
surface azimuth 130,1.0,0.9666616367871246,0.9121940498759851,0.840403027107928,0.7563023104098818,0.6659952593280158,0.5764457340811566,0.49389334342899266,0.4224417608223201,0.36385940468406547
surface azimuth 140,1.0,0.962095393397988,0.9029261284027136,0.8259992247051646,0.736328450340866,0.6405879817206724,0.5467548344322346,0.46241505205157885,0.3923193118143092,0.3380663927567159
surface azimuth 150,1.0,0.9584346946645754,0.8954676676655509,0.8142492572184878,0.719638967195878,0.6188029074787161,0.5212335740435314,0.43512163342991117,0.36558106366214205,0.3152249631904551
surface azimuth 160,1.0,0.9557952657346798,0.8900496843553037,0.8055658250457184,0.7068624734501455,0.6017427524487942,0.5034396567821972,0.41726955187207565,0.3456401985673707,0.29616626516585115
surface azimuth 170,1.0,0.9542595854592288,0.8868619987925921,0.8003270009145864,0.6986422880040706,0.591397620589558,0.4951145865710799,0.40867509053141843,0.33641440120911037,0.2833367018416761
surface azimuth 180,1.0,0.9538686671786129,0.8860399810462211,0.7988965961238387,0.6961632240778809,0.589334414008365,0.49406207030480115,0.40788152106574393,0.33550558145507264,0.28210796395440035
