,Tilt-0,Tilt-10,Tilt-20,Tilt-30,Tilt-40,Tilt-50,Tilt-60,Tilt-70,Tilt-80,Tilt-90
surface azimuth -180,1.0,0.9553998158098884,0.8900402986071588,0.8062754879904749,0.7078663456336789,0.6064804882252898,0.5165944538462379,0.43438701185280465,0.3636712097641232,0.3093721214592936
surface azimuth -170,1.0,0.9544842087093515,0.8883282966350632,0.8040772838690042,0.7058412954764246,0.6040232072701701,0.5138966779898022,0.4328560328168595,0.36341163117536135,0.3108348669083632
surface azimuth -160,1.0,0.9547008357914036,0.8889457637029959,0.8057007296739321,0.7097434210730377,0.6095537430659271,0.5179218651197378,0.4377431862066458,0.37040711306300755,0.3226282156481564
surface azimuth -150,1.0,0.9560435333208352,0.8918805839955886,0.8108926672710612,0.7182626390371306,0.6217851332274751,0.5305132303996464,0.4509876252100203,0.38670177249520954,0.3391841960247494
surface azimuth -140,1.0,0.9584830324400041,0.8969756506633226,0.8193096189200594,0.7308157155471066,0.6386526493482773,0.550558895266941,0.47270676972567155,0.40860380496405774,0.3583783666861254
surface azimuth -130,1.0,0.9619322691681873,0.9040860348790705,0.83058999228286,0.7468219535463829,0.6593189091133467,0.5747377829257226,0.49833640681265506,0.43311233484890865,0.37965826277510994
surface azimuth -120,1.0,0.9662841939087118,0.9129269280336593,0.8442327595380967,0.7654226884288743,0.6823892951702788,0.6009582006693236,0.5253377895594565,0.4585614367951538,0.40163647436673955
surface azimuth -110,1.0,0.9714046418407793,0.9232118812323065,0.8596794206748074,0.7857175349515455,0.7068507083810947,0.6277283765845248,0.5522427954479301,0.48360323476293526,0.4231193347823627
surface azimuth -100,1.0,0.9771330550300539,0.9345631295916796,0.8763097925696578,0.8070885681919089,0.7315580000329338,0.6540554701098111,0.5782630132137422,0.5073398143832327,0.44309959273984
surface azimuth -90,1.0,0.9832914764936109,0.9466150210955455,0.8937246735135543,0.8286480150288832,0.7559918688919917,0.6793935872813729,0.6024898915130735,0.5291941397321621,0.46131027505213384
surface azimuth -80,1.0,0.9897025104006588,0.9590244727120483,0.9113126312668912,0.850039223180948,0.7794976511325996,0.703375984048076,0.624934449055381,0.5485020287167766,0.4767548423267394
surface azimuth -70,1.0,0.9961710452269741,0.9714918892875669,0.9287491803726224,0.8710539747210533,0.8019285512803411,0.7255248240527452,0.64513628958449,0.564916391735499,0.48902826249848697
surface azimuth -60,1.0,1.0025021231054685,0.9836317296814977,0.9454780339673604,0.8909470020813298,0.8231696163847967,0.7457219263031194,0.6628516886050788,0.5787726295890915,0.4982889178278903
surface azimuth -50,1.0,1.0085053282244023,0.9952065548361566,0.9615497681838676,0.9096829839156702,0.8428299082933978,0.7644283085261913,0.6785519859006716,0.5901862000931876,0.5047078744293552
surface azimuth -40,1.0,1.0139989145085635,1.0057995509095454,0.9763037791398592,0.9272601735841437,0.8611940871420407,0.7815227665836417,0.6925810907865066,0.5995886742771294,0.50881474345554
surface azimuth -30,1.0,1.0188164372846547,1.0150888790968575,0.9893366880942492,0.9428646783804843,0.8778040926774855,0.7972292666057742,0.7052259111249376,0.6074552713609439,0.5113246803460307
surface azimuth -20,1.0,1.0228145430125306,1.0228757708365286,1.0003662815773087,0.9562090326110569,0.8921996898577824,0.8109957242175929,0.7163811807570868,0.6138840346700093,0.5125017458880566
surface azimuth -10,1.0,1.025871945171436,1.028839956213487,1.0088679933985552,0.9666977336662599,0.9037812790088299,0.8223768865136829,0.7257958734505021,0.6191192348242213,0.5133886447281124
surface azimuth 0,1.0,1.027891499800689,1.032786095748015,1.0145822464277503,0.9738902244375139,0.9120497114896471,0.8311499139017013,0.7340854344739114,0.6253682571635798,0.5181069507324755
surface azimuth 10,1.0,1.0288101591485834,1.0346085296846197,1.0173133584422425,0.9775562454219869,0.9167042500691259,0.836843043486846,0.7410290727196372,0.6336516075470358,0.524858575661967
surface azimuth 20,1.0,1.0286015869981882,1.0342393493578208,1.0169972227995707,0.977589370591366,0.9174695326097883,0.8389669274998882,0.7454170589926985,0.6415505814437349,0.5354378017929264
surface azimuth 30,1.0,1.027271789766066,1.0317542411978895,1.0136742694015342,0.9739548704151803,0.9142879726174181,0.8371712687082792,0.7462283532929654,0.6462570761940346,0.5443135479725232
surface azimuth 40,1.0,1.0248614332194932,1.0271587117398915,1.0074056284431523,0.9668525582440679,0.9073269375026081,0.8316399675938486,0.7433585165137662,0.6472635547366957,0.5495947328784304
surface azimuth 50,1.0,1.0214423983508556,1.0205780183280275,0.9985341655096955,0.9565952999831236,0.8969418545001242,0.822428819131903,0.7368208181248047,0.6445218394476119,0.5511516306853431
surface azimuth 60,1.0,1.0171251502654686,1.012377695855762,0.9871974399887907,0.943231316847159,0.8829722918170392,0.8096168630259212,0.7263685015983912,0.6375499703476444,0.5481961047907797
surface azimuth 70,1.0,1.0120353166377882,1.0026327687006278,0.9736508887528122,0.9271336780170749,0.8660077246574096,0.7930414542569031,0.7115061185758524,0.6257782921757907,0.5402920875125268
surface azimuth 80,1.0,1.0063227780463917,0.9916140078723223,0.9581318064812657,0.908543949942839,0.8457260827242485,0.7724697343018455,0.6924210811546979,0.6092709979035454,0.5273252329766959
surface azimuth 90,1.0,1.000164202091962,0.9796356207507312,0.9411189284397653,0.8876168314462242,0.8222951846172301,0.748125792306389,0.6688865463544471,0.5880665861865318,0.5100296493373151
surface azimuth 100,1.0,0.9937448854283135,0.9670197238910377,0.9229337687343471,0.8648782483902905,0.7963137258037594,0.7205131731940887,0.6413794481405232,0.5626564574882905,0.4884876371257836
surface azimuth 110,1.0,0.9872569745167655,0.954155812929394,0.9041060456855672,0.840823249477368,0.76828974580221,0.6901289905296626,0.6107671059413493,0.5340544385076625,0.46341798277850577
surface azimuth 120,1.0,0.9808984197383261,0.9414541090535552,0.8851984307721411,0.8162117218974944,0.7389347561556068,0.6578713013390364,0.5778238044732702,0.5029674562057038,0.4361137189787487
surface azimuth 130,1.0,0.9748627214805098,0.9293058053161902,0.8668547470691517,0.7918425136213567,0.7093507638994583,0.6248132086642152,0.5438401904276163,0.4706501655232981,0.40785691840591537
surface azimuth 140,1.0,0.9693381880452704,0.9181607879683683,0.8498081325013404,0.768767397739395,0.6807447488889051,0.5924210473822384,0.5102783991182138,0.4388219609599392,0.38023079754762595
surface azimuth 150,1.0,0.9644941259108758,0.9083825917197842,0.8347096488967711,0.7479677183839879,0.6545207726891248,0.5628697791790801,0.4799268086033638,0.4096973984548838,0.3549147026834382
surface azimuth 160,1.0,0.9604806037275375,0.900251925215674,0.8220536393368016,0.7302107828954018,0.6319501229182694,0.5397549991445618,0.4572509258233817,0.38625374161060894,0.3330181744947958
surface azimuth 170,1.0,0.9574190601203395,0.8940534809338732,0.8123772182843738,0.7163607201776431,0.6154616778495715,0.5250571405916022,0.44250212736674877,0.3712129183163247,0.3162849970978982
surface azimuth 180,1.0,0.9553998158098884,0.8900402986071588,0.8062754879904749,0.7078663456336789,0.6064804882252898,0.5165944538462379,0.43438701185280465,0.3636712097641232,0.3093721214592936
