,Tilt-0,Tilt-10,Tilt-20,Tilt-30,Tilt-40,Tilt-50,Tilt-60,Tilt-70,Tilt-80,Tilt-90
surface azimuth -180,1.0,0.9552028091261788,0.8886705395036092,0.802643026389014,0.7006278969757039,0.5932126539892815,0.4971452375905141,0.41032245568031755,0.3371613070065501,0.2829620604404566
surface azimuth -170,1.0,0.9561200586314064,0.8905296357129502,0.8055596044807912,0.7051373344256157,0.5987390603042775,0.5030006469850914,0.41706714803420375,0.34448118207997774,0.2905019199772949
surface azimuth -160,1.0,0.9581271612529527,0.8945845888586644,0.8119971475748363,0.7149725713964471,0.6117606683775468,0.5154192083289882,0.4302513746499305,0.35848358548262915,0.30740333638380846
surface azimuth -150,1.0,0.9611612029669226,0.9007422157084827,0.8217176776518685,0.7290841566584996,0.6305375863529918,0.5353705215048696,0.4502732715839993,0.38027295190518223,0.32886325643458725
surface azimuth -140,1.0,0.9651316909565419,0.9088083464717646,0.8343356134276837,0.7467310335151925,0.6527809106434092,0.5604298622742157,0.477007578896749,0.4073820394601399,0.35285896774559533
surface azimuth -130,1.0,0.969928397886688,0.9185513624038694,0.8492656725197838,0.7667803606000152,0.6773127473091315,0.5885156466175572,0.5070437560766284,0.43662781920276317,0.37842160266768565
surface azimuth -120,1.0,0.9754019659350395,0.9295960215599804,0.8658171139933042,0.7883610131042886,0.703282203574102,0.6179996671460064,0.5378084227809701,0.46602871761245573,0.4041327916084469
surface azimuth -110,1.0,0.9813797274670243,0.9415897015163975,0.8833588279442518,0.8107957941514458,0.7299275895403478,0.647339600689864,0.5676984371395525,0.4941845303402158,0.4286002969113639
surface azimuth -100,1.0,0.9876871853292455,0.9540732387221408,0.9013628099577767,0.8334791494293893,0.7561533582140925,0.6754686394226939,0.5956905228130724,0.520104010222293,0.45055033152200336
surface azimuth -90,1.0,0.9941063011411032,0.9666742676864506,0.9194158841411294,0.8557579876249872,0.7813998459232118,0.7017717082869385,0.6209074963536166,0.5429688725064241,0.46983506618750426
surface azimuth -80,1.0,1.0004476374067452,0.9790360422813754,0.9369807274834174,0.8771763579493655,0.8049269433031412,0.7257400092004742,0.6434157989783813,0.5622410346861892,0.4851991312796199
surface azimuth -70,1.0,1.0065148615249362,0.9908196572280529,0.9537057223101285,0.8974924931161089,0.8267215815230504,0.7470651464340252,0.6626193914724601,0.577538729149279,0.4962217471660771
surface azimuth -60,1.0,1.0121239066269336,1.0016660476430308,0.9690386946032444,0.9160294432313281,0.8465488252895416,0.7655821129691551,0.6782857542985993,0.5891869849480039,0.5031992204010377
surface azimuth -50,1.0,1.0171087063075346,1.011327903871639,0.9827945536858549,0.9325902847892839,0.8640166504194138,0.7818636354925101,0.6911419704908816,0.5973665199165519,0.5062364171222364
surface azimuth -40,1.0,1.0213175951240192,1.0194529107129022,0.9944055667321082,0.9468936961910911,0.8792475028688344,0.7956892605440675,0.7015629091979864,0.6027428371385811,0.5059758828566997
surface azimuth -30,1.0,1.0246233744670001,1.025789994407824,1.0035453389910038,0.95826572803979,0.8916779666616066,0.8070799540093659,0.7096302634143214,0.6057555601469599,0.5034360268637166
surface azimuth -20,1.0,1.0269695612968834,1.0302856046286948,1.0098377462293358,0.9662000534986147,0.9006379993182577,0.8155744139019581,0.7152481526333215,0.6063387667651902,0.4986371759510903
surface azimuth -10,1.0,1.0282735811501154,1.0326755569557107,1.0131162296659544,0.970258203744978,0.9053272641989154,0.820300504721627,0.7183191146268293,0.6050145681430069,0.493669300974541
surface azimuth 0,1.0,1.0284712662733895,1.0329532733705982,1.013426750052995,0.9705081853906629,0.9055900579909719,0.8208126452060667,0.719007684725355,0.6047299638536237,0.4939314233814206
surface azimuth 10,1.0,1.0275561430133509,1.031169282246733,1.0108402392606255,0.9673248833437489,0.9022011200891007,0.8177559356022482,0.7173240015294104,0.6061336205119263,0.49619977527587156
surface azimuth 20,1.0,1.0255575543919533,1.0272867257038536,1.0054269452738587,0.9609497403787257,0.8955394144437828,0.8118728048508682,0.7137980764393385,0.6072704443663401,0.5015796587948875
surface azimuth 30,1.0,1.022536232435185,1.0214905404907715,0.9973754162672805,0.9513996472503463,0.8856177908490778,0.8029619982450971,0.7079047208997119,0.6061507270788014,0.5056180966596684
surface azimuth 40,1.0,1.0185841231731796,1.0138841541563597,0.9868019328602846,0.9389384797730428,0.8726538787876897,0.7912615367314444,0.6992862513066976,0.6022629274806516,0.5068217194067042
surface azimuth 50,1.0,1.013821594346751,1.004706265784401,0.974192399669124,0.924080556636444,0.857039175175952,0.7768098138376046,0.6879161874252758,0.5953948779757594,0.504914185464511
surface azimuth 60,1.0,1.0084005751254328,0.9943431605879884,0.9597321000521536,0.9068008940100623,0.8387563812714136,0.7596876967463527,0.6734985674555823,0.5851644462173811,0.4993117924210426
surface azimuth 70,1.0,1.0024770320471321,0.9829314086422936,0.9437235113967154,0.8876605994890402,0.8184304765674356,0.7397276605756996,0.6557242195969715,0.5711105430829866,0.48957374996293745
surface azimuth 80,1.0,0.9962263226941468,0.9707994595114171,0.9265294961911987,0.8669547818645154,0.7957401421053625,0.7168643197780304,0.6348580102283214,0.5532014507194402,0.4754655892956386
surface azimuth 90,1.0,0.9898404524909465,0.9583087476020583,0.9086809302733813,0.8448482729125913,0.770910058724416,0.6913412257842176,0.6104884456560665,0.5314767135897407,0.45793509118347814
surface azimuth 100,1.0,0.983510252405088,0.9457993581104686,0.8905143950992348,0.8219285050728452,0.7446498540188301,0.6635943732342056,0.583030395208427,0.5063487389023024,0.43684549821675184
surface azimuth 110,1.0,0.9774285822154173,0.9336764947321269,0.8725903056494664,0.7987584873257494,0.7174738447387661,0.6340418749703846,0.5533208695800794,0.47886002662970184,0.4128836567168636
surface azimuth 120,1.0,0.9717813140124458,0.9223390732027839,0.8554982374831828,0.7761308787568075,0.6901149703539456,0.6036110954646298,0.5221492968025127,0.4495168314565204,0.3874088582726694
surface azimuth 130,1.0,0.9667419304174367,0.9121524855477556,0.8398820992120852,0.7549251380445974,0.6637038275963728,0.573437690312729,0.4907241583809292,0.4196263153783685,0.3615120148752334
surface azimuth 140,1.0,0.9624666145038367,0.903489065553972,0.826417914316034,0.7361185072779818,0.6395294666387649,0.5450971804042569,0.46062609306082,0.39074855137217024,0.33671481821925575
surface azimuth 150,1.0,0.9590859523437969,0.8966336867220654,0.8156169398281813,0.7206994999920888,0.6191143460404538,0.5209458126643068,0.4346886472836632,0.3651158112704279,0.3147812116346094
surface azimuth 160,1.0,0.9567066639112545,0.8917788165274806,0.8078420093089645,0.7092061265149315,0.6035060877187867,0.5045135674846116,0.4179757819465354,0.3460796767002437,0.2963207912271135
surface azimuth 170,1.0,0.9554004181872914,0.8890908546493037,0.8034321186442522,0.7021880516053196,0.5943020420113037,0.4972832308390162,0.41048216055504294,0.33762828352887314,0.2838386277285022
surface azimuth 180,1.0,0.9552028091261788,0.8886705395036092,0.802643026389014,0.7006278969757039,0.5932126539892815,0.4971452375905141,0.41032245568031755,0.3371613070065501,0.2829620604404565
