,Tilt-0,Tilt-10,Tilt-20,Tilt-30,Tilt-40,Tilt-50,Tilt-60,Tilt-70,Tilt-80,Tilt-90
surface azimuth -180,1.0,0.9612374736644557,0.9018912754284332,0.8239230333906131,0.7303781247897769,0.6306191227867363,0.536642696038568,0.4497249152986713,0.37418899717279536,0.3160229406549865
surface azimuth -170,1.0,0.9610124582386027,0.901482691435716,0.8234927770962475,0.730418403734173,0.630926031598343,0.5374523667181701,0.45123119377491877,0.3770050406246509,0.3204567274870675
surface azimuth -160,1.0,0.9617066764627048,0.9029381808482576,0.8259724027488208,0.7348859322823077,0.6371805393445052,0.5435626894813889,0.4585821854476729,0.38624702337798117,0.3335946769083162
surface azimuth -150,1.0,0.9632984996352154,0.9062033530964885,0.8313391000355912,0.7431029338925483,0.6486454461494813,0.5560820846563382,0.47229133265635553,0.4026752140160406,0.3503710754741465
surface azimuth -140,1.0,0.9657456075554389,0.9112171880356175,0.8393255081783282,0.7546899767005535,0.6638850452086424,0.5738950189184517,0.4919564978946625,0.4232019979172262,0.36873833534475137
surface azimuth -130,1.0,0.9689725607867808,0.9178118836586463,0.8496736188944359,0.7689888799324799,0.6817037198396887,0.5947766497724221,0.5146865792673327,0.44540264835784016,0.3881433898185778
surface azimuth -120,1.0,0.9728805498687634,0.9257466459040334,0.861829243349406,0.7850911405830199,0.7012474504304268,0.6173032690126924,0.5383870038235332,0.46791674286199963,0.4075684688891668
surface azimuth -110,1.0,0.9773411447758846,0.9348296676065271,0.8753108429392908,0.8024022507306714,0.7219276591063394,0.6401737782869136,0.5616756472441662,0.48972889500866534,0.426117339228676
surface azimuth -100,1.0,0.982229060513939,0.944640063873196,0.8895819762063939,0.820475157941264,0.7427833108453683,0.6624933093124497,0.5838181658500695,0.5099812688133964,0.44291855317247686
surface azimuth -90,1.0,0.9873828172934418,0.9548471687630039,0.9043052940164364,0.8386926632679871,0.763428915521579,0.6838574799280773,0.603981129964414,0.5280845585038856,0.4579121209479482
surface azimuth -80,1.0,0.9926456790468566,0.9651598093443168,0.9190287103503935,0.8567115425514745,0.7832142859953045,0.7038667243176775,0.6225383103042568,0.5435721566600364,0.4700429131978563
surface azimuth -70,1.0,0.9978563752584525,0.9752995352063836,0.933437099322142,0.8742859152593342,0.8021443367834566,0.7223211518292338,0.6389558097147557,0.5562853973044681,0.4789337375043928
surface azimuth -60,1.0,1.002859586838291,0.9849566642592971,0.9470673058056924,0.8908077531746976,0.8199441396657376,0.7390789095677474,0.6531285959122917,0.5666458726981938,0.4849158409500414
surface azimuth -50,1.0,1.0075066750394381,0.9938803390942073,0.9597808991639922,0.9061076650380262,0.8361889874495766,0.7544538892827304,0.6656061291627298,0.5749276219795506,0.4882795224504677
surface azimuth -40,1.0,1.0116537254628344,1.001766236745396,0.9710384804708445,0.9199930747157353,0.8510333661562128,0.7681673313276831,0.6765263049081587,0.5814405531586486,0.489591974454474
surface azimuth -30,1.0,1.0151788957272556,1.0083904788237874,0.9805020011285097,0.9318094580455035,0.8639726829010745,0.7803756724894535,0.6858068774471727,0.586333047644883,0.4894574595202392
surface azimuth -20,1.0,1.0179925754870198,1.0138007767123116,0.9879232190503614,0.9410994496748402,0.8745061056784684,0.790609437717424,0.6935454371591045,0.5895780698717065,0.4877529297479946
surface azimuth -10,1.0,1.0200037338813759,1.0176730356963664,0.9931566521043429,0.9474603118197081,0.8819093512521362,0.7983273326417308,0.6997671513509526,0.5916483379017706,0.48574154029254263
surface azimuth 0,1.0,1.0211393081687705,1.0198576276763918,0.9962600524199116,0.9511216710149624,0.8859752568219839,0.8029249722403766,0.7046404405855606,0.5952268049093344,0.4885039015901706
surface azimuth 10,1.0,1.0213656293003142,1.0203205157234418,0.9969843926066511,0.9521555585041281,0.8873929673361926,0.8049010909763963,0.7078727988944612,0.6008590007397886,0.49423996985721097
surface azimuth 20,1.0,1.0206773208956903,1.019011636388653,0.9952579709468169,0.950376209025578,0.8859600052011272,0.8045179436404067,0.7095359125949086,0.6062739073362239,0.503399884832566
surface azimuth 30,1.0,1.0190939885973123,1.0160092746324052,0.991181234124996,0.9456995270011304,0.8814507897329961,0.8011413761288382,0.7087957888608643,0.6096159539706416,0.5110388036353053
surface azimuth 40,1.0,1.016664361041326,1.0113562212194864,0.9847647258795773,0.9382248244581656,0.8738854216176785,0.7948900175735937,0.7051704659664981,0.6098482537588819,0.5153867761244363
surface azimuth 50,1.0,1.013462464742396,1.0051920974492832,0.97629058495576,0.9282786383397647,0.8636439586413812,0.7856852283904064,0.6984610545483902,0.6068215313159864,0.5163167045513891
surface azimuth 60,1.0,1.0095901636161229,0.997774060306374,0.9659058110794365,0.9158435785143457,0.8505268931417407,0.7735128591286703,0.6884675294438554,0.6002367318240684,0.5133721762657749
surface azimuth 70,1.0,1.005158539343327,0.9891995618770644,0.9538196595079802,0.901320900422688,0.8350428423698574,0.7582950155302928,0.6749733630661167,0.5896460436779892,0.506336647139702
surface azimuth 80,1.0,1.000300925962889,0.9797450335079799,0.9403297442870748,0.8849590946597304,0.8170007831683945,0.7400072259976548,0.6581530513363263,0.5751308788230117,0.49511603853997255
surface azimuth 90,1.0,0.995162640015436,0.9696736558673426,0.9258391598919364,0.8669212251249611,0.7965982870278044,0.7188912984147147,0.6377436258333463,0.5568965108868865,0.4805017895922245
surface azimuth 100,1.0,0.9898998908323633,0.9592670688290834,0.910695836814213,0.8476927394219561,0.7744320451193675,0.6952478703073974,0.6141871664976863,0.5352800635213151,0.46233838946808065
surface azimuth 110,1.0,0.9846749210054269,0.9488673452182171,0.8953319693114106,0.8278144174366666,0.7509859416409491,0.6695715187715134,0.5882843115668281,0.5111055714473491,0.44116911945541726
surface azimuth 120,1.0,0.9796472962812767,0.9388141737239655,0.8802571052736866,0.8079553734961022,0.7269231585111597,0.6427277218603167,0.5605989543570077,0.4848467738190852,0.41823858739146536
surface azimuth 130,1.0,0.974968692355479,0.9294145876107474,0.8660357523064709,0.7888477985401252,0.7032302048249652,0.6156803770840893,0.5322828857255393,0.4576836542812437,0.39471558799135015
surface azimuth 140,1.0,0.9707841948253271,0.9210138429643617,0.8532297724733698,0.7713675898840424,0.681099334043416,0.5897703780084198,0.5046556429182705,0.43106974372522433,0.37198425189771994
surface azimuth 150,1.0,0.9672202079853088,0.9138707974253024,0.8422946491674308,0.7562551968850596,0.6617254779309134,0.5671007602194352,0.4802279144159699,0.4070033383502849,0.35137940000335643
surface azimuth 160,1.0,0.9643871133442097,0.9081874406451469,0.8335704224221638,0.7440303315339069,0.6459156959100918,0.5506053279466208,0.4630804479224657,0.388037510273746,0.3333999652385343
surface azimuth 170,1.0,0.9623734427284693,0.9041463939711334,0.8273407349262397,0.7351411626684454,0.6352161612809448,0.5409643926820984,0.45355156625693654,0.3775645222450214,0.31980360751075576
surface azimuth 180,1.0,0.9612374736644557,0.9018912754284332,0.8239230333906131,0.7303781247897769,0.6306191227867363,0.536642696038568,0.4497249152986713,0.37418899717279536,0.3160229406549865
