,Tilt-0,Tilt-10,Tilt-20,Tilt-30,Tilt-40,Tilt-50,Tilt-60,Tilt-70,Tilt-80,Tilt-90
surface azimuth -180,1.0,0.9542105819390939,0.8867151113102643,0.7998890889831581,0.697397747372223,0.5906141351963367,0.49548052846623836,0.40940854120294784,0.336940432688415,0.2832810496270525
surface azimuth -170,1.0,0.9550001660020947,0.8883296460140012,0.802463654121408,0.7014684718842183,0.5952633658045374,0.5005532400371214,0.41558697422225455,0.34361255250581557,0.2901107282340579
surface azimuth -160,1.0,0.9569113025560608,0.8922374080310781,0.8087691829016209,0.7112379912107224,0.6079783625236238,0.5120888422229849,0.4278076048666625,0.356819006247913,0.30636839635851004
surface azimuth -150,1.0,0.9598847674973373,0.8983220797136641,0.8184809940766148,0.7253887102948398,0.6267267046408144,0.5317588773155969,0.44754936947337687,0.3784299312187614,0.32780780218861394
surface azimuth -140,1.0,0.9638382687506983,0.9063813406685378,0.8311741404224148,0.743234825900015,0.6495638645242083,0.5575640372098213,0.4746193888328768,0.4058095611996787,0.3520627831226928
surface azimuth -130,1.0,0.9686458515855169,0.9162039158952758,0.8463294796706146,0.763940963759458,0.6748921368211351,0.5862751695679206,0.5052569987702111,0.43557007589336,0.3780496790501137
surface azimuth -120,1.0,0.974165752601918,0.9273848352868523,0.8633034958668399,0.7862495843742013,0.7015406312085324,0.6164277940146511,0.536745144553968,0.46568029873536654,0.40436867865009235
surface azimuth -110,1.0,0.9802412258079228,0.9396123903788549,0.8814484750014687,0.8093640153023813,0.7288161821279874,0.6464761161362887,0.5673323834295655,0.4946004590070388,0.4295539817508166
surface azimuth -100,1.0,0.9866764037960633,0.9523716129489407,0.9000179113251241,0.8327078597821908,0.7556911070470733,0.675330779246828,0.5960633802213522,0.5211927158466164,0.45230927717114233
surface azimuth -90,1.0,0.993252794221895,0.9652742668372201,0.9186107332842169,0.8555740848017741,0.7815889414591831,0.7023292703231739,0.6219824855901324,0.5447445949385494,0.47223714555565555
surface azimuth -80,1.0,0.9997778079977765,0.9779667229911652,0.9366580131372509,0.8775410335486661,0.8058008520740331,0.7270203701187802,0.6451295715964716,0.5646012419506053,0.48817459572121535
surface azimuth -70,1.0,1.0060506681989256,0.9901244026730184,0.9538191436251374,0.8983918982673569,0.8281791634214548,0.7490107994711639,0.6649852418534091,0.5804141813097958,0.4996971712457748
surface azimuth -60,1.0,1.0118827588865897,1.0013494398575213,0.9695405248243683,0.9173996224385972,0.8485416743910723,0.768127855871872,0.6813097069255533,0.5926162117590201,0.5070642017805822
surface azimuth -50,1.0,1.017099197061621,1.0114173554007908,0.98369968579845,0.9344018003857846,0.8665176188442426,0.7849691962232554,0.694742463845907,0.6013215227741842,0.5104880036946506
surface azimuth -40,1.0,1.0215403584068257,1.0199515718006562,0.9956550543000127,0.9491438948982277,0.8822186202756995,0.7992482455343205,0.7056425539023106,0.6071927630970846,0.5106403561982911
surface azimuth -30,1.0,1.0250712740503674,1.0266861196075936,1.005103915545718,0.9609192721316498,0.8951853420345995,0.8111701267982439,0.7141897708956061,0.6106573696206041,0.5084705383596999
surface azimuth -20,1.0,1.0276200406809397,1.0315529740209977,1.011789872021912,0.9691424520081177,0.9045750324684202,0.8201904352622899,0.7203425410675289,0.6117488916295762,0.5041108101098373
surface azimuth -10,1.0,1.0291005259815322,1.0343217258353596,1.0155460675036996,0.9734855779837385,0.9095414123739259,0.8253936299746272,0.7239502338681657,0.6109679511919558,0.49952318460470574
surface azimuth 0,1.0,1.0294556848384524,1.034901126407039,1.016298507963637,0.9742185475182997,0.9101074095499109,0.8261391816141928,0.7250242319610715,0.6110334617734688,0.49994257774362577
surface azimuth 10,1.0,1.02866847886436,1.0333592895585257,1.0140444992098914,0.9714758745624984,0.9071348904949603,0.8232989622364908,0.7233771785043406,0.612496596415637,0.502238608571309
surface azimuth 20,1.0,1.0267647919923513,1.0296668357676986,1.0089311330892046,0.965427852514968,0.9008255676037175,0.8177897067392518,0.720143718506246,0.6136352885067333,0.5075172306142787
surface azimuth 30,1.0,1.0238022356471055,1.023999281550102,1.0010521300538393,0.9560975227557895,0.8911885152302885,0.809232243699095,0.7145712154302561,0.6128314931817757,0.5118657848202598
surface azimuth 40,1.0,1.0198710093981864,1.016454602253159,0.9905671939999176,0.9437774261151131,0.8784497802849551,0.7978206017243648,0.7062640036584437,0.6092488569295279,0.5134374054657864
surface azimuth 50,1.0,1.015089339697425,1.0072441023614949,0.9779465550685873,0.9289862364923028,0.8630196202646786,0.7836420321282106,0.6951989940761842,0.6027153753389037,0.5118376548642594
surface azimuth 60,1.0,1.0096103562545526,0.996802029054088,0.963430086641267,0.9117456910795976,0.8448343805117502,0.7666900688761747,0.6809706906700711,0.5927084719281006,0.5065049279901597
surface azimuth 70,1.0,1.0035945018343986,0.9852525266322603,0.9473229126331514,0.8925374050805589,0.8245628585212437,0.7467994507434782,0.6632307699281069,0.5787348461368903,0.4969351463640435
surface azimuth 80,1.0,0.9972161837730833,0.9729151849255548,0.9299219594690494,0.8716541815042187,0.8017481389181922,0.7237927130808611,0.6422600697039527,0.5608334481105258,0.48288801446727025
surface azimuth 90,1.0,0.9906732188342221,0.9601627887376886,0.911761672211033,0.8492431597144948,0.7766455741110221,0.6979159072076533,0.6176563530575104,0.5389254692784752,0.46508433607552957
surface azimuth 100,1.0,0.9841607132226183,0.9473269956906778,0.8931816945687713,0.8258984291085197,0.7499267179335759,0.6697652980002163,0.5898530053223487,0.5133739478107815,0.4435075739613926
surface azimuth 110,1.0,0.9778754959077083,0.934814809363864,0.8747492415380719,0.8021496123139698,0.7220968904215445,0.6396563937446982,0.5595781544333505,0.48523721669203124,0.41887312205982413
surface azimuth 120,1.0,0.9720105928331353,0.9230384796944744,0.857043419603181,0.7788156875735814,0.6939627448906487,0.6085024386227406,0.5276161401766556,0.4550497267860724,0.39253892300407633
surface azimuth 130,1.0,0.9667459631735769,0.9123755037828333,0.8407134406951705,0.7567572901506067,0.6666380606899642,0.577417518655916,0.49522264630719953,0.4241036041926974,0.3657412879706262
surface azimuth 140,1.0,0.9622436892166168,0.9032284124184812,0.8264731585376438,0.7369613931177292,0.6414287473591337,0.5479287447329008,0.4639689645374696,0.39416464071725155,0.3400702592386504
surface azimuth 150,1.0,0.9586423834520641,0.8958860300060363,0.8148824190146724,0.7204530480476032,0.6198129650386354,0.5225440412585008,0.4368232060998715,0.36752396454207764,0.317259746247928
surface azimuth 160,1.0,0.9560561685521378,0.8905734192467296,0.8063404135373108,0.707850386606063,0.6029188785013216,0.5048519927460201,0.4190139771750289,0.34752842752809743,0.29806916600692085
surface azimuth 170,1.0,0.9545658158878034,0.887474021915443,0.8012279874600294,0.699788089025097,0.5926419396938625,0.4965637396427833,0.4103751077427217,0.3381396726000225,0.2849111596046093
surface azimuth 180,1.0,0.9542105819390939,0.8867151113102643,0.7998890889831581,0.697397747372223,0.5906141351963367,0.49548052846623836,0.40940854120294784,0.336940432688415,0.2832810496270525
