,Tilt-0,Tilt-10,Tilt-20,Tilt-30,Tilt-40,Tilt-50,Tilt-60,Tilt-70,Tilt-80,Tilt-90
surface azimuth -180,1.0,0.955377925907263,0.8890720917628002,0.803320017469107,0.7016309510496065,0.5945205103014558,0.4991043151366697,0.4129389913126576,0.3400711572940677,0.2858929671363559
surface azimuth -170,1.0,0.9562718059613017,0.8908792383639583,0.806219389355994,0.7060457091499261,0.5999151218044423,0.504435352506362,0.4189038283789071,0.3463754826600195,0.29253216079778344
surface azimuth -160,1.0,0.958247875945051,0.8948979515704558,0.8126051050997102,0.7157311496876175,0.612765604719098,0.5163602237275071,0.43135092159698435,0.3599056720386685,0.30899140062143277
surface azimuth -150,1.0,0.9612464537629234,0.9010026764668136,0.8221698856527276,0.7296186009791734,0.6312180071582166,0.5362671558523474,0.45153701138846236,0.38197829023010355,0.3306505056886147
surface azimuth -140,1.0,0.9651794923608739,0.9089866115597,0.8345999510547889,0.7471138398732334,0.6538327026769408,0.5618946865874362,0.4786426759002183,0.4093073770384263,0.35492289242973285
surface azimuth -130,1.0,0.9699269810805548,0.9186455639186333,0.8494200013175299,0.7675363868959065,0.6789095133211512,0.5903734694687169,0.5090268557234884,0.438840292234935,0.3807521339214471
surface azimuth -120,1.0,0.9753468864589824,0.9295747191855489,0.8660590165711216,0.7895434261947802,0.7052407537012549,0.6202607732385779,0.5401515753328823,0.46846896174219893,0.40670828306267504
surface azimuth -110,1.0,0.9812706536846655,0.9414814397874612,0.8838993468253438,0.8123351796480693,0.7321869618756943,0.6499562288703655,0.5703905086106592,0.4969597907642857,0.431405685883611
surface azimuth -100,1.0,0.9875307975184856,0.9539038880917472,0.9021330932842545,0.8352625119530998,0.7586710426281825,0.6784158443050169,0.5987452271376421,0.5231763850505685,0.45363802117833113
surface azimuth -90,1.0,0.9939144928912816,0.9664339268012083,0.920293439552089,0.8577012102966719,0.7840613702380226,0.7049686120459212,0.6242439196645887,0.5463075962377771,0.47314460049278295
surface azimuth -80,1.0,1.000222435969712,0.9787337082749462,0.9378617114719232,0.879196489384355,0.8077090952349875,0.7290664396973465,0.646994492103694,0.5658729837336895,0.4887819333460637
surface azimuth -70,1.0,1.0062640711760586,0.9904624045339149,0.9544677418995536,0.8994134044030597,0.8295968610617109,0.7505050590545391,0.6663689700881578,0.5814176076586458,0.5000073766887027
surface azimuth -60,1.0,1.0118556158478573,1.0012684113828865,0.9695982241711454,0.9177413916428768,0.8493057451690048,0.7690891139659557,0.6821356797018369,0.5931808787126597,0.5071503387145171
surface azimuth -50,1.0,1.016829356906056,1.0108938193057682,0.9830776787455676,0.9339346369953336,0.866378281091968,0.7851281924780084,0.6950147557372066,0.6014999154708254,0.5103370762329384
surface azimuth -40,1.0,1.0210347502274393,1.0189805756531898,0.9943657327988172,0.9478420295721712,0.8811298989738183,0.7984494077115949,0.7050809103489988,0.6067438284782158,0.5101773340737478
surface azimuth -30,1.0,1.024362357865049,1.025304824289992,1.0031301417521534,0.9587482087577813,0.892997020605211,0.809268932315384,0.7125689192920244,0.6092304590991955,0.5073004074991825
surface azimuth -20,1.0,1.0267326175388676,1.0298134737898959,1.00931493790263,0.9661024756291635,0.9013537640826585,0.8170542222924656,0.7175377444304493,0.6092662815788843,0.5019571192626063
surface azimuth -10,1.0,1.0280497949280998,1.032265408810718,1.0126138923995232,0.9698136568029716,0.905346491909644,0.8210638383255058,0.7197928695074085,0.6072321887994634,0.49637287492661514
surface azimuth 0,1.0,1.0282662095785946,1.0326112262785814,1.0130125777396786,0.9701238793102397,0.9053730927701517,0.8209587348584558,0.7197675235945857,0.6062001301919571,0.4957681463234696
surface azimuth 10,1.0,1.0273757402854524,1.0308800715067643,1.0105420103497986,0.9670893873862478,0.9020750196071974,0.8178672608939067,0.7178000212343421,0.6070532727447029,0.49727662631399216
surface azimuth 20,1.0,1.025407065192772,1.027077903134716,1.005239361430809,0.9608515010599804,0.895603977382177,0.8122280553996731,0.7144747869680177,0.608119144181882,0.502384095487725
surface azimuth 30,1.0,1.0224197859115862,1.0213631018600486,0.9973209725311507,0.9514722481563028,0.8859319921785929,0.8036608543601039,0.7088840513127899,0.6073101033430129,0.506815290732904
surface azimuth 40,1.0,1.0185056233972427,1.0138363463147448,0.9868580980153304,0.9392203200973517,0.8733094088873983,0.7923502203669373,0.7006964324201789,0.6038752045146165,0.5085070898021306
surface azimuth 50,1.0,1.0137834032339095,1.004770835589276,0.9744126860155985,0.9246360546159702,0.8580464267498104,0.7783466144602967,0.689801849478828,0.5975007094749235,0.5070891655021471
surface azimuth 60,1.0,1.008403527833762,0.9945001650294348,0.960121294530773,0.9075997359630813,0.8401865184130248,0.7616703623085049,0.6758687448854378,0.5877795208223445,0.5019594620767202
surface azimuth 70,1.0,1.0025186018397039,0.9831651487554679,0.9442650095651977,0.8887409111018711,0.8201891115387288,0.7420623836923936,0.6585985481440122,0.574168448268258,0.49267685345608186
surface azimuth 80,1.0,0.9963060293283967,0.9711164995852525,0.9272459166263878,0.8682863346754238,0.7978271087261369,0.7196549929216521,0.6381316317165328,0.5565989402938306,0.47906748388724474
surface azimuth 90,1.0,0.9899526775584083,0.9586952688221752,0.9095325888465208,0.846354318002329,0.7732523402509343,0.6945483539233879,0.6141029838187114,0.5353118682735648,0.46195969698165823
surface azimuth 100,1.0,0.983650701984618,0.9462430408882095,0.891467947948566,0.8235446424355063,0.7472216364728939,0.6669737691584922,0.5869399485941676,0.5106353199023402,0.4413225112482519
surface azimuth 110,1.0,0.9775928148754209,0.9341544759724563,0.8735934362144858,0.8004544820858855,0.7201391811297061,0.6375812376299577,0.5575461385724202,0.48342010719852446,0.4177154665290193
surface azimuth 120,1.0,0.9719652901094081,0.9228408635575495,0.8564967455050072,0.7778558634976936,0.692751423533122,0.607239939778868,0.5265452948675184,0.4543386148516578,0.3925263385414485
surface azimuth 130,1.0,0.9669411588616484,0.9126501767477628,0.8408497799048418,0.7565925710732264,0.6662225751026751,0.5770029905196827,0.49521486187399927,0.4246251532998145,0.3668637782892005
surface azimuth 140,1.0,0.9626752383808178,0.9039738131163462,0.8273302983698259,0.7376573758500864,0.6419261695430732,0.5484691928361906,0.46503111565498684,0.3958973866693708,0.34221410191636914
surface azimuth 150,1.0,0.9592982280048672,0.8971065951217231,0.8164699443830944,0.7220582500219813,0.6212460502627284,0.524066365745013,0.4389611543095943,0.37028439794676027,0.3199507189437686
surface azimuth 160,1.0,0.956913671612795,0.8922387356445748,0.8086451533955255,0.7104120789045433,0.6053133712361433,0.507291802858574,0.42187625016427777,0.35076044803103035,0.30091349979239645
surface azimuth 170,1.0,0.9555941571101405,0.8895280927289778,0.8041685975053242,0.7032714818077092,0.5958299274901039,0.4997260171886708,0.41382200003199954,0.3414191241566192,0.28774393318623187
surface azimuth 180,1.0,0.955377925907263,0.8890720917628002,0.803320017469107,0.7016309510496065,0.5945205103014558,0.4991043151366697,0.4129389913126576,0.3400711572940677,0.2858929671363559
