,Tilt-0,Tilt-10,Tilt-20,Tilt-30,Tilt-40,Tilt-50,Tilt-60,Tilt-70,Tilt-80,Tilt-90
surface azimuth -180,1.0,0.9541987091464571,0.886792487886276,0.8000671083627733,0.697747744471268,0.5917375979732421,0.495972195990828,0.40900860618345247,0.3359235388689187,0.2822888862721376
surface azimuth -170,1.0,0.9554947557725979,0.889374271913255,0.8040459837373402,0.7035201027619148,0.5981497585393734,0.5026629809219088,0.4163969060547934,0.3436638872004876,0.2906183237927216
surface azimuth -160,1.0,0.9578932180700978,0.8942018684900662,0.8116179269446134,0.7146973935000375,0.6117856505436778,0.5156835334653804,0.43009624769119026,0.35830534345270254,0.3081747271488255
surface azimuth -150,1.0,0.9613211034060064,0.9011315745839892,0.8224200868133927,0.730005616570077,0.6314281232319178,0.5360000656629886,0.45089433895108993,0.3811840677626927,0.3300936915939544
surface azimuth -140,1.0,0.9656827070193178,0.9099348504593754,0.8359826303830491,0.7486842880296645,0.6548163892162978,0.5622629108132311,0.47862632948614414,0.4090902807088399,0.3546426345710116
surface azimuth -130,1.0,0.9708421652923019,0.920362502424709,0.8518083625760615,0.7699006074762123,0.6806696225377968,0.5915817067884686,0.5098474520342589,0.43925088224897174,0.38087968091755736
surface azimuth -120,1.0,0.97664120110768,0.9320038555556226,0.8692423886962175,0.7926427581417412,0.7078619824532002,0.6223509741880278,0.54187145182646,0.4697498133474938,0.4074585158485946
surface azimuth -110,1.0,0.9829016322848002,0.9445121767753707,0.88764773085709,0.8161519343561681,0.7356775424776828,0.6529812691551287,0.5729940372573655,0.4991059751213913,0.4329089822212494
surface azimuth -100,1.0,0.9894443536280304,0.957455995157897,0.9063812673814672,0.8397808396515651,0.7629881884430608,0.6823656506678917,0.6022183798251982,0.5261895013581692,0.45598430506985144
surface azimuth -90,1.0,0.9960542666636609,0.970416515018419,0.9250302978281288,0.8628242370301422,0.7891963570602647,0.7098237344026728,0.6286288094127483,0.550136361036069,0.47634354820108155
surface azimuth -80,1.0,1.0025211550179116,0.9830280168788285,0.9430035068857158,0.8848773111758821,0.813531629075458,0.734779508380343,0.6522481277416956,0.5704690499821697,0.4927160420495393
surface azimuth -70,1.0,1.0086463086194744,0.994945731605615,0.9599229718424593,0.9055504267441077,0.8359729034972261,0.7568822720564612,0.6723981039084562,0.5867702714317558,0.5046058998536866
surface azimuth -60,1.0,1.014244021282553,1.0058137806399894,0.9752636164513512,0.9241841242918107,0.8561083693299012,0.7760040213437235,0.6887688338814464,0.5991946078683094,0.5123216346263184
surface azimuth -50,1.0,1.019148091543221,1.015356149959428,0.9888349431656569,0.9405564127309105,0.8734649795291918,0.7924006694960218,0.7020656163886044,0.6080174864274747,0.5159765880751627
surface azimuth -40,1.0,1.0232073147198835,1.0232393328247629,1.0000654193576604,0.9544181827572936,0.8882855688392026,0.8058690670355004,0.7124664913621204,0.6135385802307027,0.5160335367645421
surface azimuth -30,1.0,1.0263209738569181,1.029228038846546,1.0086258854364616,0.9650724141106097,0.8999666290931253,0.8165110647169345,0.7198375426470501,0.6161072121389023,0.5131977621521087
surface azimuth -20,1.0,1.0284128760717985,1.033202502253943,1.0142276949807043,0.972051690868715,0.9079025361171517,0.8239337613696291,0.7243708469249323,0.6157447065509356,0.507363033948009
surface azimuth -10,1.0,1.0294023007214312,1.034978488949567,1.0166539706766218,0.9750131509649688,0.9112574496625323,0.8273444343629153,0.7260864745010461,0.6130959756927754,0.5003532612801483
surface azimuth 0,1.0,1.029247320680136,1.0345844430453468,1.0159574442452504,0.9739651744879084,0.9100138810831827,0.8261213471933182,0.7251371060848235,0.6111970666296181,0.4983829714648877
surface azimuth 10,1.0,1.027952705709941,1.0320526569540796,1.0122814804523192,0.9693694368659883,0.9048829039770552,0.8210874339250638,0.7213353929543869,0.6105261709869327,0.49925753725420224
surface azimuth 20,1.0,1.0255598688386913,1.0273923856509708,1.0057200650416935,0.9615208681631481,0.896484002632496,0.8132692126191481,0.715660766269428,0.609261834356393,0.5030196719545457
surface azimuth 30,1.0,1.0221408511593795,1.0208120685421507,0.9965268578908126,0.9505240345588348,0.8849031799968708,0.802544074152232,0.7077239767206157,0.6060292687751895,0.5052241026922919
surface azimuth 40,1.0,1.0177993438022195,1.0124359417830322,0.9848447225374747,0.9367182133188221,0.8704177013656218,0.7891346950046967,0.69725154584684,0.6002247965026285,0.5047372630410073
surface azimuth 50,1.0,1.0126687821295843,1.0025440855647134,0.9712222455485294,0.9206879398323595,0.8534334580271858,0.7731376981430782,0.6842614524433572,0.5917695851189176,0.5013779774246975
surface azimuth 60,1.0,1.0069117377137786,0.991541733496972,0.9559109281316693,0.9023345219998348,0.833942235889097,0.7547232172245685,0.6684914209520092,0.5803119079101824,0.49469920062858963
surface azimuth 70,1.0,1.000692153278295,0.979557723615781,0.9391244282781135,0.8822902100393661,0.8125731712948155,0.733676136432008,0.6497237006274567,0.565374124713596,0.4842412912129756
surface azimuth 80,1.0,0.9942008054228025,0.9669800117799363,0.9213573336617216,0.8609066178695706,0.7891547302504187,0.710136837790792,0.6282274392510244,0.5468894957263526,0.46984853203999705
surface azimuth 90,1.0,0.9876308543274659,0.9541491063455796,0.9030384254842321,0.8382645583589942,0.7638370805373311,0.6842985411109203,0.6035648200034556,0.5250424994425318,0.45231843562879614
surface azimuth 100,1.0,0.9811793187751795,0.9414098799689732,0.8846027710333306,0.8150026426193574,0.737373788595527,0.656351934728577,0.5761138500201163,0.50022134537689,0.43153158082303805
surface azimuth 110,1.0,0.9750425700058559,0.9291923751710097,0.8665325294649059,0.7917475450240923,0.7101778168352887,0.6269158862074659,0.5468215370931269,0.4731611594902026,0.4081211488665056
surface azimuth 120,1.0,0.9694088870296509,0.9178855655673983,0.8494406957411643,0.7692343732211959,0.6830067345681948,0.5968828445461717,0.5162146066993621,0.4445468724735245,0.3834682342135633
surface azimuth 130,1.0,0.9644517980978906,0.9078468737486799,0.8340138210242479,0.7482675943805366,0.6569605403588177,0.5672972958096402,0.4855833363228105,0.41561198534698657,0.35866968360540835
surface azimuth 140,1.0,0.9603246669637648,0.8994470027855445,0.8208966855055345,0.7299114922960052,0.6334190072081035,0.5397718069573313,0.4564158642679413,0.38777521060519493,0.3350528189289675
surface azimuth 150,1.0,0.9571543342068064,0.8929753694958702,0.8106208393213984,0.7150702855324717,0.6137846033477702,0.5166877463211736,0.4314888459150526,0.3631721054454924,0.3140422384814856
surface azimuth 160,1.0,0.9550384696713897,0.8886337535385954,0.803547550556474,0.7043395385924934,0.5991720787560862,0.5016780364615068,0.41562212264815057,0.3442537823647538,0.29608394425151185
surface azimuth 170,1.0,0.9540438606262092,0.8865349555704907,0.7999334425594069,0.698211675005341,0.5916669554803691,0.4954422826273725,0.4085885866598562,0.33575315950816953,0.2833702137858272
surface azimuth 180,1.0,0.9541987091464571,0.886792487886276,0.8000671083627733,0.697747744471268,0.5917375979732421,0.495972195990828,0.4090086061834525,0.3359235388689187,0.2822888862721376
