,Tilt-0,Tilt-10,Tilt-20,Tilt-30,Tilt-40,Tilt-50,Tilt-60,Tilt-70,Tilt-80,Tilt-90
surface azimuth -180,1.0,0.9555351593657054,0.8900475628120695,0.8058523829038203,0.7067028637699732,0.6040256867891713,0.512668303787725,0.4286046748625708,0.35627932556143066,0.30142028996548614
surface azimuth -170,1.0,0.9551481666343214,0.8893630197856313,0.8051779182807091,0.7066965426301531,0.6039920448956207,0.5126875006132987,0.43005623167418483,0.3589297347251574,0.30576800559269707
surface azimuth -160,1.0,0.9558733635132938,0.8909684513357746,0.8082195078417347,0.7124271471529829,0.611841067065196,0.5193114820818739,0.4375954103530581,0.3685712390629674,0.31964614761563714
surface azimuth -150,1.0,0.9576886662315606,0.8948201807272818,0.814782494195263,0.7226448234518702,0.6260044582577212,0.5338697387741116,0.45252582874990216,0.38625220037345415,0.3375833692616472
surface azimuth -140,1.0,0.9605492078080419,0.9007687251690111,0.8243790740830451,0.7365265874438405,0.644141004854331,0.5547951544291506,0.47523323394786804,0.4094449521809355,0.35802169936908396
surface azimuth -130,1.0,0.9643640179573272,0.9085909855789258,0.8365539118722093,0.7533798132103433,0.6653716622380165,0.5794954998765325,0.5017210755877399,0.435093904450879,0.3803233215607701
surface azimuth -120,1.0,0.9690125595864892,0.917969920513466,0.8507746121544649,0.7723503180075678,0.688682202036635,0.6060812789994833,0.5293739965466154,0.46138548280821284,0.4031396387894719
surface azimuth -110,1.0,0.9743512307447088,0.9286225849405456,0.8665125707343996,0.792758376123216,0.7131878493023205,0.6330413233703209,0.5566697543000364,0.4869562736241242,0.42520523933100046
surface azimuth -100,1.0,0.9802069058713462,0.9401638825262332,0.8832141561430874,0.8140222470264751,0.7377692374409991,0.659346764367104,0.5827393267516525,0.5108727180897407,0.44540654814021674
surface azimuth -90,1.0,0.9863986424070433,0.9522388686340123,0.900503559878852,0.8353366572001811,0.7619022949544967,0.684395469095789,0.6066954995195069,0.5325289634462275,0.4635441588171422
surface azimuth -80,1.0,0.9927486404733402,0.9645120420701266,0.9178232005952394,0.8563325904755671,0.7849376483158179,0.7078116929595912,0.628588673890583,0.5512787520009022,0.4785285912763009
surface azimuth -70,1.0,0.9990603968952495,0.9766874869176233,0.9348827772950108,0.8768316852867117,0.8067898413672571,0.7292338461214146,0.6479126661250499,0.5668130452741034,0.48996781875652134
surface azimuth -60,1.0,1.0051434268759407,0.9883853009037435,0.951117434529087,0.8961265790258144,0.8273017065666568,0.748541731538001,0.6644796415130932,0.5794286523409895,0.4980555965684628
surface azimuth -50,1.0,1.010816483305299,0.9993784662005224,0.9665401425668899,0.9141657260218182,0.8461468400034741,0.7662832005326609,0.6789350809327545,0.5893860707505206,0.5029664110446789
surface azimuth -40,1.0,1.015905402864277,1.0092626100181836,0.9804674667090373,0.9309600618383611,0.8636220870049924,0.7823294128412506,0.6917047211687164,0.5972245212705363,0.5053275003638427
surface azimuth -30,1.0,1.0202553935652086,1.0177218790820304,0.9925395152845672,0.9456611532969664,0.8792506266251406,0.7969192190860932,0.7030555698003579,0.6035746733943701,0.5060635494383866
surface azimuth -20,1.0,1.0237544939616345,1.024523512701027,1.0022942435135103,0.9578118019289055,0.8926144373014002,0.8095476807072268,0.7128660769381693,0.6084652140277165,0.5054949070994219
surface azimuth -10,1.0,1.0262926990050207,1.0294243915759638,1.009357180958612,0.9667059511772801,0.9028222833719075,0.8197845169382748,0.7210586543351952,0.6122528597080409,0.5051838692800779
surface azimuth 0,1.0,1.0277791918540646,1.0323020871028123,1.0134976928637305,0.971998404331536,0.9091426830509646,0.8269807568832188,0.7283084237467894,0.6177041894264869,0.5094412944408943
surface azimuth 10,1.0,1.0281689241641092,1.0330954344482064,1.014733133231715,0.9737621888988414,0.911624585439905,0.8305042569609898,0.7335501408057382,0.6252726726063111,0.5160315594417039
surface azimuth 20,1.0,1.0274522506368093,1.031739326489458,1.0130183019425243,0.9720785420152238,0.9104883324065666,0.8306769923537013,0.7360793810760169,0.6316207949984726,0.5257634991530327
surface azimuth 30,1.0,1.0256498265598626,1.028351237381022,1.008423012863347,0.9669144429958683,0.9056445157356848,0.8271462990213592,0.735261285081684,0.6348268142684519,0.5332917470613803
surface azimuth 40,1.0,1.0228178844921199,1.022953392811071,1.0010412873524703,0.9584811478428076,0.8971952514907197,0.820084782183039,0.7308847944584792,0.6344157374684477,0.5373746034049272
surface azimuth 50,1.0,1.0190405358924792,1.0156989511457215,0.991219499445519,0.9470623344213612,0.885485220497385,0.80955972030414,0.7230032381201991,0.6304627894203247,0.537871204600543
surface azimuth 60,1.0,1.0144395793461125,1.0069589717708594,0.9791038874075165,0.9327250342632264,0.8704383092381435,0.7956145673384052,0.7113811626829236,0.62254906304779,0.5340954881300863
surface azimuth 70,1.0,1.0091476051709647,0.9968033355009316,0.9649552028674541,0.9158805586503244,0.8526399351063879,0.7781102013017308,0.6957130666179174,0.6100797902507089,0.5255900277570993
surface azimuth 80,1.0,1.0033219695067024,0.9855337174310221,0.949053283916551,0.8967991595304774,0.8317487756723615,0.7569494806884158,0.6760996982382846,0.5931310770046244,0.5121701346526267
surface azimuth 90,1.0,0.9971396724565543,0.9734830484149878,0.9318840263692117,0.8756005322846498,0.807982176583819,0.7323327452392003,0.6523031456160382,0.5716974027691141,0.4946579656236887
surface azimuth 100,1.0,0.9907850920548287,0.9609650696701078,0.9137788132649928,0.8528781114739086,0.7819991833076916,0.7046870448347838,0.6248031308051697,0.5462837561736141,0.47304724110151286
surface azimuth 110,1.0,0.9844507652020302,0.9483765471143673,0.8952746116478743,0.8291335135177413,0.754256570101411,0.6745530217871887,0.5944146894235,0.5178791112127422,0.44805785965176276
surface azimuth 120,1.0,0.9783331896658639,0.9361234960382547,0.8769509590459043,0.805160734869586,0.7255127330341239,0.6428401309033029,0.5619416459679966,0.4871483684462147,0.42099044143366926
surface azimuth 130,1.0,0.972618819958136,0.924582503921316,0.8594519048095535,0.7817952756560516,0.696866239305574,0.6106190845311206,0.5286575979041462,0.4553404362471359,0.39308764562177073
surface azimuth 140,1.0,0.9674850651005662,0.9141987019043671,0.8434979150050698,0.7600283617053746,0.6696542605740345,0.5794059977307513,0.49601561878451694,0.4241438757935508,0.36597373533885696
surface azimuth 150,1.0,0.963087834644642,0.9053033826559718,0.8296912418945815,0.7408308773558409,0.6452562267169051,0.551515857385495,0.4668777796494764,0.39587344932562885,0.34146897844520013
surface azimuth 160,1.0,0.9595627376940385,0.8981607557030254,0.8184986942090138,0.7249174158889399,0.6248057822238645,0.5305881275584897,0.44627401613354173,0.3737320050950736,0.32066065288879075
surface azimuth 170,1.0,0.9570216617530575,0.8930075474745148,0.8103914949463183,0.7130712076758399,0.6105462027987433,0.5183657767389126,0.43394742326931823,0.36129174893641736,0.3057260271355464
surface azimuth 180,1.0,0.9555351593657054,0.8900475628120695,0.8058523829038203,0.7067028637699732,0.6040256867891713,0.512668303787725,0.4286046748625708,0.35627932556143066,0.3014202899654861
