,Tilt-0,Tilt-10,Tilt-20,Tilt-30,Tilt-40,Tilt-50,Tilt-60,Tilt-70,Tilt-80,Tilt-90
surface azimuth -180,1.0,0.9535203084714505,0.8854993955718196,0.7983239914464002,0.6957381009267285,0.5894097946941798,0.4948789887147947,0.4098114611353966,0.3385444615788714,0.2854659191435187
surface azimuth -170,1.0,0.9539435098163583,0.8863794251483842,0.7998403386624443,0.6984008340049263,0.5927210154162663,0.49869945872026733,0.41483224001061264,0.3441071284245665,0.2919831091396895
surface azimuth -160,1.0,0.955519993658642,0.8896279883534964,0.8051850958860267,0.7069886298018787,0.6040128266068544,0.5092577207827754,0.42625223994487055,0.35664642046250755,0.30768657524263154
surface azimuth -150,1.0,0.9582036135959651,0.8951350592158847,0.8140870545864476,0.7203045031648652,0.6218176518587014,0.5278701207339381,0.4451651689442553,0.37749274306274033,0.3282285644860884
surface azimuth -140,1.0,0.9619188998726682,0.902730543658014,0.8261583900948049,0.7374413759989332,0.6439020877728873,0.5528523051630211,0.47122234594512274,0.4040160891530333,0.3516283893792644
surface azimuth -130,1.0,0.9665495817891818,0.9122262020675728,0.8408740517106364,0.7576870364889463,0.6686813555262054,0.5807913520723283,0.5009485265889341,0.43277171966260924,0.3768650870846058
surface azimuth -120,1.0,0.971954729984513,0.9231902256317343,0.8575880159034222,0.7797588480731674,0.6949198865153883,0.6103311302510303,0.5316620448485155,0.46209013289601697,0.4023981909686866
surface azimuth -110,1.0,0.9779782405416791,0.9353312069869348,0.8756645543162964,0.8027673211511737,0.7219407953892714,0.6400033616552072,0.5617333715278905,0.4903198975779426,0.4269289524410771
surface azimuth -100,1.0,0.9844276884519093,0.9481322314626992,0.8943272118903574,0.8261824089701637,0.7487841497463452,0.668707100802394,0.5902705775284625,0.5164889978569207,0.44921158291049995
surface azimuth -90,1.0,0.9910852066363685,0.9612094941548777,0.913140876975424,0.8492836280830878,0.7749034084124246,0.6958006429761251,0.616282534995318,0.5400392545083803,0.4688570400782964
surface azimuth -80,1.0,0.9977560199492276,0.9742013682235587,0.931587436041977,0.8716955487782951,0.799576184363691,0.7209247375693968,0.6396930452108909,0.5601527420407205,0.4849077625701863
surface azimuth -70,1.0,1.0042391225860965,0.9867732493982783,0.9493012256809671,0.8932055479607831,0.8225764818639247,0.743542413694158,0.6601547448157502,0.5765443666010633,0.49692855219278564
surface azimuth -60,1.0,1.0103348955129574,0.9985120945787984,0.9657136431001284,0.9129951108099007,0.8438246230194253,0.7635420435752833,0.6773737571879989,0.5896326123384329,0.5051159182205371
surface azimuth -50,1.0,1.0158599692036012,1.0091598770057615,0.9807266734144845,0.9310109190734395,0.8629545652076808,0.7814942446195585,0.6919137554005953,0.5994422012664076,0.5096637270734593
surface azimuth -40,1.0,1.020648527657963,1.0183641404343613,0.9936461101394313,0.9469475079636517,0.8800031873398301,0.7971383510691905,0.7040682940904839,0.6066014453805494,0.5111284453664982
surface azimuth -30,1.0,1.0245529773158124,1.025810767708746,1.004135553587781,0.9600045408445935,0.8944914606121762,0.8107571618543951,0.7141959128558365,0.6114799230551083,0.5102941541153639
surface azimuth -20,1.0,1.027489164503761,1.0314274652297806,1.0118688339298365,0.9696050906413751,0.9055248576430989,0.8216543972766549,0.7222761107656638,0.6143088779356176,0.5074059987095556
surface azimuth -10,1.0,1.0293697672808748,1.0349799171098484,1.016709221030866,0.9753056418117801,0.912139918516347,0.8287890958126727,0.7280366725365607,0.6155472045593232,0.5042505402586479
surface azimuth 0,1.0,1.0301112073400096,1.0363209493533228,1.0185781652726336,0.9774115291709683,0.9142768816297149,0.8312781182004618,0.7310702108779683,0.6176815463770426,0.5060014114644394
surface azimuth 10,1.0,1.0296896936199957,1.0355087764485795,1.0173731318112722,0.9760068926457578,0.912822888437641,0.8300515101543675,0.7310893216890774,0.6208832946722264,0.510090332424982
surface azimuth 20,1.0,1.0281199653175643,1.0324662417544135,1.0132129100252272,0.9711483993606587,0.9079037014148845,0.826075833150796,0.7294406350315656,0.6234098513755314,0.5167384518803527
surface azimuth 30,1.0,1.0254491773072352,1.0273668805506075,1.0061249222307913,0.9628140242285264,0.8994496165639637,0.8187886807961406,0.7250758337580565,0.6236184902145511,0.5218731589899548
surface azimuth 40,1.0,1.0217590633970928,1.0202940243382181,0.9963225464562254,0.9513532016648868,0.8876120392757164,0.8083156117162059,0.7175965783663139,0.6206450367986476,0.5239819087341689
surface azimuth 50,1.0,1.0171612362558784,1.0114396020993957,0.9841829133899581,0.9371469283850361,0.8728828573718856,0.7947512906607929,0.7070679355432571,0.6144815419754109,0.5226906568200387
surface azimuth 60,1.0,1.0117986777810128,1.0012079077915108,0.969991890741189,0.9203375907960712,0.8550725846719566,0.7781568947072898,0.6930847990281362,0.6045669705742254,0.5172649749395356
surface azimuth 70,1.0,1.0058331056106915,0.9897600353184313,0.9540592783496921,0.9012785539882825,0.8349024249847301,0.7583653761010862,0.6753014149421223,0.5903659341606265,0.507346781541785
surface azimuth 80,1.0,0.9994381935561153,0.9774007339393335,0.9366278885710498,0.8802796152230626,0.8119467038582814,0.7351583769034654,0.6539382619240819,0.5720200777036031,0.49273700209722715
surface azimuth 90,1.0,0.9928124880398159,0.9644994698814131,0.9182425340030406,0.8575884620388387,0.7864922258658082,0.7087907383530057,0.6287368494563904,0.5493650111718668,0.47416755151397894
surface azimuth 100,1.0,0.986152126825363,0.9513887053532951,0.899262887032061,0.8337321068851536,0.7591688247721008,0.6799391667880705,0.6001340122554422,0.5229038212428693,0.4518420090520992
surface azimuth 110,1.0,0.979657905956795,0.9384698880494939,0.8802482140316489,0.8092807353555305,0.7305415507907674,0.6489128013809697,0.568869948790853,0.49384716367294856,0.42649121990949734
surface azimuth 120,1.0,0.9735282252497514,0.9261763809746365,0.8618023349761232,0.7850661986468874,0.7014074895645612,0.6166421938383929,0.5358649717806113,0.4627678349535796,0.39944720987046556
surface azimuth 130,1.0,0.9679508713769228,0.9149013005656541,0.8446069389174276,0.7619302039439168,0.6729003011281784,0.5843045038483499,0.5023798911880948,0.4310026650374133,0.3719743328888748
surface azimuth 140,1.0,0.9631000761877702,0.905058353985539,0.8293696933739727,0.7409108224602722,0.646345279184735,0.553524675545161,0.47004306379866206,0.4003004556782572,0.34560198791550417
surface azimuth 150,1.0,0.9591240389470851,0.8969824990938997,0.8167106713620194,0.7230302446107931,0.6231778921715377,0.5267775703729966,0.44183545492998405,0.37277169855630465,0.3219600710471798
surface azimuth 160,1.0,0.9561471810034862,0.8908952566721536,0.8070512996470501,0.7089923074187928,0.6046148946993125,0.5076493714101351,0.42261969409736316,0.3515930444983211,0.30198672583656383
surface azimuth 170,1.0,0.954262182209411,0.8870142315460906,0.8007938565845124,0.6995040590422016,0.5928787082419061,0.4976179358486914,0.4124187156174835,0.3407090212367285,0.2879876382399266
surface azimuth 180,1.0,0.9535203084714505,0.8854993955718196,0.7983239914464002,0.6957381009267285,0.5894097946941798,0.4948789887147947,0.4098114611353966,0.3385444615788714,0.2854659191435187
