,Tilt-0,Tilt-10,Tilt-20,Tilt-30,Tilt-40,Tilt-50,Tilt-60,Tilt-70,Tilt-80,Tilt-90
surface azimuth -180,1.0,0.9534345664334657,0.8853178914913721,0.7979543140974117,0.6950431870540685,0.5885727921063021,0.4928790952352811,0.40674513120034705,0.3351059359849586,0.28299089632084184
surface azimuth -170,1.0,0.9544328749641647,0.8873092047813058,0.8010372286161106,0.6995912778957661,0.5936477421253559,0.4979969785396161,0.41233304449496067,0.3410385790524907,0.28940672826646113
surface azimuth -160,1.0,0.9565688607920381,0.8916232652920573,0.8078010210801804,0.7097949059807563,0.6062160279478486,0.5099608070093782,0.4248352577525423,0.35409862724005026,0.3054573849538779
surface azimuth -150,1.0,0.959777891970207,0.8981022329705564,0.817953378673128,0.7244012687401767,0.6251486241116836,0.5297603050048526,0.4451484406363616,0.3761662246815291,0.32652455101653927
surface azimuth -140,1.0,0.9639659467671662,0.9065531164632846,0.8310098524572672,0.7425828390432531,0.6483531539952154,0.5560371721618066,0.4727173786760962,0.4039226422319708,0.35070422281850433
surface azimuth -130,1.0,0.9690058555329848,0.9166973507670823,0.8465569165988923,0.7637789104108818,0.674383016639072,0.5854655580084046,0.5039546403409138,0.43410202909933127,0.37695764241520985
surface azimuth -120,1.0,0.9747451455178753,0.9281665538961743,0.8639789334976922,0.7867628296804384,0.7018903703250541,0.6164292651826795,0.5362351121802222,0.46486830382391875,0.4037211779738251
surface azimuth -110,1.0,0.9810081630174062,0.9407133171225464,0.8826326166527881,0.8106097935989052,0.7301032455930654,0.6474120882174675,0.567778409824921,0.4946069620053918,0.42953222029079036
surface azimuth -100,1.0,0.9875987868833164,0.9537956359923333,0.9017159512760917,0.834719372876515,0.7579221769204013,0.6773203536074847,0.5976241287466325,0.5222568827821563,0.45312642289829974
surface azimuth -90,1.0,0.9943052554300541,0.9669969540693233,0.9207949006996606,0.8583245064215017,0.784773054054412,0.7054107869053412,0.6247988824704469,0.5470496756358618,0.47410403347723085
surface azimuth -80,1.0,1.0009286493671912,0.9799522712347429,0.9393038075833412,0.8809789623142513,0.8098729940217756,0.7312161208557246,0.6491740714462725,0.5682219578093253,0.49128171871575793
surface azimuth -70,1.0,1.0072705086448952,0.9923041245327123,0.956831873076721,0.902384426128088,0.8330107319361542,0.7541786340320216,0.6702365654079687,0.5854104763798587,0.5041423508330876
surface azimuth -60,1.0,1.0131370659890406,1.0036716446595462,0.9728157176340094,0.921751220057496,0.8540082339031257,0.7741781244360082,0.6876079668285272,0.5988670140892417,0.5128772750855816
surface azimuth -50,1.0,1.0183498262245463,1.0137867313070974,0.9871161361696185,0.9389295988549589,0.872342792970418,0.7916255398929091,0.7018694330384982,0.6086529941921079,0.5175428880622945
surface azimuth -40,1.0,1.0227522792567245,1.0222967549584603,0.9991055048620362,0.9537273259504062,0.8880746020050717,0.8061646639296436,0.7132344534365657,0.615173618843119,0.5185953562871796
surface azimuth -30,1.0,1.0262120154381948,1.0289301584324635,1.0084500576788558,0.9653475973375425,0.900736213677226,0.8179652296795232,0.7217483248830743,0.618683084668438,0.5166221759820356
surface azimuth -20,1.0,1.0286483250726983,1.0335839599415897,1.0149023444724594,0.9733114051320123,0.9098002339571074,0.8264803450552812,0.7275633059021338,0.6194394226225626,0.5117203564826996
surface azimuth -10,1.0,1.0299760654632122,1.0360916887370235,1.018281419002313,0.977244669958946,0.9142957977360102,0.8311227445141209,0.7305672631603098,0.6180594875552434,0.5055624107426007
surface azimuth 0,1.0,1.03014451647428,1.0363723978066657,1.0185641425054446,0.9773515562064536,0.9141457240193585,0.8310162871938721,0.7306493047952783,0.6170365205464068,0.5038706157083741
surface azimuth 10,1.0,1.02914802436861,1.0344386090170574,1.0157897656727675,0.9739033491981707,0.9102210905969488,0.8270099766977188,0.7275495797657118,0.6167312972235959,0.5045451998613282
surface azimuth 20,1.0,1.0270199710556973,1.0302939789273076,1.010003977053421,0.966979652675148,0.9028463354308364,0.8201656061609937,0.7227186953714343,0.6157681799293235,0.5083177351619893
surface azimuth 30,1.0,1.0238241814345186,1.0241559792622776,1.0013942260851139,0.9566486155779138,0.8919258287042844,0.8100684966280286,0.7152763928875091,0.6129984514529551,0.5109429707491117
surface azimuth 40,1.0,1.0196574573741675,1.0161348863102366,0.9901871178518714,0.9433403505167267,0.8778728608914592,0.7971143423941021,0.7052396167580368,0.6076690067672278,0.5110772517121869
surface azimuth 50,1.0,1.01464541071685,1.0064526640863214,0.9768134598686863,0.9275170523526485,0.8612496906018725,0.7815450448715254,0.6927859864344887,0.5998338614977089,0.5084124271397361
surface azimuth 60,1.0,1.0089476904491692,0.995549539812437,0.9616059869703483,0.9093658775369139,0.8419800384608624,0.7634981886953149,0.6775446143385787,0.5888739823036357,0.5022635314146712
surface azimuth 70,1.0,1.0027310712850475,0.9835822448961709,0.9448686030640466,0.889370177153033,0.8208920937588172,0.7428504492923075,0.6590854316651282,0.5742600696717598,0.49216798290349295
surface azimuth 80,1.0,0.9961793604420762,0.9708889098860688,0.9269427617620799,0.8678913317622381,0.7974869358139811,0.7193683859611005,0.6376884659027393,0.5560253912190819,0.47795243873109705
surface azimuth 90,1.0,0.989492738214356,0.9578343144216975,0.9083764312382842,0.8450767343421964,0.7720134544151114,0.6932749169244953,0.6129567473663514,0.5340847243715444,0.4603659766016135
surface azimuth 100,1.0,0.9828695002819101,0.944780011181226,0.8895299264616083,0.8214384514957964,0.7451235714493045,0.6651120480289878,0.5852802338362154,0.5088823777334402,0.43939701303809947
surface azimuth 110,1.0,0.9765092391902221,0.9321348510020492,0.8709259207809585,0.7975949598767453,0.7173402020652547,0.6351513393511128,0.5554698162369521,0.48146236202844855,0.4156874868804755
surface azimuth 120,1.0,0.9706103067344845,0.920312839281632,0.8531578038987612,0.7742957456202969,0.6893495406610823,0.6043167538446933,0.52421548302982,0.4522857485062304,0.3905399091388954
surface azimuth 130,1.0,0.9653537857364394,0.9096888816602087,0.8368881224916839,0.7523214265488419,0.6622353315685393,0.5737089878855535,0.4926990730001961,0.42262728917999687,0.36504017908013
surface azimuth 140,1.0,0.9609034466416877,0.900643961759975,0.8228202670720657,0.7327267106436597,0.6373570597007502,0.5448208433003301,0.4624145205276717,0.3939728796868798,0.34056102191186555
surface azimuth 150,1.0,0.9573940312891449,0.8934992951389714,0.8115327901318271,0.7165022279283675,0.6160774747157411,0.520032140337224,0.4360728318142135,0.3682560249290123,0.31846569937384595
surface azimuth 160,1.0,0.9549349365927452,0.8884625449532422,0.8034026366855129,0.7043539648561244,0.5996537284790401,0.5028423297005282,0.4180425965262485,0.3478113934063754,0.29946262191135864
surface azimuth 170,1.0,0.9536028072600587,0.8856909648352244,0.7987818240131545,0.6968659124166076,0.5902353674956498,0.4942994761779013,0.4085841519533518,0.33708073107709097,0.2856527620654625
surface azimuth 180,1.0,0.9534345664334657,0.8853178914913721,0.7979543140974117,0.6950431870540685,0.5885727921063021,0.4928790952352811,0.40674513120034705,0.3351059359849586,0.2829908963208418
