,Tilt-0,Tilt-10,Tilt-20,Tilt-30,Tilt-40,Tilt-50,Tilt-60,Tilt-70,Tilt-80,Tilt-90
surface azimuth -180,1.0,0.9551567559004285,0.8887002829526569,0.802876486476769,0.7011863851522868,0.5944225585335792,0.4990294395371143,0.412601298910302,0.3399450787268065,0.28631039471077463
surface azimuth -170,1.0,0.9561259941113845,0.8906572708693969,0.8059633696462701,0.7058959059920725,0.6001054198877992,0.5048071519043661,0.41914029325337665,0.3470793528942826,0.2937097169503667
surface azimuth -160,1.0,0.9581830173049573,0.8948283481745067,0.8125751113913229,0.7159394239928395,0.6131752612959949,0.5169420685986034,0.4320624380831909,0.3609575979677599,0.3102872671746848
surface azimuth -150,1.0,0.961265259831195,0.901108676774849,0.8224454696040169,0.7301227960898733,0.6318364991689733,0.5368960830139218,0.45229954777898324,0.382796279635839,0.33166210075616415
surface azimuth -140,1.0,0.9652873254293767,0.9092804057813619,0.8351467184863589,0.7479362182595123,0.6545838760960291,0.5625886946530303,0.47915797414185646,0.4097693697616643,0.35550861437251907
surface azimuth -130,1.0,0.97013268985878,0.9191150489791361,0.850282011062366,0.7684993782667486,0.6796924818394481,0.591030212439239,0.5094116144232551,0.43899750016255207,0.3809185616752165
surface azimuth -120,1.0,0.9756404957284014,0.9302150657742613,0.8671251394688112,0.7905753854193838,0.7060396040067632,0.6208066232935872,0.5404575232481926,0.4685152985241258,0.40660386519886715
surface azimuth -110,1.0,0.9816467028302673,0.9423233558433132,0.8850249812630995,0.8134309114109217,0.7329862857467786,0.6504363762921505,0.5706425583575029,0.4969576705846223,0.4311752034186296
surface azimuth -100,1.0,0.9879780858287059,0.9549173037141345,0.9033061121317343,0.8364086861170942,0.7594815169502492,0.6788765479747979,0.5989434067015487,0.5231695995882483,0.4533954962484313
surface azimuth -90,1.0,0.9944152875050831,0.9675861826142583,0.9215398192532666,0.8588912341149487,0.7849335289902893,0.7054835698559969,0.6244847489603129,0.5462853376227679,0.472966991986096
surface azimuth -80,1.0,1.0007589936357693,0.9799854900760856,0.9391927187131196,0.8804391023405733,0.8086722134598304,0.7296889073977503,0.647340267471848,0.5658883277391216,0.48862523421795523
surface azimuth -70,1.0,1.0068149360167595,0.991773518979595,0.9558950804154577,0.9007671687569765,0.8306232582192382,0.7512444902358689,0.6668623282288322,0.5815671461660393,0.4999317811335169
surface azimuth -60,1.0,1.0124016620397518,1.0025880214056933,0.9711227156055856,0.9192343813179539,0.8504703841218443,0.7699480347073311,0.6827846868281913,0.5935526619988256,0.507223034117856
surface azimuth -50,1.0,1.0173527325425729,1.0121633918779558,0.9846942769628274,0.9355974691278548,0.8677922199863523,0.7861712045495428,0.6957923792664219,0.6020860300694122,0.510626428086243
surface azimuth -40,1.0,1.0215156917970034,1.0201573809623907,0.9960350802308705,0.9496485422770035,0.8828179234879451,0.7998064687914086,0.7061228590819484,0.607521812806621,0.5106616581866119
surface azimuth -30,1.0,1.0247766446990496,1.0263519767292228,1.004795483801069,0.9606261151942268,0.8949657680387176,0.8109836647820989,0.7139418418766796,0.6103376255701585,0.5080195593156182
surface azimuth -20,1.0,1.0270717193085477,1.0306699906931236,1.0108161988111675,0.9680025226550473,0.9034447516959485,0.8191534810108171,0.7193270225600895,0.6107264164224322,0.5029635129422552
surface azimuth -10,1.0,1.0283254252099956,1.0329174450514331,1.0137789695149078,0.9715522304320169,0.9074310828871051,0.8233446452136791,0.7220408563185206,0.6091376515483838,0.4975985969241071
surface azimuth 0,1.0,1.0284710176068177,1.0330835517376733,1.0138173929970333,0.9713572069002223,0.9070719123915612,0.8230311155046067,0.722121528799773,0.6085314050645293,0.49741024536572764
surface azimuth 10,1.0,1.027503740051073,1.0311908385639024,1.0110775134841745,0.9678892506992237,0.9032000506491921,0.819358348819538,0.7197145456309835,0.6092513244394934,0.49923609274538155
surface azimuth 20,1.0,1.0254548171485671,1.027220967290979,1.0055188761561937,0.9613191165824853,0.8963190733639486,0.8132476036033498,0.7158255224289243,0.6097294125492827,0.5039953531825944
surface azimuth 30,1.0,1.0223858898062799,1.0213421869823232,0.9973480038279326,0.9516261613938001,0.8862932599586648,0.8042688507843709,0.7097648200961335,0.6082656834685184,0.5076661748046392
surface azimuth 40,1.0,1.01839072641694,1.0136507985231944,0.9866405387915388,0.9390626227123516,0.8732938385093217,0.792492805925692,0.7009321597684238,0.6040057362597899,0.5084608817339554
surface azimuth 50,1.0,1.0135895164576574,1.0044092622811391,0.9739523247572559,0.9241608537049362,0.8576188882514869,0.7779021336923997,0.6892710765220761,0.5967598864409378,0.5061716451034187
surface azimuth 60,1.0,1.0081389323040677,0.993989944149068,0.9594425368065539,0.9068039071017019,0.8392741466937632,0.7605922393414095,0.6745950371153572,0.5862537782121212,0.5003520131349878
surface azimuth 70,1.0,1.0021905114704435,0.9825226405875529,0.9433616076123162,0.8876020034371539,0.8188069485379404,0.7404277558562185,0.6566536356652793,0.5720563703942129,0.4905699258264813
surface azimuth 80,1.0,0.9959252912369596,0.9703630781893734,0.9261247304722269,0.8668452905664876,0.7960370189136677,0.7175161653642399,0.6357340011974868,0.554136034995141,0.4766321145428313
surface azimuth 90,1.0,0.9895314874442588,0.9578524172055831,0.9082350966095449,0.8446604532695314,0.7711590017824284,0.6920572160713032,0.6114408262169821,0.5326263407229523,0.4593394732784652
surface azimuth 100,1.0,0.9832008708169464,0.9453383378046719,0.8900493717756359,0.8216729143262873,0.744903958455287,0.6643278169910505,0.5841602736693323,0.5078637320469808,0.43854764376836775
surface azimuth 110,1.0,0.977125859311666,0.93323004337656,0.872110521350398,0.7984968118182747,0.7177381506917968,0.6349178941793101,0.5547968711618044,0.48065870814456124,0.4149257011873001
surface azimuth 120,1.0,0.9714941659524013,0.9219263930384336,0.8550153552808201,0.7759011498739256,0.6904020770616962,0.6046877964429302,0.5239179119356575,0.4516968606931661,0.38987133139902347
surface azimuth 130,1.0,0.966478704998077,0.9117805933911742,0.8394471091508555,0.7547190381667612,0.6640314899797702,0.5746920756924719,0.4927849417043061,0.42222741329093594,0.3644947746990799
surface azimuth 140,1.0,0.9622361885440792,0.9031776712138347,0.8260688393059613,0.7359679784906344,0.6399844045236307,0.5464480578200925,0.46294779141378706,0.3938044508805616,0.34019019047310234
surface azimuth 150,1.0,0.9588957873824452,0.896391327120119,0.8154090945133481,0.7206510613626219,0.6196718752831586,0.5224480606319475,0.4372405705312231,0.36853848517116433,0.31838796655951235
surface azimuth 160,1.0,0.9565604408553747,0.8916186010747609,0.8077808366062915,0.709338053530899,0.6042157259884849,0.5062552435546205,0.4205688707595988,0.3492805371761832,0.29993365513123144
surface azimuth 170,1.0,0.9553030023610998,0.8890226583646591,0.803514661236295,0.7025077224458486,0.595288276908421,0.4991754531471417,0.4130027568202894,0.3405386303696334,0.2873394335496879
surface azimuth 180,1.0,0.9551567559004285,0.8887002829526569,0.802876486476769,0.7011863851522868,0.5944225585335792,0.4990294395371143,0.412601298910302,0.3399450787268065,0.28631039471077463
