,Tilt-0,Tilt-10,Tilt-20,Tilt-30,Tilt-40,Tilt-50,Tilt-60,Tilt-70,Tilt-80,Tilt-90
surface azimuth -180,1.0,0.9550367120279171,0.8887764327527611,0.8034550623960588,0.7026317434179173,0.597602579340396,0.5025597277113719,0.4166246292791442,0.34444582832585735,0.2914872555096873
surface azimuth -170,1.0,0.9557862550013024,0.8902809739616367,0.8058429045778981,0.7062842283031596,0.601761642919592,0.5068243883530701,0.4212759047600987,0.34960927784319157,0.2972872784246374
surface azimuth -160,1.0,0.9576275892104689,0.8940183559477475,0.8117543739761462,0.7153028407282832,0.6130025851267273,0.5174836890687826,0.43267200832291874,0.36202042263188183,0.31267462388521006
surface azimuth -150,1.0,0.9605039541351292,0.8998485421326615,0.8209417948614849,0.7285991422511201,0.6304987364401408,0.5358218974684321,0.4515464263881627,0.38282082062973405,0.33275802235740504
surface azimuth -140,1.0,0.964332737138107,0.907601291833975,0.8330691643780512,0.7455921153186431,0.6521054308476134,0.5601496750239807,0.47736654761810166,0.4089468320461881,0.3556656256370378
surface azimuth -130,1.0,0.9689979148290561,0.9170908249161573,0.8477090028072188,0.7653977287155372,0.6762650496581021,0.5876882823393746,0.5067199254127219,0.4373507708724066,0.3803776038657534
surface azimuth -120,1.0,0.974357461579013,0.9279348179321564,0.8641437031189115,0.7869026401923432,0.7020110740475364,0.6168400420141693,0.5371242909075173,0.46624335324765803,0.4055049598316285
surface azimuth -110,1.0,0.9802491444749781,0.939841885915697,0.8817070021415312,0.8093618902068933,0.7285874736349651,0.6460786446121943,0.566900760430377,0.4942399269683671,0.4296807154131381
surface azimuth -100,1.0,0.9865057677626193,0.9523091856210766,0.8997765627123444,0.832226154313707,0.7549470228989781,0.6743922754785825,0.5950979887246802,0.5202790519022218,0.45177536909305654
surface azimuth -90,1.0,0.9929073121198754,0.964935380202448,0.9179323102937942,0.8547285560218474,0.7805538880861433,0.7011163558118695,0.6207730914625363,0.5436057918468009,0.4714675371762052
surface azimuth -80,1.0,0.9992617033082976,0.9773634165228159,0.9356374867575638,0.8764534227135594,0.8046492607567981,0.7257823781961372,0.6440159007514469,0.5636066877824049,0.48754910266111895
surface azimuth -70,1.0,1.0053738066121887,0.989256132749178,0.9525016901642499,0.8970756351439454,0.8270389503838874,0.7479539027389489,0.664190874653645,0.5799278781780642,0.49956433636425773
surface azimuth -60,1.0,1.0110579530359107,1.0002442367194568,0.9679942672312369,0.9158844906729108,0.8474246543958288,0.7674286960593494,0.6810498692363042,0.5928589526854006,0.507784522770418
surface azimuth -50,1.0,1.0161440261529835,1.0100566727446574,0.9819722537824687,0.9326942199988585,0.8653355130543273,0.7845325224063086,0.6950951930320729,0.6025230001677375,0.5123388619476904
surface azimuth -40,1.0,1.0204760421083305,1.018354499301144,0.9938229010722903,0.9473186619195028,0.8809616495308937,0.7989227628785363,0.7064743666299697,0.6091699908022659,0.5136566941143381
surface azimuth -30,1.0,1.0239317702461384,1.024888288295173,1.003190359277028,0.9590068774045725,0.8938343257406504,0.8108564650299477,0.7151900688339128,0.6131144672363255,0.5121966822952617
surface azimuth -20,1.0,1.0264415426732985,1.0296493312097459,1.0097695303069147,0.9672522853017916,0.9032283836761974,0.8199042288797503,0.7214487989314405,0.6145036365056623,0.5082067460046669
surface azimuth -10,1.0,1.027908416444486,1.0323738017231696,1.0133805874428163,0.9716548198393704,0.9082936763799181,0.8251931451429196,0.7251969203188944,0.6138159712710879,0.503167568659196
surface azimuth 0,1.0,1.0282737156441457,1.0329937525311943,1.0141294757312518,0.9723156445625454,0.9089572388816469,0.8260245455186933,0.7263165337856555,0.613832031814077,0.5023692384719407
surface azimuth 10,1.0,1.0275267811294013,1.031537268125144,1.0120035791948339,0.969654116126467,0.9059834367863088,0.8232356092196613,0.7246536512895853,0.6148493441114913,0.5038672406977718
surface azimuth 20,1.0,1.0256921828505625,1.0279659228928326,1.0070318045652933,0.9637598089940186,0.8997875751832998,0.8176712008690954,0.7210146330589796,0.6151362737866013,0.5086757378500609
surface azimuth 30,1.0,1.022824943137183,1.0224673249098537,0.999342492453937,0.9545966150419559,0.8902165226183656,0.808962251467929,0.7149488468104487,0.6135345466444151,0.5122248933474995
surface azimuth 40,1.0,1.019012227928796,1.015121381564007,0.989090491080249,0.942469702377334,0.8775233077364163,0.7973718055198182,0.7061986406614699,0.6092820442152753,0.5131452435919609
surface azimuth 50,1.0,1.014370174560956,1.0061566163514448,0.976730195740594,0.9278877971395583,0.8622022336510831,0.7830719246963114,0.6949032399847406,0.6023349996813985,0.5110850302824763
surface azimuth 60,1.0,1.009045853370104,0.9959661983677933,0.9624986822521874,0.910893716570252,0.8441758472218012,0.7662086343825038,0.6806806367290912,0.5921858557045883,0.505468715699628
surface azimuth 70,1.0,1.0031936042869694,0.9846799430457259,0.9466932057026968,0.8920118445073959,0.8242011527696589,0.7466041189207622,0.6631986397807045,0.5782971770582815,0.4958634525944665
surface azimuth 80,1.0,0.9969913038340403,0.9726449490734912,0.929674994753396,0.8715811664361576,0.8018788171857077,0.7241719983831573,0.6426908343351098,0.5607167070871739,0.48216615860854006
surface azimuth 90,1.0,0.9906247520179765,0.960207288036844,0.9119392847386075,0.8497021650152292,0.7774333903887964,0.6991054720323253,0.6187729510494322,0.539510370804104,0.4651429702648973
surface azimuth 100,1.0,0.9842847996641053,0.9477002767298645,0.893848340020925,0.8269340844108961,0.7515242762715125,0.6717888087514888,0.5918826154032751,0.5150508212565321,0.4447013480882346
surface azimuth 110,1.0,0.9781630508881597,0.935530603099405,0.875903350068482,0.8038565099613851,0.7246131505827516,0.6426791406921396,0.5628627294421569,0.48824503690187027,0.421495301470484
surface azimuth 120,1.0,0.9724487811057133,0.9240840964947125,0.8587089789758887,0.7812319593487072,0.6973749193678279,0.6126863947746983,0.5323027344033601,0.45967978470551246,0.39686629567616427
surface azimuth 130,1.0,0.9673162933300727,0.9137271277457011,0.842909387773373,0.7598387490769037,0.670900425451495,0.5828242024135073,0.5014193349879067,0.4305875723631659,0.3719416368558846
surface azimuth 140,1.0,0.9629240023173206,0.9048270264018182,0.8291367616956794,0.7407420204529723,0.6465080101881068,0.5545209818806907,0.471713471556174,0.40247228581008304,0.3480463696649707
surface azimuth 150,1.0,0.9594064710889644,0.8976969637013297,0.817948658205688,0.7248344688838043,0.6256655488525216,0.5301074371532707,0.4458232603995378,0.3771868333746924,0.3264052443938593
surface azimuth 160,1.0,0.9568721286723528,0.8925469401406385,0.809720388555083,0.712732184591417,0.6094338622237856,0.5131184229980658,0.4279662151601882,0.35719009530090035,0.30787937347685934
surface azimuth 170,1.0,0.9554012570307362,0.8895300859061974,0.8047846699579345,0.7050099903512137,0.5998352456198007,0.5044746681598767,0.41868835295836127,0.34663091189773515,0.2943911073486992
surface azimuth 180,1.0,0.9550367120279171,0.8887764327527611,0.8034550623960588,0.7026317434179173,0.597602579340396,0.5025597277113718,0.4166246292791442,0.3444458283258573,0.2914872555096873
