,Tilt-0,Tilt-10,Tilt-20,Tilt-30,Tilt-40,Tilt-50,Tilt-60,Tilt-70,Tilt-80,Tilt-90
surface azimuth -180,1.0,0.9552254474923304,0.888755378783777,0.8028426259467156,0.7009671164503273,0.5936554600443166,0.49792825896616083,0.41154486239028243,0.33875881329686025,0.284783304580701
surface azimuth -170,1.0,0.9560498434761209,0.8904305359285127,0.8055121380196077,0.7050999625836872,0.5987035039037805,0.5030506820325209,0.41742721340724037,0.34521468850661846,0.29172186805697103
surface azimuth -160,1.0,0.9579651017936562,0.8943431673551288,0.8117822748142782,0.7146754734354523,0.6114352148054274,0.5149904276168175,0.43018752148937267,0.35894334812173323,0.30832172429113414
surface azimuth -150,1.0,0.9609164691860681,0.9004008334394806,0.8213631235996323,0.7285979968998769,0.6299924677832687,0.5350176285900136,0.4502746736384866,0.38080842152763233,0.3298004614191549
surface azimuth -140,1.0,0.9648167558380744,0.9083971752958722,0.8338721642824941,0.7461969662902183,0.6524675461384578,0.5604229522900394,0.47729522290295917,0.4081022916086431,0.3539391224039375
surface azimuth -130,1.0,0.9695597672537113,0.9181018451493903,0.8488015474503232,0.7664419301199246,0.677293172736604,0.5888158731234885,0.5076684469052519,0.4376411628999284,0.379720835371577
surface azimuth -120,1.0,0.974992513469005,0.9291053146595777,0.8654738685065824,0.7882311243484997,0.7034855427758886,0.6186290375061184,0.5388082630045704,0.4673434801007134,0.4057258113072584
surface azimuth -110,1.0,0.9809402367103156,0.9411197361278548,0.8831653901846541,0.8108876773158961,0.7303819985963116,0.6482674514210602,0.5690436083603955,0.4959030324706529,0.4304907424995344
surface azimuth -100,1.0,0.9872290310101342,0.9536445279228969,0.9013092906879149,0.833759765639836,0.7568582601261873,0.676696228161655,0.5973583588786522,0.5221665485986561,0.45281063738991256
surface azimuth -90,1.0,0.9936434885817558,0.9662745913699927,0.9194532543425501,0.8561975543379863,0.7822991922696275,0.7032481016417944,0.6228442481185105,0.545304575098233,0.47241498858679687
surface azimuth -80,1.0,0.9999866578181648,0.9786588907067085,0.9370691021781052,0.8777445617379025,0.8059967439544511,0.7273930379891658,0.6456012515521194,0.5648379520635698,0.48806220726447874
surface azimuth -70,1.0,1.0060652969783745,0.9904620526793739,0.9537977289392572,0.8981026202507923,0.8279503935541253,0.7488769527263911,0.6649962474554629,0.5803602723676097,0.49929483047243994
surface azimuth -60,1.0,1.0116985391417355,1.0013272436621994,0.9690983930448512,0.9166152129469659,0.8478009945218308,0.7674992153825694,0.6807833869096633,0.5921650866609713,0.5064186881509942
surface azimuth -50,1.0,1.0167216941714878,1.0109863644980468,0.9828099255659478,0.9330759325352221,0.8651243969680341,0.78369485571958,0.6936438082884461,0.6004684776508695,0.5096089992376598
surface azimuth -40,1.0,1.0209849907285287,1.0190923788632456,0.9943699485988217,0.9472978765969301,0.8801797929508135,0.7972839533726557,0.7038615488559253,0.6057085985955577,0.5094105617288452
surface azimuth -30,1.0,1.024368727808554,1.025428194696711,1.0034345353040752,0.958567802488035,0.8923780101206988,0.8083971174167798,0.7116000525670401,0.6083770401211627,0.5065711159000218
surface azimuth -20,1.0,1.0268029289902658,1.029999102228372,1.0097228039466037,0.9663886578567794,0.9012207428836081,0.8165619904684365,0.7168529888424663,0.6085771227872782,0.501369844224876
surface azimuth -10,1.0,1.0281985185235694,1.0325590550402162,1.0130759723213678,0.9704273084970619,0.905794841377636,0.821168845849563,0.7195823296283632,0.6068506395669087,0.49600970285982326
surface azimuth 0,1.0,1.0284899048269618,1.0330292344429284,1.0135955026012806,0.9708755366114448,0.906279104726808,0.8217917989281077,0.7202939160543882,0.6063428138875908,0.49574139573123116
surface azimuth 10,1.0,1.0276686014707868,1.0314327285396816,1.0113180869434029,0.9680573017333058,0.9032026674147317,0.8190633644564432,0.7189876237944165,0.6080367378659528,0.4979487383298152
surface azimuth 20,1.0,1.0257609852651055,1.0277470089188985,1.0062061095280324,0.9620933601598778,0.8970184829407375,0.8137169326680969,0.715903376787916,0.6094848082784154,0.5035512745888834
surface azimuth 30,1.0,1.0228253957749083,1.0221423172015094,0.998470677133039,0.9529372668570029,0.8875902176054424,0.8053452021661449,0.7104983393815544,0.6088292062861904,0.5081007406469316
surface azimuth 40,1.0,1.018951947550323,1.0147098431955786,0.9881709493781146,0.9408551474562964,0.8751120915522386,0.7941051010343474,0.702430790916173,0.6054949727396135,0.5098925668017
surface azimuth 50,1.0,1.0142572187853909,1.0057054575877833,0.9758283447228747,0.9263625644198464,0.8599008424772482,0.780149265711499,0.6915731095674879,0.5991602755791124,0.5085888784475505
surface azimuth 60,1.0,1.008893293130663,0.9954819095432637,0.9616001405171393,0.9093830992445999,0.8420108720631196,0.7634575684294737,0.6776102519767719,0.589461556668092,0.5035928627829551
surface azimuth 70,1.0,1.0030107257795453,0.9841625906763082,0.9457588932971949,0.8905067438593639,0.8219785045062146,0.7437894519830816,0.660274097733296,0.5759079115880279,0.4943831615389831
surface azimuth 80,1.0,0.996787227593027,0.972100649480025,0.9286910233344405,0.869981612690145,0.7995008005696596,0.7212603292464098,0.6397958683420045,0.5583891150324182,0.4807870851717238
surface azimuth 90,1.0,0.9904103279900679,0.9596329834117363,0.9109012736133866,0.8479573457210986,0.7747786070009904,0.6960094785918665,0.6157120374070676,0.5370369590707493,0.46362541490188564
surface azimuth 100,1.0,0.9840713520380483,0.9470972641342409,0.8927205941214292,0.8250066945744684,0.7485986987386258,0.6683359565256836,0.5884464483765878,0.5122067597682182,0.4427736788615223
surface azimuth 110,1.0,0.977964307192635,0.9348979357986077,0.8747005242990806,0.8017398620132361,0.7213597973834547,0.638795983868619,0.5588630225038207,0.48478083149106194,0.4188834163698611
surface azimuth 120,1.0,0.9722768417914093,0.9234531517655024,0.8574182954850327,0.7789394549889708,0.6938005797809117,0.6082776036355602,0.5276051427793598,0.45539322614857564,0.3933276484761608
surface azimuth 130,1.0,0.9671829254698551,0.9131255010091446,0.8415449803456129,0.7574366069450728,0.6670784814616556,0.5778383122847561,0.49595169009766976,0.4252923995460913,0.3672745480042645
surface azimuth 140,1.0,0.9628396758462471,0.9043051684967663,0.8277770356164522,0.7381940603208604,0.642509070564137,0.5490416469215272,0.4654573935172296,0.3961253871678485,0.342157459212907
surface azimuth 150,1.0,0.9593811741610071,0.8972820094515453,0.8166836611808846,0.7222797974952021,0.6214828628483787,0.5243137639980524,0.4390162004390823,0.3699627910088069,0.319481262987334
surface azimuth 160,1.0,0.9569148411404158,0.8922441417001998,0.8086236567853635,0.7103540782398458,0.6052121421350615,0.5070680521849088,0.4213879273991226,0.3499657239171166,0.3001278714241569
surface azimuth 170,1.0,0.9555167674431093,0.889362543986827,0.8039238857897493,0.7029169631023445,0.5953819933060459,0.4989344227065712,0.41277628179696924,0.3403538579815777,0.28673024568127103
surface azimuth 180,1.0,0.9552254474923304,0.888755378783777,0.8028426259467156,0.7009671164503273,0.5936554600443166,0.49792825896616083,0.41154486239028243,0.33875881329686025,0.284783304580701
