,Tilt-0,Tilt-10,Tilt-20,Tilt-30,Tilt-40,Tilt-50,Tilt-60,Tilt-70,Tilt-80,Tilt-90
surface azimuth -180,1.0,0.9553716052614581,0.8890940963972167,0.8033959001823182,0.701759851476987,0.594877839226594,0.49931029928789245,0.41277271186312753,0.33991075807529786,0.2859855935533461
surface azimuth -170,1.0,0.9562947978966788,0.8909641756786526,0.8063498393014338,0.7062638163230415,0.6002676858989968,0.5047237559853527,0.41890865801302524,0.3465759426339712,0.2930740867786333
surface azimuth -160,1.0,0.9583020626047303,0.8950337066761063,0.812819441979976,0.7160929983601413,0.6131336598921011,0.5167235653150674,0.4316772104976914,0.36031080019349165,0.30948670870352096
surface azimuth -150,1.0,0.9613318279518772,0.9012063738711485,0.8225364632690139,0.7301358549288639,0.6316900978762306,0.5365558272830375,0.4518178399003884,0.3820818420025618,0.3308465437215106
surface azimuth -140,1.0,0.9652997149549829,0.9092786850202994,0.8351024721530734,0.7477667546513735,0.6541901768892858,0.5622091036792598,0.47878344967353453,0.4091885716927479,0.3547486796144369
surface azimuth -130,1.0,0.9700914536865721,0.9189867113043125,0.8500804561766072,0.7681226120253095,0.6792696216087847,0.5906705646121316,0.5090997268967477,0.4385849260085405,0.3803178060842673
surface azimuth -120,1.0,0.9755484486509989,0.9299837454594331,0.8667775022118664,0.7900725490701398,0.7056205988520647,0.6204702982475719,0.540177670997289,0.4682147047983245,0.4061909402615291
surface azimuth -110,1.0,0.9815019913180852,0.9419927354219941,0.8845640681588683,0.812874138859557,0.7325612975523045,0.6501049364134313,0.5703855842117471,0.4967183502761863,0.43087172640663923
surface azimuth -100,1.0,0.9877764608102964,0.9544975868232757,0.9027500001369584,0.835811395089543,0.7590348218991214,0.6785456094632819,0.5986978755242907,0.5229664587570971,0.4531704056362985
surface azimuth -90,1.0,0.9941666560679855,0.9670895767907222,0.9208891140650637,0.8582499519880978,0.7844513520942162,0.7051263507106809,0.6242223783260491,0.5461135765170899,0.47278267363758664
surface azimuth -80,1.0,1.0004759429241594,0.9794253252709916,0.9384571210089183,0.8797352450316649,0.808120710872407,0.7292837902300559,0.6470422763723355,0.5657110946840208,0.4884742870829562
surface azimuth -70,1.0,1.0065098518314841,0.9911568094177847,0.9550990484686722,0.8999492706003549,0.8299931757817507,0.7507618092799448,0.6664925594449749,0.5813524151663578,0.4997926251886722
surface azimuth -60,1.0,1.0120880690142413,1.0019294678028887,0.9702784098163584,0.9182865710191406,0.8497039592117379,0.769355654129367,0.6823078480622744,0.5932303952620988,0.5070555868148006
surface azimuth -50,1.0,1.017045410976559,1.0114838622583622,0.9838110546027415,0.9345403394238788,0.8668447915660565,0.785410557885158,0.6951920838595713,0.601597690664883,0.5103625946427058
surface azimuth -40,1.0,1.0212303438038404,1.0194870944132186,0.995151597138334,0.948526379260603,0.8817068106687699,0.7988273415971662,0.7053130087927293,0.6068510149259991,0.5102071387564842
surface azimuth -30,1.0,1.0245258547846092,1.0257121421358941,1.0039570633529071,0.9595048957468783,0.8936560089686761,0.8097770495868017,0.7128972483811201,0.6094543331918768,0.5073362733355501
surface azimuth -20,1.0,1.0268603961377214,1.0301216484340787,1.0099452016189367,0.9669716377496084,0.9021569176660381,0.8177257116395836,0.7180171097044301,0.6095825777791533,0.5020346315369225
surface azimuth -10,1.0,1.028152099243196,1.0324872049499896,1.0130428130428415,0.9705641961746393,0.9062808873230557,0.8219561686697009,0.720515449481901,0.6077299540557709,0.4964790867591312
surface azimuth 0,1.0,1.028340961938876,1.0327834289570892,1.0132731723180577,0.9705479684542329,0.9060170323392297,0.8218743896333396,0.7207571081878358,0.6070148538246712,0.49609347180879604
surface azimuth 10,1.0,1.0274217534352736,1.0309937957799886,1.0107352460145682,0.9673675427873664,0.902485116412154,0.8184341066606102,0.7185707341986705,0.6080084677311489,0.4978861535696959
surface azimuth 20,1.0,1.0254239185629512,1.0271231872872995,1.0053354116425146,0.9610482297679825,0.8959168660136959,0.8126612718606945,0.7150290731757742,0.6086985167809664,0.5027798530206564
surface azimuth 30,1.0,1.0224076578675039,1.0213505654614519,0.997340027996444,0.9515740429737518,0.886119516921843,0.8039075692489663,0.7091738261556709,0.6074389605058856,0.506747651185693
surface azimuth 40,1.0,1.0184656733580315,1.0137721862825972,0.986808058203046,0.9392082346724528,0.8733009113998501,0.7922922382445933,0.7005162592685426,0.6034575056692876,0.5079130840856223
surface azimuth 50,1.0,1.0137174191595353,1.0046436905646032,0.9742789680428319,0.9244649665407546,0.8577605018314757,0.7778855999320444,0.6891316784067395,0.5965857482442164,0.5060916846375272
surface azimuth 60,1.0,1.0083181684340832,0.9943246250487766,0.9599025175225494,0.9072315867957602,0.839573738078179,0.7608146505998317,0.6747737568499274,0.5865098372707639,0.500752717241676
surface azimuth 70,1.0,1.0024174744065673,0.9829472699552653,0.9439388139993294,0.8881536654926171,0.8192959317667261,0.7409204694377282,0.6572197111147056,0.5727686125629887,0.49134819007069946
surface azimuth 80,1.0,0.9961931991367444,0.9708599970217701,0.9268109941731701,0.8675166877630841,0.7967355384319134,0.7183187991620802,0.63667828898251,0.5551607015489087,0.4777240092384067
surface azimuth 90,1.0,0.989832735054683,0.958407855217487,0.9090098012548362,0.8454521735285291,0.7720576940460757,0.6931502721727066,0.6126664182307692,0.5338991571364278,0.46066736835701594
surface azimuth 100,1.0,0.9835275890707553,0.9459354854236657,0.8908863620591975,0.8225819677989284,0.7460084544339155,0.6656487638863848,0.5855713440578578,0.5093208001391486,0.4400581903400162
surface azimuth 110,1.0,0.9774710423299482,0.9338508525400054,0.872991549553931,0.7994992774444122,0.7189989419430193,0.6363683578766387,0.5563246458536583,0.48223093266686873,0.4165468355831701
surface azimuth 120,1.0,0.9718486521817721,0.9225579178596308,0.8559149901290144,0.7769655965768352,0.6917606261164704,0.6061922763873545,0.5255035513536129,0.4533312055915334,0.39150948553949755
surface azimuth 130,1.0,0.966833105214509,0.9124121010712904,0.8403335893115919,0.7558022996294504,0.6654224092283408,0.5761923814048562,0.49437060886075995,0.4238439148726069,0.36602699151570345
surface azimuth 140,1.0,0.9625793586723315,0.9037913051096047,0.8269141465045958,0.7370216254369333,0.6413094148790566,0.5479109953447096,0.46448595688651256,0.39529309627257536,0.34146759804145704
surface azimuth 150,1.0,0.9592183255375123,0.8969756919890645,0.8161924933621431,0.721620008968641,0.6208563820616855,0.5238048643400806,0.4386396941170112,0.3697160067959617,0.319319860590797
surface azimuth 160,1.0,0.9568545684603836,0.8921561138116786,0.8084996403216513,0.7101816340084387,0.605198498612615,0.5073588663867579,0.4216528981939508,0.350109790670063,0.3004541303227971
surface azimuth 170,1.0,0.9555604663628315,0.8894948713879132,0.8041425856517976,0.7032356598396524,0.5960291324575571,0.4998738221749837,0.4136330300475035,0.3409896813278202,0.2874594186003693
surface azimuth 180,1.0,0.9553716052614581,0.8890940963972167,0.8033959001823182,0.701759851476987,0.594877839226594,0.49931029928789245,0.41277271186312753,0.33991075807529786,0.285985593553346
