,Tilt-0,Tilt-10,Tilt-20,Tilt-30,Tilt-40,Tilt-50,Tilt-60,Tilt-70,Tilt-80,Tilt-90
surface azimuth -180,1.0,0.9578414674080097,0.8949690174507234,0.8135704657174165,0.717042329848347,0.6159516398940733,0.5233274999079128,0.4383688753787048,0.3655158445509021,0.31035640704399287
surface azimuth -170,1.0,0.9568711544082356,0.8931410622675029,0.8111881750146499,0.7147446291556628,0.613376546462941,0.5206495909227938,0.43636867282511255,0.3648222905697959,0.3117008234639539
surface azimuth -160,1.0,0.9569583399066187,0.8934859958574399,0.8122694891670568,0.7176513863271325,0.6177430405384922,0.5243859894262288,0.44125324479138756,0.37172192125964587,0.3235668356219377
surface azimuth -150,1.0,0.9580998046219552,0.8959895697548176,0.8167095879430804,0.7249565018951459,0.6283086367251507,0.5355772740174053,0.4537634602734941,0.3879304765059132,0.33994047155345347
surface azimuth -140,1.0,0.9602724124822785,0.9005600956613493,0.824203501114677,0.7360904441940561,0.6432607001059,0.5535366090295644,0.47407371534293163,0.4091424902790776,0.3585877320383838
surface azimuth -130,1.0,0.9634048406138328,0.9070340572183092,0.8344275992366249,0.7504839244970044,0.6617912523324418,0.5757048789834321,0.4981801662905435,0.4325075704393916,0.3788174937343766
surface azimuth -120,1.0,0.9673981167617124,0.9151439165248306,0.8468818732983303,0.7673717868259025,0.6828675173384575,0.600019897388804,0.5236936304753467,0.4566652079908722,0.3995246529729401
surface azimuth -110,1.0,0.9721242815446444,0.9246481169553573,0.8610786071103408,0.7860030765288645,0.7054892622535194,0.6250234761626509,0.5490226531958052,0.48036481477017934,0.4197503936383829
surface azimuth -100,1.0,0.9774342337560346,0.9351862342628501,0.8764573861238342,0.8058372907604225,0.7285517154616286,0.6497403260732639,0.5735137000926761,0.5026649838383457,0.4385045134907659
surface azimuth -90,1.0,0.9831583834970626,0.9464133197716358,0.8926501067887056,0.8260091203299981,0.7515744921369176,0.6736212257576786,0.5962732323388595,0.5231003105867295,0.45550702180602987
surface azimuth -80,1.0,0.9891336962864719,0.9580050654017158,0.9091279953941824,0.8461381515016394,0.7737909932555515,0.69632407432484,0.6174281202715324,0.5411081324997054,0.46980442413487716
surface azimuth -70,1.0,0.9951779714646706,0.9696720380221043,0.9255365806692079,0.866015868937253,0.7950788056760302,0.7173367714537102,0.6364990586603013,0.5564194501494685,0.48103998452994495
surface azimuth -60,1.0,1.0011079538213048,0.9810596666356222,0.9413705751685205,0.8849364287348999,0.815360564127362,0.7365384997919754,0.6531760203711404,0.5693792879386665,0.48946866107996434
surface azimuth -50,1.0,1.006745381585997,0.9919373599362714,0.9566086328786955,0.9027871662276719,0.8341887408533903,0.7544374733420498,0.6679488382231674,0.5799442474637633,0.4952225278500982
surface azimuth -40,1.0,1.0119214197246673,1.0019213583539501,0.9706590177118922,0.9196229038728677,0.8517838991384251,0.7707707589642233,0.6812185102756703,0.5884888860484281,0.4986277143162712
surface azimuth -30,1.0,1.0164772989917301,1.010709913235227,0.9831146586471172,0.9346873761024241,0.8678077157860131,0.7858564244720793,0.693133731184015,0.5955284871154958,0.5003315092753489
surface azimuth -20,1.0,1.0202934220795812,1.0181068295766855,0.9936254140069147,0.9476665782785977,0.8818910272266534,0.7992648663448488,0.7037974322749635,0.6013060329533382,0.5006258300920141
surface azimuth -10,1.0,1.0232532865251964,1.023824002412899,1.0017707096599497,0.9578343098522845,0.8934060037959597,0.8106445698250734,0.7131060670523347,0.6061275244991355,0.5005697155748376
surface azimuth 0,1.0,1.0252506311088536,1.0276971387761922,1.0073261029325324,0.9648124087040174,0.9015386261133445,0.8195455617644212,0.7215843086226826,0.6121856874285408,0.5044557482313892
surface azimuth 10,1.0,1.0262242648086268,1.0296262873736821,1.0101659243608665,0.9685632834539155,0.9061996040215322,0.8251848306418906,0.7285834402623781,0.6207896111115905,0.5114056566411788
surface azimuth 20,1.0,1.0261461563782883,1.0294997414794644,1.0101979406489028,0.9689765991733605,0.9073425989270207,0.827637232007464,0.733285388830982,0.6289952713243447,0.522809230488423
surface azimuth 30,1.0,1.02501805701446,1.0273958350195649,1.0073901198052033,0.9659379980801688,0.9048019242634444,0.8265229071398661,0.7348680875401443,0.6345023944017195,0.5326665487626974
surface azimuth 40,1.0,1.022874123833854,1.0233102271706689,1.001795406530257,0.9596355426427201,0.8987043824650217,0.8219278530176379,0.7329648183078654,0.6364234901449894,0.5389416072584843
surface azimuth 50,1.0,1.0197789482859723,1.017353374531203,0.9937215110809865,0.9503329530900234,0.8893101630632722,0.8137948135670572,0.7274424369767285,0.6346314374453921,0.5413192057302353
surface azimuth 60,1.0,1.0158320187211884,1.0098294633221456,0.9833187710663379,0.9380066065756991,0.8764385298798217,0.802069496864227,0.7179620558020096,0.6286417992691524,0.5392366694553967
surface azimuth 70,1.0,1.011149710107383,1.0008271107811262,0.9707508370239258,0.9230040197125964,0.8606185133028953,0.7866152027806077,0.7042152359522735,0.6179648571351692,0.5324276356843094
surface azimuth 80,1.0,1.005870270565953,0.9906049554468558,0.9562882071760332,0.9055880012722655,0.8415255951566165,0.7673032776857246,0.6864103858219973,0.6027834323048334,0.5207233401180327
surface azimuth 90,1.0,1.0001544506628284,0.9794476152662729,0.9403614380224543,0.8858905700941371,0.8193964788137925,0.7443512555385079,0.6643439847564896,0.5830723347052985,0.5047692555723012
surface azimuth 100,1.0,0.9941730420715464,0.9676672680729231,0.9233049462165352,0.8644273029699124,0.7947826521250347,0.7182511165323195,0.6384788528018759,0.5592081382747583,0.48461325699505786
surface azimuth 110,1.0,0.9881072347155678,0.9556322020721626,0.905603785927253,0.8417147817964542,0.7682262105211319,0.6894525312260735,0.6095515805759147,0.532181233242642,0.46094545759120953
surface azimuth 120,1.0,0.982142984466005,0.9437359794350063,0.8878264928096904,0.8185160072872943,0.7404183499810798,0.6588226506052755,0.5782403109345705,0.5026244677876789,0.4350813363750248
surface azimuth 130,1.0,0.9764632021239726,0.9323418914094123,0.8706145405750002,0.7955290935037578,0.712431320098531,0.627336345086805,0.5457889139563944,0.47182006977278795,0.40819493671879997
surface azimuth 140,1.0,0.9712435734931112,0.9218411054363046,0.8546356536698525,0.7738456875900371,0.6854002806607304,0.5964510383914359,0.5136321532633745,0.4413594873160186,0.38160414607705295
surface azimuth 150,1.0,0.9666426669852582,0.9125883997524373,0.8404855520717942,0.7543951721788728,0.6607109103660107,0.5682814619278989,0.4843546458897533,0.4130089062065284,0.35686766583237617
surface azimuth 160,1.0,0.9628016249100034,0.9048620292453208,0.8286037617114129,0.7378604661711347,0.6396051511815677,0.5462012949619061,0.4619190268861513,0.38936706240273233,0.3350807877320943
surface azimuth 170,1.0,0.9598388237986221,0.8989119182693558,0.8194624191303852,0.7250050052951903,0.6243661539989727,0.5318113058837766,0.44684271210074716,0.37348892084554813,0.31797347664024334
surface azimuth 180,1.0,0.9578414674080097,0.8949690174507234,0.8135704657174165,0.717042329848347,0.6159516398940733,0.5233274999079128,0.4383688753787048,0.3655158445509021,0.31035640704399287
